^C:\USERS\ATMOZZIS\DESKTOP\CZ4079  FINAL YEAR PROJECT\FLTK\FLTK-1.3.2\IDE\VISUALC2010\FLTKZLIB_DEBUG\ADLER32.OBJ|C:\USERS\ATMOZZIS\DESKTOP\CZ4079  FINAL YEAR PROJECT\FLTK\FLTK-1.3.2\IDE\VISUALC2010\FLTKZLIB_DEBUG\COMPRESS.OBJ|C:\USERS\ATMOZZIS\DESKTOP\CZ4079  FINAL YEAR PROJECT\FLTK\FLTK-1.3.2\IDE\VISUALC2010\FLTKZLIB_DEBUG\CRC32.OBJ|C:\USERS\ATMOZZIS\DESKTOP\CZ4079  FINAL YEAR PROJECT\FLTK\FLTK-1.3.2\IDE\VISUALC2010\FLTKZLIB_DEBUG\DEFLATE.OBJ|C:\USERS\ATMOZZIS\DESKTOP\CZ4079  FINAL YEAR PROJECT\FLTK\FLTK-1.3.2\IDE\VISUALC2010\FLTKZLIB_DEBUG\GZCLOSE.OBJ|C:\USERS\ATMOZZIS\DESKTOP\CZ4079  FINAL YEAR PROJECT\FLTK\FLTK-1.3.2\IDE\VISUALC2010\FLTKZLIB_DEBUG\GZLIB.OBJ|C:\USERS\ATMOZZIS\DESKTOP\CZ4079  FINAL YEAR PROJECT\FLTK\FLTK-1.3.2\IDE\VISUALC2010\FLTKZLIB_DEBUG\GZREAD.OBJ|C:\USERS\ATMOZZIS\DESKTOP\CZ4079  FINAL YEAR PROJECT\FLTK\FLTK-1.3.2\IDE\VISUALC2010\FLTKZLIB_DEBUG\GZWRITE.OBJ|C:\USERS\ATMOZZIS\DESKTOP\CZ4079  FINAL YEAR PROJECT\FLTK\FLTK-1.3.2\IDE\VISUALC2010\FLTKZLIB_DEBUG\INFBACK.OBJ|C:\USERS\ATMOZZIS\DESKTOP\CZ4079  FINAL YEAR PROJECT\FLTK\FLTK-1.3.2\IDE\VISUALC2010\FLTKZLIB_DEBUG\INFFAST.OBJ|C:\USERS\ATMOZZIS\DESKTOP\CZ4079  FINAL YEAR PROJECT\FLTK\FLTK-1.3.2\IDE\VISUALC2010\FLTKZLIB_DEBUG\INFLATE.OBJ|C:\USERS\ATMOZZIS\DESKTOP\CZ4079  FINAL YEAR PROJECT\FLTK\FLTK-1.3.2\IDE\VISUALC2010\FLTKZLIB_DEBUG\INFTREES.OBJ|C:\USERS\ATMOZZIS\DESKTOP\CZ4079  FINAL YEAR PROJECT\FLTK\FLTK-1.3.2\IDE\VISUALC2010\FLTKZLIB_DEBUG\TREES.OBJ|C:\USERS\ATMOZZIS\DESKTOP\CZ4079  FINAL YEAR PROJECT\FLTK\FLTK-1.3.2\IDE\VISUALC2010\FLTKZLIB_DEBUG\UNCOMPR.OBJ|C:\USERS\ATMOZZIS\DESKTOP\CZ4079  FINAL YEAR PROJECT\FLTK\FLTK-1.3.2\IDE\VISUALC2010\FLTKZLIB_DEBUG\ZUTIL.OBJ
/OUT:"..\..\lib\fltkzlibd.lib" /NOLOGO .\fltkzlib_debug\adler32.obj
.\fltkzlib_debug\compress.obj
.\fltkzlib_debug\crc32.obj
.\fltkzlib_debug\deflate.obj
.\fltkzlib_debug\gzclose.obj
.\fltkzlib_debug\gzlib.obj
.\fltkzlib_debug\gzread.obj
.\fltkzlib_debug\gzwrite.obj
.\fltkzlib_debug\infback.obj
.\fltkzlib_debug\inffast.obj
.\fltkzlib_debug\inflate.obj
.\fltkzlib_debug\inftrees.obj
.\fltkzlib_debug\trees.obj
.\fltkzlib_debug\uncompr.obj
.\fltkzlib_debug\zutil.obj
