^C:\USERS\ATMOZZIS\DESKTOP\CZ4079  FINAL YEAR PROJECT\FLTK\FLTK-1.3.2\IDE\VISUALC2010\MESSAGE_DEBUG\MESSAGE.OBJ|C:\USERS\ATMOZZIS\DESKTOP\CZ4079  FINAL YEAR PROJECT\FLTK\FLTK-1.3.2\LIB\FLTKD.LIB
C:\USERS\ATMOZZIS\DESKTOP\CZ4079  FINAL YEAR PROJECT\FLTK\FLTK-1.3.2\TEST\MESSAGED.EXE
C:\USERS\ATMOZZIS\DESKTOP\CZ4079  FINAL YEAR PROJECT\FLTK\FLTK-1.3.2\IDE\VISUALC2010\MESSAGE_DEBUG\MESSAGED.EXE.INTERMEDIATE.MANIFEST
C:\USERS\ATMOZZIS\DESKTOP\CZ4079  FINAL YEAR PROJECT\FLTK\FLTK-1.3.2\IDE\VISUALC2010\MESSAGE_DEBUG\MESSAGED.PDB
