^C:\USERS\ATMOZZIS\DESKTOP\CZ4079  FINAL YEAR PROJECT\FLTK\FLTK-1.3.2\IDE\VISUALC2010\FLTKZLIB_RELEASE\ADLER32.OBJ|C:\USERS\ATMOZZIS\DESKTOP\CZ4079  FINAL YEAR PROJECT\FLTK\FLTK-1.3.2\IDE\VISUALC2010\FLTKZLIB_RELEASE\COMPRESS.OBJ|C:\USERS\ATMOZZIS\DESKTOP\CZ4079  FINAL YEAR PROJECT\FLTK\FLTK-1.3.2\IDE\VISUALC2010\FLTKZLIB_RELEASE\CRC32.OBJ|C:\USERS\ATMOZZIS\DESKTOP\CZ4079  FINAL YEAR PROJECT\FLTK\FLTK-1.3.2\IDE\VISUALC2010\FLTKZLIB_RELEASE\DEFLATE.OBJ|C:\USERS\ATMOZZIS\DESKTOP\CZ4079  FINAL YEAR PROJECT\FLTK\FLTK-1.3.2\IDE\VISUALC2010\FLTKZLIB_RELEASE\GZCLOSE.OBJ|C:\USERS\ATMOZZIS\DESKTOP\CZ4079  FINAL YEAR PROJECT\FLTK\FLTK-1.3.2\IDE\VISUALC2010\FLTKZLIB_RELEASE\GZLIB.OBJ|C:\USERS\ATMOZZIS\DESKTOP\CZ4079  FINAL YEAR PROJECT\FLTK\FLTK-1.3.2\IDE\VISUALC2010\FLTKZLIB_RELEASE\GZREAD.OBJ|C:\USERS\ATMOZZIS\DESKTOP\CZ4079  FINAL YEAR PROJECT\FLTK\FLTK-1.3.2\IDE\VISUALC2010\FLTKZLIB_RELEASE\GZWRITE.OBJ|C:\USERS\ATMOZZIS\DESKTOP\CZ4079  FINAL YEAR PROJECT\FLTK\FLTK-1.3.2\IDE\VISUALC2010\FLTKZLIB_RELEASE\INFBACK.OBJ|C:\USERS\ATMOZZIS\DESKTOP\CZ4079  FINAL YEAR PROJECT\FLTK\FLTK-1.3.2\IDE\VISUALC2010\FLTKZLIB_RELEASE\INFFAST.OBJ|C:\USERS\ATMOZZIS\DESKTOP\CZ4079  FINAL YEAR PROJECT\FLTK\FLTK-1.3.2\IDE\VISUALC2010\FLTKZLIB_RELEASE\INFLATE.OBJ|C:\USERS\ATMOZZIS\DESKTOP\CZ4079  FINAL YEAR PROJECT\FLTK\FLTK-1.3.2\IDE\VISUALC2010\FLTKZLIB_RELEASE\INFTREES.OBJ|C:\USERS\ATMOZZIS\DESKTOP\CZ4079  FINAL YEAR PROJECT\FLTK\FLTK-1.3.2\IDE\VISUALC2010\FLTKZLIB_RELEASE\TREES.OBJ|C:\USERS\ATMOZZIS\DESKTOP\CZ4079  FINAL YEAR PROJECT\FLTK\FLTK-1.3.2\IDE\VISUALC2010\FLTKZLIB_RELEASE\UNCOMPR.OBJ|C:\USERS\ATMOZZIS\DESKTOP\CZ4079  FINAL YEAR PROJECT\FLTK\FLTK-1.3.2\IDE\VISUALC2010\FLTKZLIB_RELEASE\ZUTIL.OBJ
/OUT:"..\..\lib\fltkzlib.lib" /NOLOGO .\fltkzlib_release\adler32.obj
.\fltkzlib_release\compress.obj
.\fltkzlib_release\crc32.obj
.\fltkzlib_release\deflate.obj
.\fltkzlib_release\gzclose.obj
.\fltkzlib_release\gzlib.obj
.\fltkzlib_release\gzread.obj
.\fltkzlib_release\gzwrite.obj
.\fltkzlib_release\infback.obj
.\fltkzlib_release\inffast.obj
.\fltkzlib_release\inflate.obj
.\fltkzlib_release\inftrees.obj
.\fltkzlib_release\trees.obj
.\fltkzlib_release\uncompr.obj
.\fltkzlib_release\zutil.obj
