^C:\USERS\ATMOZZIS\DESKTOP\CZ4079  FINAL YEAR PROJECT\FLTK\FLTK-1.3.2\IDE\VISUALC2010\SCROLL_DEBUG\SCROLL.OBJ|C:\USERS\ATMOZZIS\DESKTOP\CZ4079  FINAL YEAR PROJECT\FLTK\FLTK-1.3.2\LIB\FLTKD.LIB
/ERRORREPORT:PROMPT /OUT:"../../test/scrolld.exe" /INCREMENTAL:NO /NOLOGO /LIBPATH:..\..\lib fltkd.lib comctl32.lib kernel32.lib user32.lib gdi32.lib winspool.lib comdlg32.lib advapi32.lib shell32.lib ole32.lib oleaut32.lib uuid.lib odbc32.lib odbccp32.lib /NODEFAULTLIB:libcd /MANIFEST /ManifestFile:".\scroll_debug\scrolld.exe.intermediate.manifest" /MANIFESTUAC:"level='asInvoker' uiAccess='false'" /DEBUG /PDB:".\scroll_debug\scrolld.pdb" /SUBSYSTEM:WINDOWS /TLBID:1 /DYNAMICBASE:NO /IMPLIB:"..\..\test\scrolld.lib" /MACHINE:X86 .\scroll_debug\scroll.obj
"C:\Users\atmozzis\Desktop\CZ4079  Final Year Project\fltk\fltk-1.3.2\lib\fltkd.lib"
