<?xml version="1.0" encoding="UTF-8" standalone="no"?>
<!-- Created with Cacani (http://www.cacani.org/) -->
<svg
	xmlns="http://www.w3.org/2000/svg"
	xmlns:cacani="http://www.cacani.org/namespaces/cacani"
	version="1.1"
	width="480"
	height="490">
<g cacani:groupmode="cel" id="Run">
	<g display="none" cacani:groupmode="layer" id="Ref 1">
	</g>
	<g display="none" cacani:groupmode="sketch_layer" id="Sketch 2">
	</g>
	<g cacani:groupmode="layer" id="leg_R">
	<path
		style="fill:none;stroke:#000000;stroke-width:4px;stroke-opacity:1;stroke-linecap:round"
		d="M 211.304,265.662 C 211.289,271.021 211.273,276.38 211.336,281.74 211.413,288.234 211.607,294.729 211.535,301.22 211.453,308.671 211.022,316.116 210.592,323.561" />
	<path
		style="fill:none;stroke:#000000;stroke-width:4px;stroke-opacity:1;stroke-linecap:round"
		d="M 210.592,323.561 C 207.97,327.978 207.454,329.437 207.503,330.406 207.519,330.718 207.594,330.979 207.737,331.15 208.347,331.88 209.278,332.212 210.126,332.621" />
	<path
		style="fill:none;stroke:#000000;stroke-width:4px;stroke-opacity:1;stroke-linecap:round"
		d="M 210.126,332.621 C 216.561,334.773 219.097,335.17 221.568,335.483 225.906,336.032 230.25,336.233 234.594,336.218 236.995,336.209 239.397,336.134 241.805,335.989" />
	<path
		style="fill:none;stroke:#000000;stroke-width:4px;stroke-opacity:1;stroke-linecap:round"
		d="M 241.805,335.989 C 242.612,335.856 244.719,335.582 244.868,335.465 246.084,335.46 247.851,334.376 247.786,333.164 247.732,332.162 246.921,331.338 246.234,330.559 245.37,329.578 244.484,328.567 243.422,327.743" />
	<path
		style="fill:none;stroke:#000000;stroke-width:4px;stroke-opacity:1;stroke-linecap:round"
		d="M 243.422,327.743 C 244.362,322.154 245.302,316.564 246.148,310.961 247.912,299.278 249.269,287.535 250.678,275.801 251.498,268.966 252.336,262.134 253.174,255.302 253.174,255.302 253.174,255.277 253.174,255.269" />
	<path
		style="fill:none;stroke:#000000;stroke-width:4px;stroke-opacity:1;stroke-linecap:round"
		d="M 238.356,336.021 C 238.404,336.298 238.491,336.711 238.556,337.035 238.726,337.869 238.422,338.744 238.374,339.592 238.305,340.788 238.399,342.008 237.975,343.119 237.451,344.495 236.336,345.639 235.181,346.651" />
	<path
		style="fill:none;stroke:#000000;stroke-width:4px;stroke-opacity:1;stroke-linecap:round"
		d="M 235.181,346.651 C 230.509,362.156 228.179,371.419 225.879,380.72 222.937,392.612 220.286,404.629 217.895,416.711 216.785,422.32 216.124,428.008 214.895,433.602" />
	<path
		style="fill:none;stroke:#000000;stroke-width:4px;stroke-opacity:1;stroke-linecap:round"
		d="M 215.908,334.364 C 215.907,334.368 215.901,334.382 215.898,334.39 215.854,334.502 215.81,334.636 215.803,334.781 215.685,337.297 216.23,339.842 215.805,342.389 215.49,344.279 214.768,346.112 214.143,347.898 212.543,352.471 210.799,356.964 209.511,361.634 207.599,368.57 206.493,375.739 205.479,382.939 203.64,396.005 204.153,409.307 203.726,422.513 203.57,427.346 203.548,432.164 202.982,436.938" />
	<path
		style="fill:none;stroke:#000000;stroke-width:4px;stroke-opacity:1;stroke-linecap:round"
		d="M 219.017,432.575 C 219.013,432.576 219.002,432.579 218.995,432.581 217.553,432.96 216.082,433.304 214.62,433.642 212.901,434.04 211.192,434.429 209.502,434.863 205.677,435.846 201.947,437.059 198.311,438.392" />
	<path
		style="fill:none;stroke:#000000;stroke-width:4px;stroke-opacity:1;stroke-linecap:round"
		d="M 198.311,438.392 C 198.378,438.51 198.566,438.787 198.574,438.825 199.147,440.297 199.887,441.694 200.585,443.107" />
	<path
		style="fill:none;stroke:#000000;stroke-width:4px;stroke-opacity:1;stroke-linecap:round"
		d="M 200.585,443.107 C 199.138,448.565 198.369,450.465 197.888,452.383 197.114,455.472 196.734,458.59 196.575,461.721 196.523,462.745 196.494,463.771 196.519,464.802 196.528,465.155 196.543,465.508 196.56,465.852" />
	<path
		style="fill:none;stroke:#000000;stroke-width:4px;stroke-opacity:1;stroke-linecap:round"
		d="M 196.56,465.852 C 196.93,465.947 197.298,466.036 197.665,466.12 198.363,466.28 199.052,466.42 199.718,466.553 202.553,467.119 204.962,467.549 207.17,467.881 210.3,468.353 213.024,468.63 215.548,468.859 217.408,469.028 219.16,469.171 220.841,469.238" />
	<path
		style="fill:none;stroke:#000000;stroke-width:4px;stroke-opacity:1;stroke-linecap:round"
		d="M 220.841,469.238 C 223.637,469.672 225.715,470.02 227.384,470.326 229.538,470.72 231.01,471.044 232.341,471.397 233.12,471.604 233.852,471.822 234.552,472.036 234.777,472.105 235,472.173 235.218,472.236 235.889,472.429 236.523,472.566 237.147,472.689 238.786,473.012 240.357,473.235 242.005,473.262 243.078,473.28 244.183,473.215 245.285,473.13 246.634,473.025 247.977,472.891 249.347,472.701 250.386,472.557 251.439,472.38 252.391,472.336" />
	<path
		style="fill:none;stroke:#000000;stroke-width:4px;stroke-opacity:1;stroke-linecap:round"
		d="M 252.391,472.336 C 254.538,471.933 255.276,471.492 255.894,471.027 256.858,470.301 257.661,469.359 258.115,468.278 258.267,467.917 258.379,467.54 258.42,467.157 258.453,466.848 258.439,466.534 258.396,466.216" />
	<path
		style="fill:none;stroke:#000000;stroke-width:4px;stroke-opacity:1;stroke-linecap:round"
		d="M 258.396,466.216 C 257.741,464.372 257.07,462.529 255.984,461.015 254.645,459.147 252.673,457.779 250.473,456.715 248.658,455.837 246.688,455.166 244.712,454.517" />
	<path
		style="fill:none;stroke:#000000;stroke-width:4px;stroke-opacity:1;stroke-linecap:round"
		d="M 244.712,454.517 C 241.838,451.924 238.968,449.33 235.949,446.886 233.503,444.906 230.96,443.026 228.262,441.4 226.854,440.551 225.403,439.771 223.959,438.985" />
	<path
		style="fill:none;stroke:#000000;stroke-width:4px;stroke-opacity:1;stroke-linecap:round"
		d="M 223.959,438.985 C 224.081,435.836 224.374,432.684 224.904,429.719 225.092,428.669 225.309,427.643 225.376,426.346 225.437,425.168 225.375,423.767 224.628,423.277 223.921,422.815 222.601,423.168 221.727,423.796 220.926,424.372 220.5,425.178 220.156,426.009 219.321,428.027 218.968,430.193 218.997,432.329 219.02,433.99 219.274,435.633 219.69,437.266 219.914,438.146 220.185,439.023 220.453,439.902" />
	<path
		style="fill:none;stroke:#000000;stroke-width:4px;stroke-opacity:1;stroke-linecap:round"
		d="M 223.959,438.985 C 223.855,439.053 223.673,439.181 223.603,439.202 223.304,439.873 222.369,440.329 220.453,439.902" />
	<path
		style="fill:none;stroke:#000000;stroke-width:4px;stroke-opacity:1;stroke-linecap:round"
		d="M 220.453,439.902 C 225.173,443.396 227.153,444.576 229.049,445.86 231.717,447.668 234.207,449.724 236.579,451.893 238.049,453.237 239.473,454.625 240.888,456.031" />
	<path
		style="fill:none;stroke:#000000;stroke-width:4px;stroke-opacity:1;stroke-linecap:round"
		d="M 240.888,456.031 C 243.741,457.26 245.308,457.796 246.37,458.088 247.082,458.284 247.567,458.37 248.162,458.389 248.275,458.392 248.391,458.393 248.466,458.403 249.022,458.471 249.529,458.523 250.017,458.593 250.219,458.621 250.458,458.711 250.634,458.58 250.729,458.509 250.639,458.293 250.543,458.183 250.121,457.702 249.502,456.898 249.133,456.475 249.02,456.346 248.769,456.059 248.686,455.964" />
	</g>
	<g cacani:groupmode="layer" id="arm_R">
	<path
		style="fill:none;stroke:#000000;stroke-width:4px;stroke-opacity:1;stroke-linecap:round"
		d="M 255.583,162.352 C 255.849,165.881 256.116,169.411 256.383,172.943 256.731,177.529 257.08,182.12 257.077,186.714 257.075,189.283 256.963,191.853 256.851,194.423" />
	<path
		style="fill:none;stroke:#000000;stroke-width:4px;stroke-opacity:1;stroke-linecap:round"
		d="M 256.851,194.423 C 255.008,195.735 254.483,195.867 253.956,195.984 252.335,196.345 250.664,196.51 249.003,196.528 246.475,196.555 243.944,196.177 241.47,195.666 239.305,195.219 237.147,194.701 235.054,193.995" />
	<path
		style="fill:none;stroke:#000000;stroke-width:4px;stroke-opacity:1;stroke-linecap:round"
		d="M 235.054,193.995 C 233.636,186.782 233.565,184.364 233.435,181.948 233.073,175.207 232.831,168.457 232.324,161.724" />
	<path
		style="fill:none;stroke:#000000;stroke-width:4px;stroke-opacity:1;stroke-linecap:round"
		d="M 252.582,196.208 C 252.564,196.247 252.511,196.364 252.48,196.432 252.16,197.128 251.843,197.984 251.749,198.848 251.36,202.428 251.378,206.108 252.118,209.694 252.27,210.428 252.472,211.157 252.697,211.878 253.285,213.761 254.027,215.579 254.599,217.439 256.049,222.156 257.147,227.01 258.57,231.736 260.112,236.861 261.962,241.88 263.362,246.992" />
	<path
		style="fill:none;stroke:#000000;stroke-width:4px;stroke-opacity:1;stroke-linecap:round"
		d="M 237.86,194.817 C 237.861,194.834 237.864,194.885 237.865,194.918 237.893,195.455 237.939,195.987 237.954,196.525 237.983,197.626 237.877,198.752 237.786,199.875 237.65,201.558 237.55,203.234 237.603,204.885 237.684,207.414 238.124,209.884 238.467,212.409 238.648,213.743 238.802,215.093 239.056,216.43 239.259,217.502 239.526,218.567 239.861,219.619 240.563,221.825 241.565,223.975 242.625,226.101 243.669,228.194 244.769,230.262 245.845,232.323 247.814,236.092 249.703,239.836 251.431,243.595 252.238,245.352 253.01,247.113 253.755,248.869" />
	<path
		style="fill:none;stroke:#000000;stroke-width:4px;stroke-opacity:1;stroke-linecap:round"
		d="M 263.362,246.992 C 265.836,248.822 267.646,250.157 269.027,251.228 270.193,252.131 271.054,252.847 271.742,253.494 272.287,254.007 272.723,254.477 273.117,254.977" />
	<path
		style="fill:none;stroke:#000000;stroke-width:4px;stroke-opacity:1;stroke-linecap:round"
		d="M 273.117,254.977 C 273.406,256.885 273.739,258.072 274.043,259.052 274.399,260.202 274.715,261.067 275.099,261.756 275.309,262.133 275.54,262.458 275.641,262.873 275.656,262.931 275.667,262.992 275.68,263.051 275.728,263.278 275.787,263.491 275.848,263.697 275.92,263.946 275.994,264.186 276.066,264.426 276.434,265.659 276.75,266.919 276.92,268.152 277.008,268.793 277.057,269.427 277.008,270.149 276.961,270.841 276.903,271.595 276.602,272.051 276.495,272.213 276.358,272.337 276.209,272.435 275.869,272.659 275.332,272.667 274.887,272.559" />
	<path
		style="fill:none;stroke:#000000;stroke-width:4px;stroke-opacity:1;stroke-linecap:round"
		d="M 274.887,272.559 C 272.453,271.408 272.066,270.794 271.69,270.123 270.834,268.594 270.268,266.852 269.628,265.158" />
	<path
		style="fill:none;stroke:#000000;stroke-width:4px;stroke-opacity:1;stroke-linecap:round"
		d="M 269.628,265.158 C 268.813,264.58 268.116,264.13 267.493,263.753 266.336,263.052 265.431,262.597 264.774,262.085 264.075,261.541 263.657,260.931 263.253,260.335" />
	<path
		style="fill:none;stroke:#000000;stroke-width:4px;stroke-opacity:1;stroke-linecap:round"
		d="M 275.768,272.568 C 275.696,273.436 275.592,274.259 275.387,275.047 274.984,276.596 274.185,278.009 273.485,279.357" />
	<path
		style="fill:none;stroke:#000000;stroke-width:4px;stroke-opacity:1;stroke-linecap:round"
		d="M 273.485,279.357 C 273.407,279.575 273.316,279.789 273.208,280.011 272.992,280.454 272.711,280.925 272.441,281.372 272.006,282.09 271.595,282.744 271.14,283.321 270.231,284.474 269.144,285.316 268.018,285.447 267.449,285.514 266.869,285.398 266.319,285.213 265.989,285.102 265.669,284.966 265.403,284.763 265.008,284.463 264.731,284.017 264.516,283.589 264.407,283.373 264.314,283.161 264.221,282.923 264.125,282.676 264.027,282.401 263.911,282.129" />
	<path
		style="fill:none;stroke:#000000;stroke-width:4px;stroke-opacity:1;stroke-linecap:round"
		d="M 263.911,282.129 C 263.615,280.481 263.286,278.869 262.648,277.333 262.056,275.909 261.199,274.551 260.334,273.215" />
	<path
		style="fill:none;stroke:#000000;stroke-width:4px;stroke-opacity:1;stroke-linecap:round"
		d="M 260.334,273.215 C 258.834,270.938 257.342,268.703 255.744,266.363 254.234,264.153 252.631,261.849 252.26,259.359 251.982,257.494 252.395,255.525 252.807,253.566 252.965,252.812 253.124,252.059 253.274,251.321 253.442,250.491 253.6,249.678 253.755,248.869" />
	</g>
	<g cacani:groupmode="layer" id="body">
	<path
		style="fill:none;stroke:#000000;stroke-width:4px;stroke-opacity:1;stroke-linecap:round"
		d="M 290.232,26.2299 C 285.736,23.4316 280.594,21.5644 275.451,20.0523 268.88,18.1205 261.956,16.7979 255.143,17.1661 248.642,17.5175 241.88,19.0179 236.273,22.4104" />
	<path
		style="fill:none;stroke:#000000;stroke-width:4px;stroke-opacity:1;stroke-linecap:round"
		d="M 236.273,22.4104 C 236.677,20.2969 236.745,19.5305 236.821,18.8154 236.962,17.4976 237.197,16.2327 237.428,15.0624 237.602,14.1765 237.783,13.3894 237.699,12.5259" />
	<path
		style="fill:none;stroke:#000000;stroke-width:4px;stroke-opacity:1;stroke-linecap:round"
		d="M 237.699,12.5259 C 234.823,14.4482 234.481,15.2981 234.051,16.1769 233.021,18.2817 231.878,20.528 231.058,22.8848" />
	<path
		style="fill:none;stroke:#000000;stroke-width:4px;stroke-opacity:1;stroke-linecap:round"
		d="M 231.058,22.8848 C 227.338,22.786 224.429,22.7418 222.125,22.9656 220.367,23.1362 218.96,23.4626 217.642,23.7137 216.633,23.9061 215.677,24.0542 214.712,24.2413" />
	<path
		style="fill:none;stroke:#000000;stroke-width:4px;stroke-opacity:1;stroke-linecap:round"
		d="M 223.334,27.8943 C 222.99,27.6518 222.235,27.6263 221.658,27.4924 220.794,27.2918 219.944,26.9968 214.712,24.2413" />
	<path
		style="fill:none;stroke:#000000;stroke-width:4px;stroke-opacity:1;stroke-linecap:round"
		d="M 223.334,27.8943 C 220.508,28.7989 219.777,29.3077 219.064,29.8224 217.434,30.9987 215.876,32.2825 214.507,33.7295 210.197,38.2828 206.996,44.1927 205.656,50.3596" />
	<path
		style="fill:none;stroke:#000000;stroke-width:4px;stroke-opacity:1;stroke-linecap:round"
		d="M 205.656,50.3596 C 207.534,48.497 208.876,47.2942 209.946,46.4335 211.006,45.5805 211.8,45.0633 212.526,44.4745" />
	<path
		style="fill:none;stroke:#000000;stroke-width:4px;stroke-opacity:1;stroke-linecap:round"
		d="M 212.526,44.4745 C 210.736,47.1671 208.941,49.8629 207.709,52.8114 206.505,55.6928 205.84,58.8155 205.399,61.9394 204.881,65.6092 204.673,69.2807 204.788,72.9816 204.897,76.4509 205.289,79.9462 206.251,83.239 207.856,88.7291 211.046,93.6563 214.234,98.5788" />
	<path
		style="fill:none;stroke:#000000;stroke-width:4px;stroke-opacity:1;stroke-linecap:round"
		d="M 214.234,98.5788 C 213.835,97.1792 213.672,95.7235 213.648,94.2531 213.612,92.0824 213.878,89.8796 214.165,87.7431" />
	<path
		style="fill:none;stroke:#000000;stroke-width:4px;stroke-opacity:1;stroke-linecap:round"
		d="M 214.165,87.7431 C 217.059,95.4021 218.421,97.3729 219.849,99.2859 221.676,101.735 223.729,104.048 226.102,105.958 228.46,107.856 231.083,109.413 233.726,110.711 236.257,111.955 238.794,113.249 241.556,113.8" />
	<path
		style="fill:none;stroke:#000000;stroke-width:4px;stroke-opacity:1;stroke-linecap:round"
		d="M 290.232,26.2299 C 291.675,27.1523 293.129,28.0446 294.586,28.9508 296.6,30.2031 298.62,31.4819 300.699,32.6143 303.379,34.074 306.155,35.2903 308.916,36.5797" />
	<path
		style="fill:none;stroke:#000000;stroke-width:4px;stroke-opacity:1;stroke-linecap:round"
		d="M 308.916,36.5797 C 307.189,37.0842 305.396,37.2775 303.59,37.1876 301.668,37.092 299.729,36.6754 297.908,36.1413" />
	<path
		style="fill:none;stroke:#000000;stroke-width:4px;stroke-opacity:1;stroke-linecap:round"
		d="M 297.908,36.1413 C 305.082,43.1046 306.55,45.9979 307.697,48.9723 309.943,54.7961 310.193,61.5877 309.068,67.9513 308.571,70.7621 307.806,73.4894 306.808,75.9822 305.862,78.3451 304.865,80.7103 303.451,82.7281" />
	<path
		style="fill:none;stroke:#000000;stroke-width:4px;stroke-opacity:1;stroke-linecap:round"
		d="M 303.451,82.7281 C 303.044,80.7083 302.969,79.8875 302.988,79.0319 303.037,76.852 303.013,74.5317 302.585,72.2707" />
	<path
		style="fill:none;stroke:#000000;stroke-width:4px;stroke-opacity:1;stroke-linecap:round"
		d="M 302.585,72.2707 C 298.907,78.652 297.561,80.8934 295.712,82.6609 294.271,84.0375 292.603,85.1452 290.969,86.2841" />
	<path
		style="fill:none;stroke:#000000;stroke-width:4px;stroke-opacity:1;stroke-linecap:round"
		d="M 291.6,63.1921 C 292.518,66.1446 292.643,69.3131 292.671,72.404 292.731,79.0159 291.239,85.5921 289.627,92.0045" />
	<path
		style="fill:none;stroke:#000000;stroke-width:4px;stroke-opacity:1;stroke-linecap:round"
		d="M 289.627,92.0045 C 291.162,95.0618 292.065,95.5867 292.763,96.3151 293.384,96.963 293.891,97.8337 293.953,98.7276 294.016,99.6277 292.957,100.343 292.149,100.748 291.084,101.281 289.996,101.777 288.867,102.156" />
	<path
		style="fill:none;stroke:#000000;stroke-width:4px;stroke-opacity:1;stroke-linecap:round"
		d="M 288.867,102.156 C 288.893,104.973 289.801,106.094 289.681,107.33 289.556,108.616 288.342,109.737 287.171,110.284" />
	<path
		style="fill:none;stroke:#000000;stroke-width:4px;stroke-opacity:1;stroke-linecap:round"
		d="M 287.171,110.284 C 283.526,110.44 279.882,110.597 276.31,110.133 273.54,109.773 270.813,109.041 268.086,108.309" />
	<path
		style="fill:none;stroke:#000000;stroke-width:4px;stroke-opacity:1;stroke-linecap:round"
		d="M 283.288,110.396 C 284.121,111.833 284.955,113.271 284.396,114.426 284.149,114.935 283.633,115.389 283.09,115.725 282.443,116.124 281.759,116.356 281.074,116.588" />
	<path
		style="fill:none;stroke:#000000;stroke-width:4px;stroke-opacity:1;stroke-linecap:round"
		d="M 281.074,116.588 C 280.994,117.536 280.913,118.485 280.873,119.525 280.799,121.4 280.855,123.572 279.824,124.727 278.89,125.773 277.066,125.984 275.241,126.196" />
	<path
		style="fill:none;stroke:#000000;stroke-width:4px;stroke-opacity:1;stroke-linecap:round"
		d="M 275.241,126.196 C 273.412,126.256 271.583,126.316 269.773,126.179 266.873,125.959 264.023,125.231 261.172,124.504" />
	<path
		style="fill:none;stroke:#000000;stroke-width:4px;stroke-opacity:1;stroke-linecap:round"
		d="M 261.172,124.504 C 260.673,127.045 260.157,129.581 259.743,132.142 259.038,136.495 258.627,140.917 258.215,145.337" />
	<path
		style="fill:none;stroke:#000000;stroke-width:4px;stroke-opacity:1;stroke-linecap:round"
		d="M 291.6,63.1921 C 290.532,61.682 289.465,60.1719 288.21,58.8296 286.659,57.1709 284.82,55.7685 282.892,54.5436 278.095,51.4971 272.738,49.5482 267.381,47.5992" />
	<path
		style="fill:none;stroke:#000000;stroke-width:4px;stroke-opacity:1;stroke-linecap:round"
		d="M 267.381,47.5992 C 268.991,49.813 270.478,52.1214 271.792,54.5209 273.173,57.0404 274.364,59.6603 275.475,62.307" />
	<path
		style="fill:none;stroke:#000000;stroke-width:4px;stroke-opacity:1;stroke-linecap:round"
		d="M 275.475,62.307 C 270.013,59.7996 266.083,57.9835 263,56.7657 260.631,55.8296 258.763,55.2471 257.125,54.877 255.964,54.615 254.919,54.4596 253.869,54.3527" />
	<path
		style="fill:none;stroke:#000000;stroke-width:4px;stroke-opacity:1;stroke-linecap:round"
		d="M 258.325,55.2068 C 258.316,55.2135 258.29,55.2337 258.279,55.2426 258.087,55.3919 257.764,55.6431 257.512,55.8396 256.643,56.516 256.018,57.473 255.434,58.4053 254.022,60.6577 253.303,63.2939 252.589,65.8537" />
	<path
		style="fill:none;stroke:#000000;stroke-width:4px;stroke-opacity:1;stroke-linecap:round"
		d="M 252.589,65.8537 C 251.812,69.2954 251.576,70.7552 251.462,72.2222 251.107,76.7872 251.643,81.382 251.949,85.9511" />
	<path
		style="fill:none;stroke:#000000;stroke-width:4px;stroke-opacity:1;stroke-linecap:round"
		d="M 251.949,85.9511 C 250.281,83.1167 248.613,80.2822 245.859,77.8827 244.853,77.0067 243.703,76.1888 242.59,76.1643 241.044,76.1303 239.571,77.6268 238.468,79.2093 235.186,83.9197 235.188,89.3927 237.681,94.4262 238.847,96.779 240.556,99.0358 242.768,99.4256 243.816,99.6102 244.976,99.3763 246.136,99.1423" />
	<path
		style="fill:none;stroke:#000000;stroke-width:4px;stroke-opacity:1;stroke-linecap:round"
		d="M 283.672,72.9674 C 283.215,71.8298 282.139,71.0144 281.154,70.2821 279.589,69.1187 277.587,68.1443 275.644,68.3115 273.336,68.5101 271.355,70.7018 270.325,72.7723" />
	<path
		style="fill:none;stroke:#000000;stroke-width:4px;stroke-opacity:1;stroke-linecap:round"
		d="M 279.369,84.5561 C 279.326,83.8351 279.283,83.114 279.073,82.2332 278.783,81.0214 278.178,79.5072 277.389,79.4836 276.711,79.4633 275.899,80.5428 275.498,81.5058 275.187,82.2529 275.124,82.9299 275.06,83.6069" />
	<path
		style="fill:none;stroke:#000000;stroke-width:4px;stroke-opacity:1;stroke-linecap:round"
		d="M 279.369,84.5561 C 279.316,86.0986 279.262,87.6411 278.17,89.0528 277.732,89.6192 277.127,90.1645 276.626,90.1055 276.065,90.0396 275.633,89.2202 275.354,88.4501 274.705,86.6579 274.883,85.1324 275.06,83.6069" />
	<path
		style="fill:none;stroke:#000000;stroke-width:4px;stroke-opacity:1;stroke-linecap:round"
		d="M 243.211,99.4622 C 243.299,99.8163 243.445,100.409 243.561,100.878 243.844,102.024 244.14,103.182 244.653,104.246 245.641,106.296 247.021,108.135 248.253,110.049" />
	<path
		style="fill:none;stroke:#000000;stroke-width:4px;stroke-opacity:1;stroke-linecap:round"
		d="M 248.253,110.049 C 248.209,110.012 248.076,109.903 248.076,109.903 246.246,109.486 244.814,108.047 243.23,107.042" />
	<path
		style="fill:none;stroke:#000000;stroke-width:4px;stroke-opacity:1;stroke-linecap:round"
		d="M 243.23,107.042 C 241.493,112.295 241.664,113.057 241.556,113.8" />
	<path
		style="fill:none;stroke:#000000;stroke-width:4px;stroke-opacity:1;stroke-linecap:round"
		d="M 241.556,113.8 C 241.463,117.513 241.386,121.219 240.872,124.881 240.618,126.69 240.258,128.488 239.896,130.279" />
	<path
		style="fill:none;stroke:#000000;stroke-width:4px;stroke-opacity:1;stroke-linecap:round"
		d="M 258.215,145.337 C 258.647,147.652 259.042,149.986 258.615,152.347 258.478,153.103 258.257,153.862 257.801,154.461 257.541,154.804 257.203,155.095 256.87,155.387" />
	<path
		style="fill:none;stroke:#000000;stroke-width:4px;stroke-opacity:1;stroke-linecap:round"
		d="M 256.87,155.387 C 256.524,155.545 256.189,155.705 255.855,155.805 253.217,156.595 250.698,153.668 248.595,151.126 245.938,147.915 243.944,145.318 242.122,142.337 240.546,139.76 239.097,136.897 237.651,134.027 237.644,134.013 237.634,133.992 237.63,133.985" />
	<path
		style="fill:none;stroke:#000000;stroke-width:4px;stroke-opacity:1;stroke-linecap:round"
		d="M 239.896,130.279 C 239.63,130.764 239.37,131.235 239.095,131.699 238.633,132.479 238.129,133.236 237.625,133.993 236.542,135.62 235.459,137.246 234.422,138.911 232.596,141.841 230.911,144.894 229.522,148.056 227.598,152.436 226.241,157.027 224.912,161.595" />
	<path
		style="fill:none;stroke:#000000;stroke-width:4px;stroke-opacity:1;stroke-linecap:round"
		d="M 258.61,147.978 C 258.762,149.214 258.915,150.45 258.955,151.689 259.005,153.243 258.879,154.803 258.836,156.362 258.78,158.449 258.873,160.535 258.911,162.62 259.067,171.094 258.31,179.559 257.666,188.023 256.204,207.226 255.326,226.429 254.447,245.631" />
	<path
		style="fill:none;stroke:#000000;stroke-width:4px;stroke-opacity:1;stroke-linecap:round"
		d="M 254.447,245.631 C 257.234,248.403 258.454,249.579 258.903,250.584 259.048,250.908 259.112,251.215 259.097,251.509 259.033,252.764 257.877,253.896 256.618,254.545 256.145,254.79 255.657,254.965 255.178,255.058" />
	<path
		style="fill:none;stroke:#000000;stroke-width:4px;stroke-opacity:1;stroke-linecap:round"
		d="M 255.178,255.058 C 250.793,255.551 249.595,255.644 248.395,255.687 245.064,255.808 241.722,255.63 238.379,255.493 233.305,255.285 228.213,255.095 223.219,254.306 220.645,253.899 218.036,253.483 215.581,252.589" />
	<path
		style="fill:none;stroke:#000000;stroke-width:4px;stroke-opacity:1;stroke-linecap:round"
		d="M 253.174,255.269 C 253.174,255.277 253.174,255.302 253.174,255.302 253.4,256.733 253.503,258.26 253.608,259.799 254.035,266.072 254.48,272.546 254.845,279.017 255.882,297.396 256.275,315.762 256.446,334.31" />
	<path
		style="fill:none;stroke:#000000;stroke-width:4px;stroke-opacity:1;stroke-linecap:round"
		d="M 256.446,334.31 C 257.647,334.687 258.848,335.063 259.681,336.075 260.496,337.066 260.958,338.666 260.473,339.596 260.005,340.492 258.655,340.765 257.305,341.038" />
	<path
		style="fill:none;stroke:#000000;stroke-width:4px;stroke-opacity:1;stroke-linecap:round"
		d="M 257.305,341.038 C 251.034,341.796 246.384,342.438 242.785,342.946 239.104,343.466 236.523,343.847 234.432,344.003 232.44,344.151 230.893,344.095 229.404,343.896" />
	<path
		style="fill:none;stroke:#000000;stroke-width:4px;stroke-opacity:1;stroke-linecap:round"
		d="M 229.404,343.896 C 228.505,343.756 227.606,343.616 226.674,343.293 225.772,342.979 224.839,342.494 224.486,341.702 224.087,340.81 224.425,339.53 225.09,338.716 225.706,337.962 226.602,337.607 227.499,337.252" />
	<path
		style="fill:none;stroke:#000000;stroke-width:4px;stroke-opacity:1;stroke-linecap:round"
		d="M 227.499,337.252 C 226.575,333.728 225.65,330.205 224.826,326.657 223.891,322.633 223.084,318.579 222.122,314.561 221.44,311.706 220.679,308.869 219.894,306.04 218.911,302.494 217.89,298.96 216.879,295.421 216.145,292.853 215.417,290.282 214.803,287.685 214.138,284.866 213.607,282.016 213.077,279.166" />
	<path
		style="fill:none;stroke:#000000;stroke-width:4px;stroke-opacity:1;stroke-linecap:round"
		d="M 215.581,252.589 C 212.413,251.148 210.832,250.181 209.793,249.191 209.433,248.848 209.139,248.503 208.913,248.113 208.408,247.242 208.272,246.268 208.416,245.385 208.667,243.839 209.845,242.441 210.52,240.905" />
	<path
		style="fill:none;stroke:#000000;stroke-width:4px;stroke-opacity:1;stroke-linecap:round"
		d="M 224.912,161.595 C 221.713,180.901 219.464,193.922 217.443,205.121 215.223,217.43 213.279,227.539 210.52,240.905" />
	<path
		style="fill:none;stroke:#000000;stroke-width:4px;stroke-opacity:1;stroke-linecap:round"
		d="M 258.215,145.337 C 258.041,146.085 257.866,146.824 257.688,147.637 257.339,149.236 256.983,151.123 255.618,151.625 255.249,151.761 254.806,151.795 254.389,151.763 252.107,151.586 250.57,149.416 249.184,147.377 246.934,144.067 245.08,141.103 243.432,137.899 242.174,135.451 241.035,132.865 239.896,130.279" />
	<path
		style="fill:none;stroke:#000000;stroke-width:4px;stroke-opacity:1;stroke-linecap:round"
		d="M 211.42,250.415 C 211.215,253.096 211.01,255.777 210.98,258.454 210.901,265.376 211.989,272.271 213.077,279.166" />
	<path
		style="fill:none;stroke:#000000;stroke-width:4px;stroke-opacity:1;stroke-linecap:round"
		d="M 254.506,341.406 C 254.708,341.849 254.911,342.291 255.092,342.742 255.574,343.948 255.897,345.211 256.072,346.519 256.272,348.015 256.277,349.57 255.83,350.977 255.43,352.235 254.668,353.375 253.858,354.447 253.197,355.323 252.504,356.154 251.811,356.985" />
	<path
		style="fill:none;stroke:#000000;stroke-width:4px;stroke-opacity:1;stroke-linecap:round"
		d="M 251.811,356.985 C 248.913,374.888 245.605,392.426 243.38,410.01 242.313,418.448 241.495,426.897 240.168,434.974" />
	<path
		style="fill:none;stroke:#000000;stroke-width:4px;stroke-opacity:1;stroke-linecap:round"
		d="M 231.636,344.072 C 231.785,344.568 231.934,345.064 232.004,345.572 232.088,346.184 232.056,346.813 231.997,347.436 231.858,348.907 231.57,350.344 231.281,351.781" />
	<path
		style="fill:none;stroke:#000000;stroke-width:4px;stroke-opacity:1;stroke-linecap:round"
		d="M 231.281,351.781 C 230.137,358.459 229.695,360.414 229.432,362.493 228.677,368.467 228.36,374.577 228.069,380.6 227.487,392.656 227.167,404.722 227.202,416.754 227.221,423.059 227.837,429.552 228.062,436.08" />
	<path
		style="fill:none;stroke:#000000;stroke-width:4px;stroke-opacity:1;stroke-linecap:round"
		d="M 243.966,434.586 C 242.328,434.779 240.717,434.868 239.107,434.972 236.325,435.151 233.547,435.375 230.78,435.647 228.083,435.913 225.398,436.225 222.688,436.656" />
	<path
		style="fill:none;stroke:#000000;stroke-width:4px;stroke-opacity:1;stroke-linecap:round"
		d="M 222.688,436.656 C 224.148,440.548 224.485,441.971 224.8,443.399" />
	<path
		style="fill:none;stroke:#000000;stroke-width:4px;stroke-opacity:1;stroke-linecap:round"
		d="M 224.8,443.399 C 222.994,447.258 222.246,448.704 221.621,450.25 220.522,452.968 219.731,455.809 218.996,458.682 218.603,460.221 218.226,461.768 217.828,463.311" />
	<path
		style="fill:none;stroke:#000000;stroke-width:4px;stroke-opacity:1;stroke-linecap:round"
		d="M 220.631,468.584 C 221.496,468.897 222.393,469.172 223.299,469.425 226.474,470.312 229.771,470.93 233.074,471.436 241.465,472.722 249.897,473.283 258.406,473.867 261.79,474.099 265.186,474.334 268.523,474.497 270.012,474.569 271.489,474.627 272.962,474.695" />
	<path
		style="fill:none;stroke:#000000;stroke-width:4px;stroke-opacity:1;stroke-linecap:round"
		d="M 272.962,474.695 C 273.869,474.674 274.773,474.719 275.61,474.529 276.188,474.398 276.734,474.155 277.036,473.837 277.392,473.461 277.406,472.981 277.348,472.447 277.296,471.963 277.184,471.434 277.019,470.899 276.919,470.576 276.8,470.251 276.71,469.921" />
	<path
		style="fill:none;stroke:#000000;stroke-width:4px;stroke-opacity:1;stroke-linecap:round"
		d="M 276.71,469.921 C 276.055,468.784 275.475,467.636 274.791,466.527 274.062,465.343 273.214,464.202 272.254,463.182 270.74,461.571 268.947,460.259 266.952,459.117 265.02,458.011 262.897,457.063 260.815,456.068" />
	<path
		style="fill:none;stroke:#000000;stroke-width:4px;stroke-opacity:1;stroke-linecap:round"
		d="M 260.815,456.068 C 259.667,453.966 258.379,451.942 256.974,449.997 254.152,446.093 250.857,442.507 247.423,439.022" />
	<path
		style="fill:none;stroke:#000000;stroke-width:4px;stroke-opacity:1;stroke-linecap:round"
		d="M 247.423,439.022 C 249.275,436.317 250.025,435.576 250.718,434.775 251.869,433.444 252.957,432.01 253.48,430.339 253.867,429.102 253.8,427.791 253.723,426.526 253.654,425.372 253.593,424.193 253.403,422.994 253.277,422.199 253.043,421.085 252.276,420.843 251.292,420.534 250.269,421.388 249.547,422.125 248.382,423.314 247.622,424.802 246.912,426.256 245.857,428.412 245.068,430.629 244.264,432.864 243.841,434.039 243.362,435.24 242.999,436.466 242.783,437.196 242.609,437.934 242.523,438.676" />
	<path
		style="fill:none;stroke:#000000;stroke-width:4px;stroke-opacity:1;stroke-linecap:round"
		d="M 220.631,468.584 C 220.333,468.498 220.037,468.41 219.748,468.314 219.312,468.17 218.89,468.009 218.545,467.828 218,467.542 217.643,467.208 217.48,466.733 217.19,465.889 217.51,464.601 217.828,463.311" />
	<path
		style="fill:none;stroke:#000000;stroke-width:4px;stroke-opacity:1;stroke-linecap:round"
		d="M 263.925,457.543 C 264.486,457.928 265.112,458.36 265.124,458.504 265.75,458.73 266.305,459.18 266.722,459.678 266.988,459.994 267.307,460.538 267.005,460.793 266.638,461.102 266.02,461.072 265.487,461.053 264.824,461.029 264.155,460.953 263.51,460.816 262.656,460.635 261.875,460.437 261.111,460.176 260.256,459.883 259.424,459.512 258.654,459.006" />
	<path
		style="fill:none;stroke:#000000;stroke-width:4px;stroke-opacity:1;stroke-linecap:round"
		d="M 258.654,459.006 C 257.567,457.164 257.307,456.459 256.978,455.834 256.067,454.098 254.975,452.516 253.909,450.9 252.265,448.408 250.478,445.986 242.523,438.676" />
	<path
		style="fill:none;stroke:#000000;stroke-width:4px;stroke-opacity:1;stroke-linecap:round"
		d="M 247.423,439.022 C 247.107,439.016 246.771,439.007 246.415,438.988 246.038,438.969 245.638,438.939 245.214,438.907 244.78,438.874 244.32,438.838 243.839,438.797 243.417,438.761 242.978,438.721 242.523,438.676" />
	<path
		style="fill:none;stroke:#000000;stroke-width:4px;stroke-opacity:1;stroke-linecap:round"
		d="M 283.288,110.396 C 282.139,110.463 280.96,110.47 279.753,110.416 278.481,110.36 277.177,110.237 275.84,110.047 274.566,109.866 273.263,109.625 271.93,109.323 270.675,109.039 269.394,108.701 268.086,108.309" />
	</g>
	<g cacani:groupmode="layer" id="arm_L top">
	<path
		style="fill:none;stroke:#000000;stroke-width:4px;stroke-opacity:1;stroke-linecap:round"
		d="M 228.641,148.149 C 224.419,159.255 222.667,162.675 220.999,166.161 217.46,173.556 214.462,181.267 211.126,188.868" />
	<path
		style="fill:none;stroke:#000000;stroke-width:4px;stroke-opacity:1;stroke-linecap:round"
		d="M 248.567,176.563 C 248.958,174.032 249.305,171.46 249.052,168.943 248.735,165.799 247.481,162.742 246.01,159.82 243.864,155.559 241.255,151.584 237.917,148.295 236.918,147.31 235.854,146.387 234.573,145.735 233.951,145.419 233.278,145.166 232.657,145.154 231.098,145.123 229.86,146.603 228.641,148.149" />
	<path
		style="fill:none;stroke:#000000;stroke-width:4px;stroke-opacity:1;stroke-linecap:round"
		d="M 248.567,176.563 C 248.458,177.95 247.939,179.318 247.566,180.68 246.966,182.87 246.326,185.042 245.707,187.196 245.012,189.612 244.343,192.021 243.655,194.416 243.173,196.092 242.726,197.781 242.012,199.391" />
	<path
		style="fill:none;stroke:#000000;stroke-width:4px;stroke-opacity:1;stroke-linecap:round"
		d="M 242.012,199.391 C 240.455,199.866 238.898,200.349 237.272,200.487 235.348,200.651 233.326,200.333 231.343,199.93 226.963,199.04 222.773,197.737 218.856,195.673 217.226,194.814 215.643,193.823 214.302,192.572 213.122,191.471 212.129,190.168 211.126,188.868" />
	<path
		style="fill:none;stroke:#000000;stroke-width:4px;stroke-opacity:1;stroke-linecap:round"
		d="M 231.253,199.909 C 231.248,199.928 231.234,199.983 231.227,200.01 231.074,200.601 230.885,201.501 230.706,202.238 230.488,203.137 230.12,204.007 229.811,204.884 229.017,207.141 228.068,209.352 227.204,211.637 226.654,213.092 226.138,214.577 225.847,216.078 225.447,218.15 225.375,220.265 225.305,222.359 225.2,225.481 224.986,228.602 224.787,231.705 224.472,236.625 224.005,241.473 223.515,246.332 223.218,249.292 222.814,252.279 222.46,255.271" />
	<path
		style="fill:none;stroke:#000000;stroke-width:4px;stroke-opacity:1;stroke-linecap:round"
		d="M 215.59,193.413 C 215.172,194.465 214.756,195.52 214.294,196.562 213.721,197.856 213.078,199.132 212.507,200.426 211.574,202.54 210.835,204.703 210.161,206.879 209.254,209.811 208.467,212.764 208.017,215.809 207.8,217.28 207.661,218.773 207.56,220.262 207.286,224.313 207.294,228.344 207.402,232.348 207.568,238.474 207.971,244.54 208.354,250.599 208.528,253.347 208.698,256.092 208.899,258.84" />
	<path
		style="fill:none;stroke:#000000;stroke-width:4px;stroke-opacity:1;stroke-linecap:round"
		d="M 222.46,255.271 C 223.812,259.277 224.74,260.567 225.547,261.864 226.363,263.176 227.236,264.505 227.667,265.922 227.791,266.328 227.878,266.742 227.935,267.168" />
	<path
		style="fill:none;stroke:#000000;stroke-width:4px;stroke-opacity:1;stroke-linecap:round"
		d="M 227.935,267.168 C 228.79,271.319 229.117,273.258 229.185,274.321 229.235,275.095 229.147,275.404 229.025,275.661 228.971,275.775 228.91,275.878 228.855,275.99 228.716,276.272 228.614,276.606 228.526,276.914 228.403,277.344 228.309,277.724 228.249,278.102 228.213,278.33 228.19,278.557 228.158,278.796 228.028,279.78 228.086,280.867 227.861,281.943 227.694,282.747 227.405,283.617 226.926,284.09 226.777,284.237 226.562,284.328 226.36,284.304 226.085,284.272 225.833,284.028 225.607,283.809 225.021,283.242 224.618,282.42 224.253,281.638" />
	<path
		style="fill:none;stroke:#000000;stroke-width:4px;stroke-opacity:1;stroke-linecap:round"
		d="M 224.253,281.638 C 224.295,281.292 224.343,280.947 224.382,280.615 224.414,280.349 224.44,280.092 224.465,279.822 224.488,279.575 224.51,279.318 224.484,279.041 224.46,278.79 224.398,278.524 224.323,278.271 224.238,277.983 224.138,277.712 224.023,277.461 223.642,276.63 223.096,276.019 222.437,275.379 222.325,275.27 222.21,275.16 222.093,275.045 221.989,274.944 221.884,274.838 221.776,274.709" />
	<path
		style="fill:none;stroke:#000000;stroke-width:4px;stroke-opacity:1;stroke-linecap:round"
		d="M 222.809,271.147 C 222.597,271.978 222.371,272.815 222.127,273.647 221.605,275.428 221.002,277.187 220.372,278.952 219.752,280.687 219.107,282.429 218.604,284.214 218.194,285.671 217.878,287.157 217.56,288.646" />
	<path
		style="fill:none;stroke:#000000;stroke-width:4px;stroke-opacity:1;stroke-linecap:round"
		d="M 217.56,288.646 C 217.042,289.727 216.573,290.601 216.121,291.303 215.572,292.154 215.047,292.753 214.564,293.189 213.783,293.893 213.112,294.174 212.428,294.387 212.166,294.469 211.901,294.541 211.647,294.637 210.759,294.972 209.902,295.303 209.034,295.599 208.333,295.839 207.512,296.008 206.813,295.8 206.006,295.561 205.298,294.964 204.68,294.373 203.939,293.665 203.323,292.862 202.814,291.997 202.143,290.856 201.615,289.63 201.122,288.417 200.854,287.759 200.596,287.104 200.411,286.404 200.254,285.811 200.15,285.185 200.054,284.559" />
	<path
		style="fill:none;stroke:#000000;stroke-width:4px;stroke-opacity:1;stroke-linecap:round"
		d="M 200.054,284.559 C 200.312,281.333 200.567,278.137 201.36,275.049 201.95,272.753 202.838,270.516 203.845,268.345 204.868,266.142 206.014,264.005 207.204,261.87 207.769,260.858 208.343,259.846 208.899,258.84" />
	</g>
	<g display="none" cacani:groupmode="sketch_layer" id="Sketch 1">
	</g>
</g>
</svg>
