<?xml version="1.0" encoding="UTF-8" standalone="no"?>
<!-- Created with Cacani (http://www.cacani.org/) -->
<svg
	xmlns="http://www.w3.org/2000/svg"
	xmlns:cacani="http://www.cacani.org/namespaces/cacani"
	version="1.1"
	width="480"
	height="490">
<g cacani:groupmode="cel" id="Run">
	<g display="none" cacani:groupmode="layer" id="Ref 1">
	</g>
	<g display="none" cacani:groupmode="sketch_layer" id="Sketch 2">
	</g>
	<g cacani:groupmode="layer" id="leg_R">
	<path
		style="fill:none;stroke:#000000;stroke-width:4px;stroke-opacity:1;stroke-linecap:round"
		d="M 209.59,262.707 C 209.398,263.84 209.177,264.98 209.012,266.127 208.216,271.631 208.688,277.266 209.116,282.867 209.57,288.802 209.975,294.698 210.226,300.609 210.575,308.817 210.628,317.054 210.621,325.323" />
	<path
		style="fill:none;stroke:#000000;stroke-width:4px;stroke-opacity:1;stroke-linecap:round"
		d="M 210.621,325.323 C 208.188,330.401 207.893,331.918 208.118,332.655 208.178,332.853 208.275,332.994 208.39,333.107 209.032,333.734 209.925,334.019 210.732,334.401" />
	<path
		style="fill:none;stroke:#000000;stroke-width:4px;stroke-opacity:1;stroke-linecap:round"
		d="M 210.732,334.401 C 217.635,336.263 219.931,336.491 222.201,336.691 226.525,337.072 230.871,337.141 235.207,336.971 237.548,336.878 239.885,336.716 242.217,336.488" />
	<path
		style="fill:none;stroke:#000000;stroke-width:4px;stroke-opacity:1;stroke-linecap:round"
		d="M 242.217,336.488 C 242.988,336.328 245.227,335.884 245.262,335.852 246.515,335.854 248.306,334.625 248.125,333.383 247.974,332.342 247.051,331.553 246.309,330.795 245.355,329.819 244.412,328.801 243.288,328.013" />
	<path
		style="fill:none;stroke:#000000;stroke-width:4px;stroke-opacity:1;stroke-linecap:round"
		d="M 243.288,328.013 C 243.998,322.994 244.709,317.975 245.347,312.945 246.862,301.006 247.972,289.005 248.481,276.984 248.812,269.149 248.888,261.305 248.965,253.462" />
	<path
		style="fill:none;stroke:#000000;stroke-width:4px;stroke-opacity:1;stroke-linecap:round"
		d="M 238.563,336.739 C 238.643,336.972 238.78,337.356 238.884,337.646 239.159,338.42 238.901,339.294 238.942,340.114 239,341.258 239.275,342.423 239.018,343.536 238.712,344.862 237.87,346.05 236.97,347.091" />
	<path
		style="fill:none;stroke:#000000;stroke-width:4px;stroke-opacity:1;stroke-linecap:round"
		d="M 236.97,347.091 C 233.832,363.966 232.772,373.5 231.612,383.019 230.116,395.297 228.77,407.609 227.675,419.947 227.171,425.628 227.177,431.35 226.528,437.019" />
	<path
		style="fill:none;stroke:#000000;stroke-width:4px;stroke-opacity:1;stroke-linecap:round"
		d="M 216.877,335.889 C 216.871,335.954 216.868,336.038 216.875,336.113 217.13,338.762 218.108,341.364 217.957,344.039 217.837,346.168 217.223,348.25 216.748,350.32 215.729,354.765 214.561,359.172 213.847,363.676 212.69,370.967 212.395,378.385 212.11,385.785 211.576,399.669 213.576,413.538 214.475,427.407 214.786,432.204 215.261,436.999 215.112,441.796" />
	<path
		style="fill:none;stroke:#000000;stroke-width:4px;stroke-opacity:1;stroke-linecap:round"
		d="M 230.133,435.526 C 228.848,436.078 227.555,436.618 226.251,437.124 224.895,437.65 223.527,438.139 222.176,438.663 218.278,440.176 214.522,441.988 210.794,443.832" />
	<path
		style="fill:none;stroke:#000000;stroke-width:4px;stroke-opacity:1;stroke-linecap:round"
		d="M 210.794,443.832 C 210.873,443.926 211.102,444.191 211.105,444.201 211.804,445.517 212.687,446.732 213.524,447.968" />
	<path
		style="fill:none;stroke:#000000;stroke-width:4px;stroke-opacity:1;stroke-linecap:round"
		d="M 213.524,447.968 C 212.786,453.787 212.484,455.484 212.317,457.176 212.008,460.301 212.022,463.443 212.25,466.569 212.322,467.565 212.416,468.559 212.537,469.551 212.581,469.912 212.628,470.272 212.678,470.63" />
	<path
		style="fill:none;stroke:#000000;stroke-width:4px;stroke-opacity:1;stroke-linecap:round"
		d="M 212.678,470.63 C 213.084,470.678 213.484,470.724 213.878,470.767 214.652,470.85 215.403,470.923 216.13,470.989 219.303,471.275 221.996,471.427 224.39,471.487 227.153,471.556 229.517,471.504 231.684,471.414 233.667,471.332 235.484,471.218 237.279,471.103" />
	<path
		style="fill:none;stroke:#000000;stroke-width:4px;stroke-opacity:1;stroke-linecap:round"
		d="M 237.279,471.103 C 240.334,471.295 242.582,471.451 244.327,471.586 246.463,471.752 247.844,471.885 249.004,472.02 249.613,472.091 250.16,472.162 250.697,472.232 250.746,472.238 250.796,472.244 250.845,472.25 251.534,472.337 252.204,472.396 252.872,472.446 254.538,472.569 256.185,472.632 257.851,472.613 258.944,472.601 260.044,472.553 261.143,472.489 262.199,472.427 263.254,472.35 264.313,472.253 265.326,472.16 266.342,472.048 267.33,471.973" />
	<path
		style="fill:none;stroke:#000000;stroke-width:4px;stroke-opacity:1;stroke-linecap:round"
		d="M 267.33,471.973 C 269.457,471.5 269.977,471.118 270.418,470.697 271.27,469.881 271.974,468.809 272.313,467.667 272.421,467.301 272.492,466.929 272.512,466.557 272.528,466.268 272.512,465.979 272.467,465.693" />
	<path
		style="fill:none;stroke:#000000;stroke-width:4px;stroke-opacity:1;stroke-linecap:round"
		d="M 272.467,465.693 C 271.7,463.83 270.929,461.968 269.75,460.478 268.345,458.701 266.359,457.453 264.132,456.459 262.359,455.667 260.432,455.036 258.505,454.412" />
	<path
		style="fill:none;stroke:#000000;stroke-width:4px;stroke-opacity:1;stroke-linecap:round"
		d="M 258.505,454.412 C 255.299,452.125 252.094,449.837 248.772,447.697 246.103,445.977 243.36,444.351 240.472,443.024 239.005,442.35 237.5,441.753 235.997,441.154" />
	<path
		style="fill:none;stroke:#000000;stroke-width:4px;stroke-opacity:1;stroke-linecap:round"
		d="M 235.997,441.154 C 235.634,437.861 235.319,434.564 235.414,431.468 235.441,430.6 235.501,429.748 235.447,428.723 235.388,427.605 235.195,426.283 234.41,425.882 233.67,425.504 232.405,425.946 231.621,426.624 230.804,427.333 230.512,428.3 230.3,429.277 229.867,431.27 229.763,433.305 230.071,435.263 230.322,436.868 230.85,438.421 231.495,439.953 231.838,440.769 232.214,441.578 232.59,442.388" />
	<path
		style="fill:none;stroke:#000000;stroke-width:4px;stroke-opacity:1;stroke-linecap:round"
		d="M 235.997,441.154 C 235.941,441.202 235.801,441.326 235.784,441.333 235.606,442.087 234.699,442.695 232.59,442.388" />
	<path
		style="fill:none;stroke:#000000;stroke-width:4px;stroke-opacity:1;stroke-linecap:round"
		d="M 232.59,442.388 C 237.939,445.693 239.95,446.616 241.897,447.652 244.716,449.151 247.38,450.912 249.964,452.778 251.51,453.894 253.028,455.046 254.538,456.204" />
	<path
		style="fill:none;stroke:#000000;stroke-width:4px;stroke-opacity:1;stroke-linecap:round"
		d="M 254.538,456.204 C 256.49,456.947 258.442,457.689 260.473,458.145 260.987,458.261 261.506,458.358 262.033,458.4 262.086,458.404 262.14,458.408 262.193,458.412 262.864,458.471 263.433,458.686 264.209,458.7 264.505,458.706 264.833,458.682 264.966,458.517 265.134,458.31 264.994,457.879 264.821,457.547 264.632,457.183 264.405,456.938 264.136,456.718 263.874,456.502 263.572,456.311 263.27,456.119" />
	</g>
	<g cacani:groupmode="layer" id="arm_R">
	<path
		style="fill:none;stroke:#000000;stroke-width:4px;stroke-opacity:1;stroke-linecap:round"
		d="M 245.046,161.142 C 245.249,164.788 245.453,168.434 245.657,172.084 245.923,176.821 246.19,181.564 246.096,186.303 246.043,188.953 245.878,191.601 245.712,194.25" />
	<path
		style="fill:none;stroke:#000000;stroke-width:4px;stroke-opacity:1;stroke-linecap:round"
		d="M 245.712,194.25 C 243.798,195.563 243.257,195.687 242.715,195.797 241.047,196.134 239.331,196.268 237.629,196.25 235.038,196.223 232.453,195.778 229.928,195.197 227.718,194.689 225.517,194.107 223.386,193.334" />
	<path
		style="fill:none;stroke:#000000;stroke-width:4px;stroke-opacity:1;stroke-linecap:round"
		d="M 223.386,193.334 C 222.075,185.863 222.05,183.367 221.965,180.873 221.727,173.911 221.612,166.944 221.226,159.989" />
	<path
		style="fill:none;stroke:#000000;stroke-width:4px;stroke-opacity:1;stroke-linecap:round"
		d="M 240.978,196.044 C 240.974,196.055 240.963,196.089 240.958,196.105 240.838,196.483 240.7,197.044 240.635,197.544 240.119,201.537 239.805,205.615 240.202,209.645 240.28,210.436 240.401,211.225 240.541,212.009 240.899,214.015 241.383,215.997 241.644,218.009 242.271,222.843 242.578,227.724 243.186,232.56 243.868,237.995 244.86,243.392 245.329,248.835" />
	<path
		style="fill:none;stroke:#000000;stroke-width:4px;stroke-opacity:1;stroke-linecap:round"
		d="M 226.169,194.219 C 226.17,194.224 226.171,194.239 226.172,194.248 226.217,194.758 226.268,195.267 226.287,195.777 226.328,196.877 226.219,197.985 226.12,199.093 225.98,200.648 225.858,202.202 225.879,203.747 225.915,206.293 226.339,208.817 226.564,211.37 226.691,212.815 226.755,214.27 226.859,215.721 226.943,216.887 227.053,218.051 227.228,219.208 227.558,221.376 228.12,223.517 228.749,225.644 229.275,227.423 229.849,229.192 230.401,230.961 231.644,234.949 232.777,238.939 233.834,242.932 234.344,244.855 234.836,246.78 235.321,248.702" />
	<path
		style="fill:none;stroke:#000000;stroke-width:4px;stroke-opacity:1;stroke-linecap:round"
		d="M 245.329,248.835 C 247.712,251.319 249.405,253.147 250.644,254.597 251.692,255.824 252.415,256.78 252.955,257.629 253.391,258.315 253.707,258.932 253.978,259.567" />
	<path
		style="fill:none;stroke:#000000;stroke-width:4px;stroke-opacity:1;stroke-linecap:round"
		d="M 253.978,259.567 C 253.964,261.792 254.007,263.333 254.068,264.522 254.127,265.701 254.204,266.535 254.319,267.216 254.393,267.659 254.485,268.036 254.539,268.436 254.54,268.449 254.542,268.462 254.544,268.476 254.57,268.673 254.604,268.866 254.641,269.058 254.694,269.329 254.752,269.596 254.814,269.863 255.103,271.109 255.456,272.349 255.634,273.593 255.714,274.153 255.758,274.713 255.734,275.296 255.706,275.949 255.627,276.684 255.32,277.217 255.218,277.392 255.092,277.545 254.941,277.673 254.571,277.986 253.962,278.006 253.472,277.906" />
	<path
		style="fill:none;stroke:#000000;stroke-width:4px;stroke-opacity:1;stroke-linecap:round"
		d="M 253.472,277.906 C 250.866,276.34 250.514,275.654 250.199,274.948 249.384,273.113 248.942,271.113 248.411,269.159" />
	<path
		style="fill:none;stroke:#000000;stroke-width:4px;stroke-opacity:1;stroke-linecap:round"
		d="M 248.411,269.159 C 247.641,268.375 246.993,267.724 246.437,267.168 245.462,266.195 244.767,265.513 244.256,264.939 243.694,264.309 243.354,263.81 243.027,263.309" />
	<path
		style="fill:none;stroke:#000000;stroke-width:4px;stroke-opacity:1;stroke-linecap:round"
		d="M 253.676,277.916 C 253.337,279.396 252.986,280.843 252.364,282.154 251.623,283.717 250.496,285.087 249.399,286.441" />
	<path
		style="fill:none;stroke:#000000;stroke-width:4px;stroke-opacity:1;stroke-linecap:round"
		d="M 249.399,286.441 C 249.246,286.635 249.09,286.826 248.93,287.018 248.596,287.418 248.246,287.819 247.9,288.196 247.394,288.747 246.898,289.249 246.398,289.664 245.312,290.567 244.209,291.059 243.162,290.682 242.736,290.529 242.32,290.233 241.954,289.87 241.683,289.603 241.439,289.299 241.253,288.973 240.967,288.473 240.815,287.921 240.727,287.368 240.682,287.085 240.655,286.803 240.633,286.512 240.613,286.228 240.599,285.935 240.579,285.643" />
	<path
		style="fill:none;stroke:#000000;stroke-width:4px;stroke-opacity:1;stroke-linecap:round"
		d="M 240.579,285.643 C 240.601,283.803 240.611,281.973 240.228,280.21 239.891,278.663 239.251,277.168 238.609,275.68" />
	<path
		style="fill:none;stroke:#000000;stroke-width:4px;stroke-opacity:1;stroke-linecap:round"
		d="M 238.609,275.68 C 237.36,273.019 236.112,270.371 234.722,267.633 233.467,265.161 232.096,262.617 232.038,260.016 231.99,257.852 232.851,255.65 233.638,253.5 233.921,252.727 234.194,251.96 234.46,251.201 234.753,250.362 235.037,249.531 235.321,248.702" />
	</g>
	<g cacani:groupmode="layer" id="body">
	<path
		style="fill:none;stroke:#000000;stroke-width:4px;stroke-opacity:1;stroke-linecap:round"
		d="M 276.589,24.2843 C 272.1,21.3991 266.914,19.6064 261.76,18.1591 255.199,16.3166 248.29,15.0829 241.496,15.517 235.016,15.931 228.21,17.4308 222.802,21.0458" />
	<path
		style="fill:none;stroke:#000000;stroke-width:4px;stroke-opacity:1;stroke-linecap:round"
		d="M 222.802,21.0458 C 223.171,18.7894 223.212,18.0881 223.304,17.421 223.486,16.0933 223.823,14.7965 224.233,13.5607 224.524,12.6807 224.912,11.8462 224.993,10.9356" />
	<path
		style="fill:none;stroke:#000000;stroke-width:4px;stroke-opacity:1;stroke-linecap:round"
		d="M 224.993,10.9356 C 221.661,13.0876 221.179,13.9057 220.706,14.7485 219.494,16.908 218.37,19.1993 217.62,21.6032" />
	<path
		style="fill:none;stroke:#000000;stroke-width:4px;stroke-opacity:1;stroke-linecap:round"
		d="M 217.62,21.6032 C 213.861,21.5836 211.029,21.6007 208.786,21.7336 206.982,21.8405 205.56,22.0223 204.293,22.2344 203.352,22.3919 202.497,22.5661 201.65,22.7836" />
	<path
		style="fill:none;stroke:#000000;stroke-width:4px;stroke-opacity:1;stroke-linecap:round"
		d="M 210.014,26.7204 C 209.859,26.3552 209.244,26.2558 208.808,26.1085 208.128,25.8787 207.443,25.6455 201.65,22.7836" />
	<path
		style="fill:none;stroke:#000000;stroke-width:4px;stroke-opacity:1;stroke-linecap:round"
		d="M 210.014,26.7204 C 207.019,27.7466 206.402,28.2312 205.793,28.7159 204.242,29.9511 202.764,31.295 201.468,32.789 197.354,37.5306 194.223,43.5237 193.228,49.7321" />
	<path
		style="fill:none;stroke:#000000;stroke-width:4px;stroke-opacity:1;stroke-linecap:round"
		d="M 193.228,49.7321 C 195.148,47.6862 196.483,46.4181 197.493,45.5094 198.496,44.6074 199.178,44.0596 199.781,43.4327" />
	<path
		style="fill:none;stroke:#000000;stroke-width:4px;stroke-opacity:1;stroke-linecap:round"
		d="M 199.781,43.4327 C 198.097,46.2167 196.412,49.0017 195.296,52.0144 194.241,54.865 193.695,57.9195 193.35,60.9689 192.939,64.6109 192.814,68.2456 193.009,71.9068 193.189,75.291 193.641,78.6979 194.658,81.885 196.392,87.3221 199.765,92.1197 203.139,96.9161" />
	<path
		style="fill:none;stroke:#000000;stroke-width:4px;stroke-opacity:1;stroke-linecap:round"
		d="M 203.139,96.9161 C 202.633,95.4768 202.388,93.9632 202.299,92.4246 202.177,90.3101 202.348,88.1484 202.543,86.059" />
	<path
		style="fill:none;stroke:#000000;stroke-width:4px;stroke-opacity:1;stroke-linecap:round"
		d="M 202.543,86.059 C 205.885,94.3148 207.239,96.1291 208.598,97.9226 210.284,100.148 212.083,102.329 214.223,104.117 216.434,105.965 218.937,107.458 221.479,108.767 224.047,110.089 226.659,111.488 229.496,112.029" />
	<path
		style="fill:none;stroke:#000000;stroke-width:4px;stroke-opacity:1;stroke-linecap:round"
		d="M 276.589,24.2843 C 278.051,25.2426 279.516,26.1921 280.991,27.1293 282.897,28.3395 284.819,29.5293 286.79,30.6237 289.583,32.1755 292.473,33.5357 295.359,34.917" />
	<path
		style="fill:none;stroke:#000000;stroke-width:4px;stroke-opacity:1;stroke-linecap:round"
		d="M 295.359,34.917 C 293.628,35.379 291.809,35.4808 289.993,35.3161 288.08,35.1427 286.172,34.6737 284.393,34.06" />
	<path
		style="fill:none;stroke:#000000;stroke-width:4px;stroke-opacity:1;stroke-linecap:round"
		d="M 284.393,34.06 C 292.394,41.3325 293.708,44.1914 294.759,47.0654 296.761,52.5397 297.162,58.7965 296.232,64.7401 295.778,67.6422 295.006,70.4697 293.939,73.087 292.933,75.5523 291.814,78.0236 290.203,80.1153" />
	<path
		style="fill:none;stroke:#000000;stroke-width:4px;stroke-opacity:1;stroke-linecap:round"
		d="M 290.203,80.1153 C 289.849,77.9629 289.925,77.168 290.016,76.3618 290.271,74.0975 290.32,71.7348 289.909,69.457" />
	<path
		style="fill:none;stroke:#000000;stroke-width:4px;stroke-opacity:1;stroke-linecap:round"
		d="M 289.909,69.457 C 286.063,76.3573 284.705,78.4235 282.956,80.1034 281.511,81.4909 279.85,82.6325 278.229,83.8082" />
	<path
		style="fill:none;stroke:#000000;stroke-width:4px;stroke-opacity:1;stroke-linecap:round"
		d="M 278.493,60.787 C 279.454,63.7143 279.627,66.8696 279.704,69.9492 279.868,76.537 278.487,83.1143 276.984,89.5304" />
	<path
		style="fill:none;stroke:#000000;stroke-width:4px;stroke-opacity:1;stroke-linecap:round"
		d="M 276.984,89.5304 C 278.559,92.5521 279.466,93.0605 280.172,93.775 280.8,94.4105 281.317,95.27 281.394,96.1597 281.47,97.0557 280.428,97.7859 279.63,98.202 278.58,98.7503 277.504,99.2626 276.387,99.6587" />
	<path
		style="fill:none;stroke:#000000;stroke-width:4px;stroke-opacity:1;stroke-linecap:round"
		d="M 276.387,99.6587 C 276.457,102.465 277.378,103.568 277.278,104.802 277.174,106.084 275.984,107.221 274.827,107.786" />
	<path
		style="fill:none;stroke:#000000;stroke-width:4px;stroke-opacity:1;stroke-linecap:round"
		d="M 274.827,107.786 C 271.203,108.001 267.58,108.215 264.018,107.811 261.256,107.498 258.531,106.813 255.807,106.127" />
	<path
		style="fill:none;stroke:#000000;stroke-width:4px;stroke-opacity:1;stroke-linecap:round"
		d="M 270.965,107.96 C 271.817,109.379 272.669,110.798 272.131,111.959 271.894,112.47 271.387,112.93 270.852,113.274 270.215,113.682 269.537,113.924 268.86,114.166" />
	<path
		style="fill:none;stroke:#000000;stroke-width:4px;stroke-opacity:1;stroke-linecap:round"
		d="M 268.86,114.166 C 268.795,115.113 268.73,116.059 268.705,117.097 268.662,118.966 268.752,121.129 267.744,122.297 266.831,123.354 265.019,123.595 263.207,123.835" />
	<path
		style="fill:none;stroke:#000000;stroke-width:4px;stroke-opacity:1;stroke-linecap:round"
		d="M 263.207,123.835 C 261.388,123.925 259.569,124.014 257.766,123.907 254.877,123.735 252.029,123.056 249.181,122.378" />
	<path
		style="fill:none;stroke:#000000;stroke-width:4px;stroke-opacity:1;stroke-linecap:round"
		d="M 249.181,122.378 C 248.664,124.874 248.142,127.37 247.756,129.887 247.083,134.276 246.825,138.731 246.566,143.185" />
	<path
		style="fill:none;stroke:#000000;stroke-width:4px;stroke-opacity:1;stroke-linecap:round"
		d="M 278.493,60.787 C 277.408,59.2995 276.322,57.812 275.052,56.4948 273.482,54.8671 271.631,53.4995 269.693,52.3101 264.872,49.3521 259.511,47.4969 254.151,45.6417" />
	<path
		style="fill:none;stroke:#000000;stroke-width:4px;stroke-opacity:1;stroke-linecap:round"
		d="M 254.151,45.6417 C 255.836,47.7689 257.384,50.0088 258.802,52.329 260.279,54.7443 261.616,57.2465 262.863,59.7806" />
	<path
		style="fill:none;stroke:#000000;stroke-width:4px;stroke-opacity:1;stroke-linecap:round"
		d="M 262.863,59.7806 C 256.939,57.4456 252.807,55.8336 249.695,54.7465 247.248,53.8915 245.431,53.3612 243.878,53.0325 242.769,52.798 241.794,52.6662 240.813,52.5907" />
	<path
		style="fill:none;stroke:#000000;stroke-width:4px;stroke-opacity:1;stroke-linecap:round"
		d="M 245.243,53.3825 C 245.238,53.3869 245.221,53.4001 245.214,53.406 245.025,53.5578 244.708,53.8134 244.46,54.0133 243.606,54.7014 242.999,55.6651 242.433,56.6037 241.063,58.8711 240.39,61.5097 239.72,64.0721" />
	<path
		style="fill:none;stroke:#000000;stroke-width:4px;stroke-opacity:1;stroke-linecap:round"
		d="M 239.72,64.0721 C 239.001,67.5144 238.789,68.9728 238.698,70.4366 238.416,74.9914 239.022,79.5613 239.398,84.1094" />
	<path
		style="fill:none;stroke:#000000;stroke-width:4px;stroke-opacity:1;stroke-linecap:round"
		d="M 239.398,84.1094 C 237.694,81.312 235.991,78.5145 233.212,76.1681 232.197,75.3115 231.04,74.5151 229.932,74.5088 228.394,74.5 226.951,76.0151 225.879,77.6099 222.687,82.3571 222.775,87.8108 225.335,92.7863 226.532,95.1119 228.268,97.3331 230.475,97.6856 231.521,97.8526 232.671,97.6006 233.822,97.3487" />
	<path
		style="fill:none;stroke:#000000;stroke-width:4px;stroke-opacity:1;stroke-linecap:round"
		d="M 270.759,70.6567 C 270.286,69.5304 269.203,68.7354 268.211,68.0216 266.636,66.8876 264.629,65.9491 262.698,66.1473 260.405,66.3826 258.468,68.5988 257.476,70.6787" />
	<path
		style="fill:none;stroke:#000000;stroke-width:4px;stroke-opacity:1;stroke-linecap:round"
		d="M 266.66,82.2745 C 266.606,81.5567 266.551,80.8389 266.328,79.9646 266.021,78.7617 265.395,77.2626 264.61,77.2519 263.935,77.2427 263.144,78.3315 262.76,79.2977 262.462,80.0472 262.41,80.7229 262.358,81.3986" />
	<path
		style="fill:none;stroke:#000000;stroke-width:4px;stroke-opacity:1;stroke-linecap:round"
		d="M 266.66,82.2745 C 266.631,83.8125 266.601,85.3504 265.538,86.7749 265.111,87.3464 264.517,87.8996 264.017,87.8489 263.459,87.7923 263.016,86.9829 262.726,86.22 262.052,84.4446 262.205,82.9216 262.358,81.3986" />
	<path
		style="fill:none;stroke:#000000;stroke-width:4px;stroke-opacity:1;stroke-linecap:round"
		d="M 230.917,97.7149 C 231.009,98.0663 231.164,98.6541 231.287,99.1205 231.587,100.257 231.9,101.407 232.426,102.458 233.442,104.485 234.844,106.295 236.1,108.182" />
	<path
		style="fill:none;stroke:#000000;stroke-width:4px;stroke-opacity:1;stroke-linecap:round"
		d="M 236.1,108.182 C 236.055,108.147 235.921,108.04 235.921,108.04 234.094,107.654 232.646,106.244 231.054,105.268" />
	<path
		style="fill:none;stroke:#000000;stroke-width:4px;stroke-opacity:1;stroke-linecap:round"
		d="M 231.054,105.268 C 229.409,110.53 229.591,111.287 229.496,112.029" />
	<path
		style="fill:none;stroke:#000000;stroke-width:4px;stroke-opacity:1;stroke-linecap:round"
		d="M 229.496,112.029 C 229.452,115.853 229.413,119.675 228.996,123.465 228.8,125.243 228.522,127.014 228.242,128.784" />
	<path
		style="fill:none;stroke:#000000;stroke-width:4px;stroke-opacity:1;stroke-linecap:round"
		d="M 246.566,143.185 C 247.175,145.57 247.773,147.96 247.456,150.416 247.371,151.074 247.22,151.736 246.876,152.283 246.669,152.611 246.393,152.898 246.118,153.185" />
	<path
		style="fill:none;stroke:#000000;stroke-width:4px;stroke-opacity:1;stroke-linecap:round"
		d="M 246.118,153.185 C 245.841,153.33 245.567,153.475 245.293,153.579 242.578,154.603 239.829,151.537 237.555,148.92 234.832,145.788 232.788,143.298 230.87,140.421 229.266,138.013 227.749,135.333 226.233,132.652 226.228,132.644 226.222,132.632 226.219,132.628" />
	<path
		style="fill:none;stroke:#000000;stroke-width:4px;stroke-opacity:1;stroke-linecap:round"
		d="M 228.242,128.784 C 228.014,129.232 227.786,129.676 227.556,130.118 227.125,130.944 226.683,131.765 226.242,132.587 225.383,134.184 224.528,135.783 223.691,137.396 222.19,140.288 220.747,143.226 219.597,146.265 217.94,150.647 216.892,155.237 215.851,159.821" />
	<path
		style="fill:none;stroke:#000000;stroke-width:4px;stroke-opacity:1;stroke-linecap:round"
		d="M 246.731,143.931 C 247.024,145.061 247.318,146.191 247.532,147.335 247.876,149.168 248.018,151.037 248.153,152.902 248.321,155.217 248.479,157.526 248.616,159.838 249.055,167.244 249.286,174.672 249.418,182.098 249.784,202.705 249.385,223.305 248.985,243.905" />
	<path
		style="fill:none;stroke:#000000;stroke-width:4px;stroke-opacity:1;stroke-linecap:round"
		d="M 248.985,243.905 C 252.064,246.838 253.276,248.022 253.687,248.939 253.804,249.201 253.856,249.442 253.861,249.686 253.883,250.876 252.922,252.07 251.783,252.744 251.359,252.995 250.911,253.173 250.472,253.255" />
	<path
		style="fill:none;stroke:#000000;stroke-width:4px;stroke-opacity:1;stroke-linecap:round"
		d="M 250.472,253.255 C 245.688,253.954 244.527,254.061 243.364,254.127 240.129,254.311 236.882,254.276 233.638,254.274 228.603,254.27 223.553,254.26 218.55,253.751 215.782,253.469 212.973,253.172 210.322,252.322" />
	<path
		style="fill:none;stroke:#000000;stroke-width:4px;stroke-opacity:1;stroke-linecap:round"
		d="M 247.682,253.637 C 247.682,253.64 247.681,253.646 247.681,253.651 247.632,255.063 247.547,256.503 247.471,257.947 247.125,264.569 246.993,271.266 246.782,277.959 246.152,297.974 244.82,317.948 243.425,337.973" />
	<path
		style="fill:none;stroke:#000000;stroke-width:4px;stroke-opacity:1;stroke-linecap:round"
		d="M 243.425,337.973 C 245.456,339.935 246.244,340.835 246.407,341.587 246.457,341.817 246.449,342.033 246.401,342.231 246.119,343.38 244.719,343.911 243.664,344.344" />
	<path
		style="fill:none;stroke:#000000;stroke-width:4px;stroke-opacity:1;stroke-linecap:round"
		d="M 243.664,344.344 C 236.729,344.78 231.627,345.078 227.751,345.231 223.83,345.386 221.163,345.393 219.124,345.23 217.151,345.072 215.765,344.755 214.435,344.291" />
	<path
		style="fill:none;stroke:#000000;stroke-width:4px;stroke-opacity:1;stroke-linecap:round"
		d="M 214.435,344.291 C 212.611,343.528 211.508,343.058 210.76,342.659 210.145,342.332 209.771,342.053 209.461,341.712 209.087,341.299 208.966,340.63 209.088,340.085 209.285,339.21 209.796,338.439 210.163,337.619" />
	<path
		style="fill:none;stroke:#000000;stroke-width:2.87132px;stroke-opacity:1;stroke-linecap:round"
		d="M 210.163,337.619 C 210.172,335.687 209.647,333.789 209.373,331.877 208.972,329.079 208.677,326.266 208.402,323.453 207.711,316.395 207.051,309.334 206.425,302.27 206.174,299.441 206.06,296.601 205.785,293.774 205.513,290.967 205.184,288.166 204.834,285.368 204.608,283.575 204.26,281.762 204.406,279.961" />
	<path
		style="fill:none;stroke:#000000;stroke-width:4px;stroke-opacity:1;stroke-linecap:round"
		d="M 210.322,252.322 C 207.054,250.945 205.649,250.039 204.875,249.127 204.645,248.855 204.47,248.583 204.33,248.293 203.935,247.475 203.869,246.513 204.044,245.651 204.342,244.181 205.231,242.829 205.541,241.339" />
	<path
		style="fill:none;stroke:#000000;stroke-width:4px;stroke-opacity:1;stroke-linecap:round"
		d="M 215.851,159.821 C 213.483,180.597 211.954,194.168 210.555,205.59 209.043,217.93 207.682,227.763 205.541,241.339" />
	<path
		style="fill:none;stroke:#000000;stroke-width:4px;stroke-opacity:1;stroke-linecap:round"
		d="M 246.566,143.185 C 246.423,143.871 246.279,144.554 246.171,145.335 245.939,147.013 245.873,149.144 244.503,149.675 244.188,149.797 243.804,149.835 243.439,149.82 241.149,149.73 239.594,147.588 238.174,145.596 235.864,142.355 233.912,139.513 232.147,136.399 230.77,133.971 229.506,131.377 228.242,128.784" />
	<path
		style="fill:none;stroke:#000000;stroke-width:4px;stroke-opacity:1;stroke-linecap:round"
		d="M 206.43,250.091 C 206.413,250.14 206.396,250.201 206.393,250.236 206.29,251.513 205.748,252.724 205.486,253.941 205.067,255.896 204.826,257.855 204.406,279.961" />
	<path
		style="fill:none;stroke:#000000;stroke-width:4px;stroke-opacity:1;stroke-linecap:round"
		d="M 240.352,344.473 C 240.397,344.794 240.432,345.296 240.475,345.711 240.571,346.636 240.567,347.573 240.586,348.499 240.615,349.873 240.745,351.246 240.363,352.534 240.043,353.612 239.452,354.591 238.788,355.527 238.232,356.309 237.626,357.062 237.067,357.815" />
	<path
		style="fill:none;stroke:#000000;stroke-width:4px;stroke-opacity:1;stroke-linecap:round"
		d="M 237.067,357.815 C 234.722,376.965 232.26,396.012 231.155,415.125 230.695,423.078 230.47,431.042 230.1,438.901" />
	<path
		style="fill:none;stroke:#000000;stroke-width:4px;stroke-opacity:1;stroke-linecap:round"
		d="M 216.43,344.719 C 216.659,345.032 217.051,345.572 217.335,345.962 217.587,346.309 217.534,346.81 217.488,347.23 217.428,347.781 217.333,348.327 217.225,348.876 216.928,350.383 216.585,351.893 216.284,353.412" />
	<path
		style="fill:none;stroke:#000000;stroke-width:4px;stroke-opacity:1;stroke-linecap:round"
		d="M 216.284,353.412 C 215.275,360.541 215.074,362.328 214.956,364.15 214.542,370.526 214.504,376.954 214.584,383.347 214.736,395.453 215.162,407.556 215.974,419.63 216.452,426.73 217.334,433.862 217.767,441.032" />
	<path
		style="fill:none;stroke:#000000;stroke-width:4px;stroke-opacity:1;stroke-linecap:round"
		d="M 234.015,438.282 C 232.286,438.557 230.564,438.804 228.844,439.062 226.193,439.461 223.547,439.888 220.915,440.37 218.062,440.891 215.225,441.476 212.381,442.096" />
	<path
		style="fill:none;stroke:#000000;stroke-width:4px;stroke-opacity:1;stroke-linecap:round"
		d="M 212.381,442.096 C 214.174,446.154 214.687,447.412 215.175,448.675" />
	<path
		style="fill:none;stroke:#000000;stroke-width:4px;stroke-opacity:1;stroke-linecap:round"
		d="M 215.175,448.675 C 213.492,452.926 213.021,454.45 212.603,456.004 211.803,458.981 211.272,462.015 210.789,465.061 210.532,466.683 210.288,468.309 210.026,469.931" />
	<path
		style="fill:none;stroke:#000000;stroke-width:4px;stroke-opacity:1;stroke-linecap:round"
		d="M 213.745,474.915 C 214.623,475.079 215.51,475.232 216.401,475.371 219.747,475.892 223.146,476.215 226.548,476.425 235.822,476.998 245.111,476.73 254.419,476.56 257.91,476.497 261.403,476.447 264.866,476.243 266.397,476.153 267.922,476.033 269.446,475.916" />
	<path
		style="fill:none;stroke:#000000;stroke-width:4px;stroke-opacity:1;stroke-linecap:round"
		d="M 269.446,475.916 C 270.397,475.802 271.348,475.706 272.207,475.319 272.727,475.084 273.213,474.743 273.445,474.323 273.745,473.777 273.617,473.099 273.405,472.463 273.207,471.866 272.936,471.307 272.631,470.763 272.459,470.456 272.275,470.154 272.1,469.85" />
	<path
		style="fill:none;stroke:#000000;stroke-width:4px;stroke-opacity:1;stroke-linecap:round"
		d="M 272.1,469.85 C 271.259,468.703 270.44,467.553 269.548,466.466 268.664,465.391 267.709,464.377 266.64,463.493 264.846,462.01 262.734,460.892 260.451,459.955 258.333,459.087 256.068,458.375 253.815,457.65" />
	<path
		style="fill:none;stroke:#000000;stroke-width:4px;stroke-opacity:1;stroke-linecap:round"
		d="M 253.815,457.65 C 252.441,455.867 251.027,454.106 249.512,452.423 246.148,448.686 242.285,445.336 238.382,442.015" />
	<path
		style="fill:none;stroke:#000000;stroke-width:4px;stroke-opacity:1;stroke-linecap:round"
		d="M 238.382,442.015 C 240.171,439.049 240.698,438.302 241.191,437.532 242.091,436.126 242.948,434.653 243.342,433.053 243.683,431.664 243.584,430.203 243.415,428.793 243.275,427.628 243.114,426.459 242.865,425.294 242.702,424.534 242.446,423.429 241.623,423.265 240.597,423.06 239.636,424.054 239.009,424.824 237.911,426.171 237.257,427.784 236.652,429.362 235.775,431.648 235.113,433.991 234.497,436.341 234.206,437.45 233.887,438.57 233.663,439.7 233.518,440.436 233.413,441.177 233.386,441.92" />
	<path
		style="fill:none;stroke:#000000;stroke-width:4px;stroke-opacity:1;stroke-linecap:round"
		d="M 213.745,474.915 C 213.429,474.863 213.113,474.811 212.804,474.752 212.346,474.665 211.905,474.565 211.515,474.434 210.878,474.221 210.376,473.929 210.097,473.47 209.599,472.648 209.813,471.289 210.026,469.931" />
	<path
		style="fill:none;stroke:#000000;stroke-width:4px;stroke-opacity:1;stroke-linecap:round"
		d="M 256.434,458.504 C 257.124,458.895 258.597,459.698 258.602,459.75 259.311,459.954 259.941,460.406 260.433,460.913 260.724,461.212 261.1,461.776 260.787,462.049 260.402,462.386 259.756,462.386 259.21,462.393 258.473,462.403 257.733,462.337 257.005,462.239 256.176,462.128 255.35,462.015 254.542,461.845 253.624,461.651 252.729,461.382 251.911,460.956" />
	<path
		style="fill:none;stroke:#000000;stroke-width:4px;stroke-opacity:1;stroke-linecap:round"
		d="M 251.911,460.956 C 250.647,459.152 250.325,458.64 249.972,458.159 248.858,456.644 247.587,455.244 246.351,453.819 244.465,451.646 242.445,449.565 233.386,441.92" />
	<path
		style="fill:none;stroke:#000000;stroke-width:4px;stroke-opacity:1;stroke-linecap:round"
		d="M 238.382,442.015 C 238.057,442.04 237.71,442.058 237.341,442.066 236.938,442.075 236.508,442.074 236.052,442.063 235.626,442.053 235.176,442.035 234.704,442.01 234.282,441.986 233.843,441.957 233.386,441.92" />
	<path
		style="fill:none;stroke:#000000;stroke-width:4px;stroke-opacity:1;stroke-linecap:round"
		d="M 270.965,107.96 C 269.823,108.045 268.65,108.071 267.448,108.038 266.182,108.002 264.882,107.901 263.549,107.733 262.279,107.574 260.978,107.354 259.647,107.075 258.394,106.812 257.114,106.496 255.807,106.127" />
	</g>
	<g cacani:groupmode="layer" id="arm_L top">
	<path
		style="fill:none;stroke:#000000;stroke-width:4px;stroke-opacity:1;stroke-linecap:round"
		d="M 219.268,146.691 C 216.326,159.413 215.314,163.081 214.337,166.766 212.226,174.719 210.598,182.813 208.574,190.82" />
	<path
		style="fill:none;stroke:#000000;stroke-width:4px;stroke-opacity:1;stroke-linecap:round"
		d="M 243.758,172.805 C 243.761,170.307 243.751,167.799 243.193,165.422 242.423,162.142 240.612,159.113 238.617,156.256 235.671,152.036 232.327,148.192 228.268,145.188 227.142,144.355 225.961,143.586 224.582,143.171 224.022,143.002 223.429,142.892 222.901,142.949 221.277,143.128 220.268,144.9 219.268,146.691" />
	<path
		style="fill:none;stroke:#000000;stroke-width:4px;stroke-opacity:1;stroke-linecap:round"
		d="M 243.758,172.805 C 243.911,174.154 243.594,175.527 243.445,176.882 243.204,179.08 242.927,181.271 242.674,183.46 242.377,186.038 242.099,188.614 241.824,191.189 241.637,192.946 241.516,194.721 241.081,196.438" />
	<path
		style="fill:none;stroke:#000000;stroke-width:4px;stroke-opacity:1;stroke-linecap:round"
		d="M 241.081,196.438 C 239.667,197.251 238.252,198.068 236.718,198.507 234.885,199.033 232.881,199.02 230.901,198.931 226.036,198.711 221.311,198.029 216.788,196.392 215.179,195.81 213.596,195.107 212.211,194.133 210.878,193.196 209.727,192.007 208.574,190.82" />
	<path
		style="fill:none;stroke:#000000;stroke-width:4px;stroke-opacity:1;stroke-linecap:round"
		d="M 230.245,198.884 C 230.244,198.89 230.244,198.906 230.243,198.914 230.213,199.484 230.178,200.413 230.143,201.158 230.102,202.039 229.894,202.909 229.753,203.781 229.386,206.046 228.795,208.275 228.267,210.525 227.884,212.159 227.534,213.804 227.365,215.466 227.129,217.79 227.223,220.135 227.231,222.466 227.241,225.633 227.156,228.804 226.981,231.959 226.726,236.545 226.097,241.078 225.632,245.636 225.304,248.854 225.052,252.097 224.855,255.342" />
	<path
		style="fill:none;stroke:#000000;stroke-width:4px;stroke-opacity:1;stroke-linecap:round"
		d="M 213.798,195.008 C 213.615,196.043 213.432,197.077 213.192,198.101 212.896,199.365 212.513,200.611 212.183,201.868 211.659,203.866 211.27,205.889 210.946,207.919 210.413,211.257 210.055,214.614 209.884,217.995 209.803,219.597 209.765,221.204 209.752,222.811 209.724,226.611 209.845,230.405 210.014,234.186 210.287,240.302 210.683,246.382 211.102,252.463 211.289,255.17 211.48,257.877 211.679,260.583" />
	<path
		style="fill:none;stroke:#000000;stroke-width:4px;stroke-opacity:1;stroke-linecap:round"
		d="M 224.855,255.342 C 226.515,259.424 227.38,260.456 228.171,261.524 229.11,262.792 230.156,264.097 230.706,265.549 230.856,265.944 230.969,266.349 231.039,266.769" />
	<path
		style="fill:none;stroke:#000000;stroke-width:4px;stroke-opacity:1;stroke-linecap:round"
		d="M 231.039,266.769 C 232.45,271.336 233.01,273.458 233.223,274.581 233.374,275.378 233.35,275.672 233.318,275.945 233.314,275.977 233.311,276.008 233.307,276.039 233.278,276.299 233.268,276.574 233.264,276.844 233.258,277.37 233.275,277.878 233.319,278.383 233.34,278.616 233.366,278.848 233.393,279.082 233.532,280.259 233.852,281.442 233.888,282.654 233.913,283.5 233.832,284.446 233.366,285.109 233.215,285.324 232.967,285.499 232.708,285.537 232.388,285.584 232.05,285.42 231.766,285.246 230.93,284.734 230.321,283.873 229.758,283.053" />
	<path
		style="fill:none;stroke:#000000;stroke-width:4px;stroke-opacity:1;stroke-linecap:round"
		d="M 229.758,283.053 C 229.687,282.693 229.616,282.334 229.542,281.98 229.483,281.702 229.422,281.426 229.358,281.149 229.296,280.88 229.231,280.611 229.15,280.339 229.078,280.096 228.992,279.85 228.901,279.611 228.8,279.346 228.692,279.088 228.575,278.838 228.156,277.938 227.632,277.146 226.965,276.421 226.92,276.372 226.874,276.323 226.827,276.274 226.442,275.869 226.018,275.468 225.581,275.076" />
	<path
		style="fill:none;stroke:#000000;stroke-width:4px;stroke-opacity:1;stroke-linecap:round"
		d="M 226.235,272.241 C 226.051,273.09 225.864,273.941 225.66,274.788 225.203,276.682 224.664,278.555 224.12,280.434 223.582,282.287 223.04,284.146 222.655,286.038 222.337,287.601 222.125,289.187 221.913,290.774" />
	<path
		style="fill:none;stroke:#000000;stroke-width:4px;stroke-opacity:1;stroke-linecap:round"
		d="M 221.913,290.774 C 221.431,292.007 220.985,292.994 220.563,293.789 220.045,294.767 219.562,295.454 219.111,295.958 218.373,296.784 217.721,297.117 217.082,297.416 216.995,297.457 216.908,297.497 216.823,297.54 215.954,297.975 215.093,298.406 214.217,298.803 213.512,299.123 212.664,299.38 211.922,299.172 211.193,298.968 210.57,298.438 210.015,297.917 209.266,297.213 208.621,296.403 208.064,295.544 207.302,294.366 206.678,293.102 206.13,291.809 205.84,291.125 205.571,290.434 205.333,289.725 205.134,289.133 204.957,288.528 204.788,287.924" />
	<path
		style="fill:none;stroke:#000000;stroke-width:4px;stroke-opacity:1;stroke-linecap:round"
		d="M 204.788,287.924 C 204.719,284.576 204.651,281.236 205.201,277.977 205.582,275.718 206.26,273.497 207.048,271.327 207.968,268.796 209.037,266.333 210.154,263.886 210.657,262.782 211.171,261.681 211.679,260.583" />
	</g>
	<g display="none" cacani:groupmode="sketch_layer" id="Sketch 1">
	</g>
</g>
</svg>
