<?xml version="1.0" encoding="UTF-8" standalone="no"?>
<!-- Created with Cacani (http://www.cacani.org/) -->
<svg
	xmlns="http://www.w3.org/2000/svg"
	xmlns:cacani="http://www.cacani.org/namespaces/cacani"
	version="1.1"
	width="480"
	height="490">
<g cacani:groupmode="cel" id="Run">
	<g display="none" cacani:groupmode="layer" id="Ref 1">
	</g>
	<g display="none" cacani:groupmode="sketch_layer" id="Sketch 2">
	</g>
	<g cacani:groupmode="layer" id="leg_R">
	<path
		style="fill:none;stroke:#000000;stroke-width:4px;stroke-opacity:1;stroke-linecap:round"
		d="M 338.257,388.841 C 341.991,390.666 345.726,392.49 349.051,394.9 352.443,397.358 355.408,400.424 358.284,403.513 359.45,404.765 360.602,406.021 361.753,407.278" />
	<path
		style="fill:none;stroke:#000000;stroke-width:4px;stroke-opacity:1;stroke-linecap:round"
		d="M 207.612,237.183 C 207.16,243.691 206.707,250.2 208.107,256.784 209.545,263.551 212.94,270.399 218.359,274.134 222.577,277.041 228.021,278.062 233.324,278.837 240.524,279.89 247.465,280.488 254.48,281.308 259.125,281.851 263.804,282.491 268.439,283.328 274.783,284.474 281.047,285.988 287.207,287.847 288.595,288.266 289.978,288.703 291.361,289.139" />
	<path
		style="fill:none;stroke:#000000;stroke-width:4px;stroke-opacity:1;stroke-linecap:round"
		d="M 291.361,289.139 C 291.756,289.871 292.151,290.603 292.623,291.328 293.069,292.015 293.584,292.694 294.239,292.913 295.089,293.197 296.175,292.704 297.078,292.079 297.55,291.752 297.971,291.389 298.392,291.027" />
	<path
		style="fill:none;stroke:#000000;stroke-width:4px;stroke-opacity:1;stroke-linecap:round"
		d="M 298.392,291.027 C 299.337,290.449 300.281,289.871 301.194,289.252 308.189,284.516 313.375,277.415 318.278,270.456 319.513,268.703 320.73,266.959 321.948,265.215" />
	<path
		style="fill:none;stroke:#000000;stroke-width:4px;stroke-opacity:1;stroke-linecap:round"
		d="M 321.948,265.215 C 322.533,263.976 323.119,262.738 322.954,261.794 322.713,260.422 320.884,259.672 319.364,259.973 318.089,260.225 317.031,261.215 315.974,262.204" />
	<path
		style="fill:none;stroke:#000000;stroke-width:4px;stroke-opacity:1;stroke-linecap:round"
		d="M 315.974,262.204 C 301.744,257.088 287.514,251.972 273.026,247.682 270.418,246.91 267.802,246.165 265.185,245.419 264.943,245.35 264.579,245.247 264.458,245.212" />
	<path
		style="fill:none;stroke:#000000;stroke-width:4px;stroke-opacity:1;stroke-linecap:round"
		d="M 218.884,281.529 C 204.976,296.578 191.067,311.626 177.159,326.675" />
	<path
		style="fill:none;stroke:#000000;stroke-width:4px;stroke-opacity:1;stroke-linecap:round"
		d="M 177.159,326.675 C 178.322,328.837 179.484,331 178.509,331.775 177.859,332.292 176.26,332.193 174.994,331.861 173.907,331.577 173.065,331.121 172.223,330.666" />
	<path
		style="fill:none;stroke:#000000;stroke-width:4px;stroke-opacity:1;stroke-linecap:round"
		d="M 172.223,330.666 C 167.98,328.249 163.736,325.832 159.867,322.923 155.558,319.682 151.712,315.83 147.867,311.977" />
	<path
		style="fill:none;stroke:#000000;stroke-width:4px;stroke-opacity:1;stroke-linecap:round"
		d="M 147.867,311.977 C 145.781,309.724 143.695,307.471 144.784,306.013 145.245,305.396 146.275,304.922 147.254,304.61 148.625,304.174 149.898,304.056 151.171,303.938" />
	<path
		style="fill:none;stroke:#000000;stroke-width:4px;stroke-opacity:1;stroke-linecap:round"
		d="M 151.171,303.938 C 154.435,300.625 157.699,297.312 160.789,293.849 168.918,284.741 175.845,274.594 183.659,265.196 189.974,257.602 196.866,250.497 203.112,242.851 204.638,240.984 206.125,239.083 207.612,237.183" />
	<path
		style="fill:none;stroke:#000000;stroke-width:4px;stroke-opacity:1;stroke-linecap:round"
		d="M 318.278,270.456 C 319.226,270.768 320.173,271.081 321.108,271.429 322.92,272.103 324.681,272.91 326.442,273.716" />
	<path
		style="fill:none;stroke:#000000;stroke-width:4px;stroke-opacity:1;stroke-linecap:round"
		d="M 326.442,273.716 C 328.782,274.996 331.122,276.277 332.625,278.316 333.871,280.006 334.543,282.217 334.682,284.36 334.727,285.068 334.715,285.769 334.703,286.469" />
	<path
		style="fill:none;stroke:#000000;stroke-width:4px;stroke-opacity:1;stroke-linecap:round"
		d="M 334.703,286.469 C 334.792,302.987 334.881,319.504 334.97,336.021" />
	<path
		style="fill:none;stroke:#000000;stroke-width:4px;stroke-opacity:1;stroke-linecap:round"
		d="M 334.97,336.021 C 334.854,354.687 335.428,369.691 336.692,381.033" />
	<path
		style="fill:none;stroke:#000000;stroke-width:4px;stroke-opacity:1;stroke-linecap:round"
		d="M 301.194,289.252 C 303.243,290.409 305.293,291.565 306.788,293.283 307.794,294.439 308.548,295.849 309.109,297.3 309.368,297.969 309.586,298.647 309.803,299.324" />
	<path
		style="fill:none;stroke:#000000;stroke-width:4px;stroke-opacity:1;stroke-linecap:round"
		d="M 309.803,299.324 C 310.104,303.783 310.405,308.242 310.826,312.685 313.104,336.753 318.898,360.345 324.691,383.937" />
	<path
		style="fill:none;stroke:#000000;stroke-width:4px;stroke-opacity:1;stroke-linecap:round"
		d="M 170.78,329.824 C 169.095,332.702 167.41,335.58 164.694,336.5 163.641,336.857 162.433,336.92 161.225,336.982" />
	<path
		style="fill:none;stroke:#000000;stroke-width:4px;stroke-opacity:1;stroke-linecap:round"
		d="M 161.225,336.982 C 154.556,339.569 147.887,342.156 141.279,344.883 119.34,353.94 98.0728,364.549 76.8104,375.17" />
	<path
		style="fill:none;stroke:#000000;stroke-width:4px;stroke-opacity:1;stroke-linecap:round"
		d="M 148.655,312.749 C 148.291,313.908 147.927,315.068 147.302,316.06 146.591,317.19 145.541,318.101 144.491,319.012" />
	<path
		style="fill:none;stroke:#000000;stroke-width:4px;stroke-opacity:1;stroke-linecap:round"
		d="M 144.491,319.012 C 132.652,324.098 120.813,329.185 109.772,335.598 95.7506,343.742 83.0166,354.023 70.3996,364.499" />
	<path
		style="fill:none;stroke:#000000;stroke-width:4px;stroke-opacity:1;stroke-linecap:round"
		d="M 316.362,387.41 C 319.105,386.164 321.849,384.917 324.691,383.937 326.902,383.175 329.172,382.574 331.463,382.094 333.205,381.729 334.96,381.434 336.692,381.033 337.302,380.891 337.909,380.737 338.517,380.583" />
	<path
		style="fill:none;stroke:#000000;stroke-width:4px;stroke-opacity:1;stroke-linecap:round"
		d="M 316.362,387.41 C 317.253,388.621 318.144,389.832 318.977,391.082 319.649,392.09 320.282,393.123 320.916,394.156" />
	<path
		style="fill:none;stroke:#000000;stroke-width:4px;stroke-opacity:1;stroke-linecap:round"
		d="M 320.916,394.156 C 319.677,396.328 318.438,398.5 317.449,400.772 315.67,404.861 314.7,409.274 313.73,413.687" />
	<path
		style="fill:none;stroke:#000000;stroke-width:4px;stroke-opacity:1;stroke-linecap:round"
		d="M 313.73,413.687 C 313.463,414.842 313.196,415.996 313.641,416.88 313.996,417.584 314.803,418.117 315.609,418.494 316.44,418.882 317.27,419.105 318.099,419.328" />
	<path
		style="fill:none;stroke:#000000;stroke-width:4px;stroke-opacity:1;stroke-linecap:round"
		d="M 318.099,419.328 C 332.29,422.524 344.268,424.375 354.034,424.879" />
	<path
		style="fill:none;stroke:#000000;stroke-width:4px;stroke-opacity:1;stroke-linecap:round"
		d="M 354.034,424.879 C 357.959,425.562 361.884,426.244 365.834,426.492 370.198,426.767 374.593,426.511 378.988,426.255" />
	<path
		style="fill:none;stroke:#000000;stroke-width:4px;stroke-opacity:1;stroke-linecap:round"
		d="M 378.988,426.255 C 378.875,422.289 378.761,418.322 377.2,415.196 375.024,410.837 370.033,408.113 365.042,405.389" />
	<path
		style="fill:none;stroke:#000000;stroke-width:4px;stroke-opacity:1;stroke-linecap:round"
		d="M 365.042,405.389 C 361.575,401.529 358.108,397.668 354.067,394.537 350.581,391.836 346.666,389.678 342.752,387.52" />
	<path
		style="fill:none;stroke:#000000;stroke-width:4px;stroke-opacity:1;stroke-linecap:round"
		d="M 338.257,388.841 C 338.202,386.289 338.148,383.738 338.517,380.583 339.169,374.999 341.146,367.525 345.757,367.879 346.233,367.915 346.737,368.035 347.24,368.155" />
	<path
		style="fill:none;stroke:#000000;stroke-width:4px;stroke-opacity:1;stroke-linecap:round"
		d="M 347.24,368.155 C 347.842,368.46 348.444,368.765 348.859,369.237 349.369,369.818 349.596,370.651 349.731,371.467 350.713,377.433 346.733,382.476 342.752,387.52" />
	<path
		style="fill:none;stroke:#000000;stroke-width:4px;stroke-opacity:1;stroke-linecap:round"
		d="M 218.884,281.529 C 220.611,279.972 222.339,278.414 224.066,276.857" />
	<path
		style="fill:none;stroke:#000000;stroke-width:4px;stroke-opacity:1;stroke-linecap:round"
		d="M 361.753,407.278 C 363.011,407.99 364.269,408.703 365.601,409.224 366.578,409.606 367.595,409.885 368.739,409.632 369.155,409.54 369.587,409.377 369.798,409.181 370.487,408.541 368.798,407.543 367.109,406.544" />
	<path
		style="fill:none;stroke:#000000;stroke-width:4px;stroke-opacity:1;stroke-linecap:round"
		d="M 338.257,388.841 C 339.02,388.555 339.783,388.27 340.563,388.044 341.283,387.835 342.018,387.677 342.752,387.52" />
	<path
		style="fill:none;stroke:#000000;stroke-width:4px;stroke-opacity:1;stroke-linecap:round"
		d="M 70.9791,381.323 C 70.1847,385.403 69.3903,389.483 67.9247,393.319 66.4299,397.231 64.2369,400.89 61.9989,404.468 61.0914,405.919 60.1765,407.357 59.2616,408.795" />
	<path
		style="fill:none;stroke:#000000;stroke-width:4px;stroke-opacity:1;stroke-linecap:round"
		d="M 66.6873,359.805 C 68.602,362.132 70.5167,364.459 72.1998,366.95 73.5087,368.888 74.6775,370.924 75.7353,373.013 76.5393,374.601 77.2792,376.219 78.1152,377.788 78.4098,378.34 78.7163,378.887 79.0228,379.434" />
	<path
		style="fill:none;stroke:#000000;stroke-width:4px;stroke-opacity:1;stroke-linecap:round"
		d="M 66.6873,359.805 C 65.7486,360.98 64.8099,362.154 63.8185,363.283 63.0193,364.193 62.1858,365.072 61.3523,365.952" />
	<path
		style="fill:none;stroke:#000000;stroke-width:4px;stroke-opacity:1;stroke-linecap:round"
		d="M 61.3523,365.952 C 58.9333,365.318 56.5143,364.685 54.0632,364.318 49.6532,363.66 45.1394,363.866 40.6255,364.073" />
	<path
		style="fill:none;stroke:#000000;stroke-width:4px;stroke-opacity:1;stroke-linecap:round"
		d="M 40.6255,364.073 C 39.4415,364.114 38.2574,364.155 37.5192,364.815 36.9309,365.34 36.6257,366.258 36.4705,367.133 36.3103,368.037 36.31,368.896 36.3097,369.755" />
	<path
		style="fill:none;stroke:#000000;stroke-width:4px;stroke-opacity:1;stroke-linecap:round"
		d="M 36.3097,369.755 C 36.9002,384.289 38.2173,396.337 40.261,405.901" />
	<path
		style="fill:none;stroke:#000000;stroke-width:4px;stroke-opacity:1;stroke-linecap:round"
		d="M 40.261,405.901 C 40.6189,409.868 40.9768,413.836 41.7608,417.716 42.6268,422.001 44.0126,426.18 45.3985,430.359" />
	<path
		style="fill:none;stroke:#000000;stroke-width:4px;stroke-opacity:1;stroke-linecap:round"
		d="M 45.3985,430.359 C 49.2005,429.221 53.0024,428.084 55.6172,425.766 59.2628,422.534 60.6005,417.008 61.9382,411.481" />
	<path
		style="fill:none;stroke:#000000;stroke-width:4px;stroke-opacity:1;stroke-linecap:round"
		d="M 61.9382,411.481 C 64.7681,407.133 67.5981,402.784 69.5748,398.069 71.28,394.002 72.3503,389.662 73.4205,385.322" />
	<path
		style="fill:none;stroke:#000000;stroke-width:4px;stroke-opacity:1;stroke-linecap:round"
		d="M 70.9791,381.323 C 73.4295,380.609 75.8799,379.895 79.0228,379.434 84.5848,378.617 92.3156,378.59 93.169,383.135 93.2571,383.604 93.2719,384.121 93.2867,384.639" />
	<path
		style="fill:none;stroke:#000000;stroke-width:4px;stroke-opacity:1;stroke-linecap:round"
		d="M 93.2867,384.639 C 93.1481,385.299 93.0094,385.96 92.6609,386.483 92.2323,387.126 91.4863,387.561 90.7329,387.903 85.2255,390.397 79.323,387.86 73.4205,385.322" />
	<path
		style="fill:none;stroke:#000000;stroke-width:4px;stroke-opacity:1;stroke-linecap:round"
		d="M 59.2616,408.795 C 58.8993,410.194 58.537,411.594 58.3791,413.015 58.2633,414.058 58.2575,415.113 58.7983,416.152 58.995,416.529 59.264,416.905 59.5076,417.058 60.3051,417.557 60.8313,415.667 61.3575,413.777" />
	<path
		style="fill:none;stroke:#000000;stroke-width:4px;stroke-opacity:1;stroke-linecap:round"
		d="M 70.9791,381.323 C 71.4528,381.986 71.9265,382.649 72.3472,383.344 72.735,383.985 73.0778,384.654 73.4205,385.322" />
	</g>
	<g cacani:groupmode="layer" id="arm_R">
	<path
		style="fill:none;stroke:#000000;stroke-width:4px;stroke-opacity:1;stroke-linecap:round"
		d="M 275.759,152.344 C 279.347,151.976 282.935,151.607 286.524,151.239 290.116,150.87 293.709,150.502 297.302,150.133" />
	<path
		style="fill:none;stroke:#000000;stroke-width:4px;stroke-opacity:1;stroke-linecap:round"
		d="M 297.302,150.133 C 301.204,149.87 305.106,149.607 309.009,149.344" />
	<path
		style="fill:none;stroke:#000000;stroke-width:4px;stroke-opacity:1;stroke-linecap:round"
		d="M 309.009,149.344 C 309.127,154.018 309.245,158.692 309.009,163.344 308.689,169.62 307.724,175.857 306.759,182.094" />
	<path
		style="fill:none;stroke:#000000;stroke-width:4px;stroke-opacity:1;stroke-linecap:round"
		d="M 306.759,182.094 C 304.014,182.671 301.27,183.248 298.509,183.594 290.606,184.585 282.565,183.687 274.524,182.789" />
	<path
		style="fill:none;stroke:#000000;stroke-width:4px;stroke-opacity:1;stroke-linecap:round"
		d="M 309.106,154.443 C 315.611,153.688 322.117,152.934 328.623,152.18" />
	<path
		style="fill:none;stroke:#000000;stroke-width:4px;stroke-opacity:1;stroke-linecap:round"
		d="M 328.623,152.18 C 329.213,149.188 329.802,146.196 330.297,143.19 331.71,134.603 332.351,125.905 332.991,117.206" />
	<path
		style="fill:none;stroke:#000000;stroke-width:4px;stroke-opacity:1;stroke-linecap:round"
		d="M 332.991,117.206 C 328.767,117.088 324.543,116.97 323.183,114.104 322.854,113.41 322.692,112.554 322.531,111.698" />
	<path
		style="fill:none;stroke:#000000;stroke-width:4px;stroke-opacity:1;stroke-linecap:round"
		d="M 322.531,111.698 C 322.031,109.01 321.531,106.323 322.714,104.285 323.19,103.464 323.94,102.749 324.689,102.033" />
	<path
		style="fill:none;stroke:#000000;stroke-width:4px;stroke-opacity:1;stroke-linecap:round"
		d="M 324.689,102.033 C 325.754,101.233 326.819,100.434 328.001,99.8881 329.168,99.3501 330.448,99.0597 331.729,98.7692" />
	<path
		style="fill:none;stroke:#000000;stroke-width:4px;stroke-opacity:1;stroke-linecap:round"
		d="M 331.729,98.7692 C 332.845,98.515 333.961,98.2608 334.579,98.5113 335.507,98.8872 335.316,100.399 334.837,101.582 334.19,103.18 333.019,104.178 331.849,105.176" />
	<path
		style="fill:none;stroke:#000000;stroke-width:4px;stroke-opacity:1;stroke-linecap:round"
		d="M 323.446,103.321 C 322.581,99.5633 321.716,95.8057 323.917,94.3284 324.498,93.9383 325.294,93.7073 326.089,93.4762" />
	<path
		style="fill:none;stroke:#000000;stroke-width:4px;stroke-opacity:1;stroke-linecap:round"
		d="M 326.089,93.4762 C 330.273,91.9219 334.457,90.3675 339.062,90.789 340.764,90.9449 342.523,91.3706 343.649,92.5096 344.182,93.0491 344.574,93.7485 344.965,94.448" />
	<path
		style="fill:none;stroke:#000000;stroke-width:4px;stroke-opacity:1;stroke-linecap:round"
		d="M 344.965,94.448 C 345.563,97.0731 346.162,99.6981 346.418,102.385 346.716,105.506 346.552,108.71 345.774,111.736 345.446,113.008 345.011,114.249 344.575,115.489" />
	<path
		style="fill:none;stroke:#000000;stroke-width:4px;stroke-opacity:1;stroke-linecap:round"
		d="M 344.575,115.489 C 345.995,127.598 347.415,139.707 347.443,151.851 347.454,156.76 347.237,161.675 347.021,166.59" />
	<path
		style="fill:none;stroke:#000000;stroke-width:4px;stroke-opacity:1;stroke-linecap:round"
		d="M 347.021,166.59 C 344.912,167.08 342.804,167.571 340.687,168.014 330.329,170.185 319.77,171.233 309.21,172.282 308.861,172.316 308.339,172.368 308.165,172.385" />
	<path
		style="fill:none;stroke:#000000;stroke-width:4px;stroke-opacity:1;stroke-linecap:round"
		d="M 274.524,182.789 C 271.515,182.214 268.506,181.639 266.259,180.094 263.067,177.899 261.413,173.747 259.759,169.594" />
	<path
		style="fill:none;stroke:#000000;stroke-width:4px;stroke-opacity:1;stroke-linecap:round"
		d="M 259.759,169.594 C 261.258,165.874 262.757,162.154 265.259,159.344 267.972,156.296 271.865,154.32 275.759,152.344" />
	</g>
	<g cacani:groupmode="layer" id="body">
	<path
		style="fill:none;stroke:#000000;stroke-width:4px;stroke-opacity:1;stroke-linecap:round"
		d="M 306.422,27.0959 C 301.614,24.5214 296.18,23.1736 290.82,22.1688 284.004,20.8913 276.89,20.2614 270.036,21.3081 263.499,22.3062 256.7,24.4168 251.596,28.62" />
	<path
		style="fill:none;stroke:#000000;stroke-width:4px;stroke-opacity:1;stroke-linecap:round"
		d="M 251.596,28.62 C 252.301,27.0684 253.005,25.5168 254.077,24.1993 254.828,23.2752 255.76,22.4663 256.804,21.9181 258.176,21.197 259.742,20.9271 261.307,20.6571" />
	<path
		style="fill:none;stroke:#000000;stroke-width:4px;stroke-opacity:1;stroke-linecap:round"
		d="M 261.307,20.6571 C 257.811,21.0007 254.316,21.3443 251.723,23.0995 249.507,24.599 247.951,27.1287 246.395,29.6584" />
	<path
		style="fill:none;stroke:#000000;stroke-width:4px;stroke-opacity:1;stroke-linecap:round"
		d="M 246.395,29.6584 C 243.315,29.283 240.235,28.9077 237.823,29.9508 235.022,31.1622 233.123,34.2864 231.223,37.4105" />
	<path
		style="fill:none;stroke:#000000;stroke-width:4px;stroke-opacity:1;stroke-linecap:round"
		d="M 239.154,35.5416 C 238.779,35.3121 238.405,35.0826 238.024,34.9321 235.879,34.0833 233.551,35.7469 231.223,37.4105" />
	<path
		style="fill:none;stroke:#000000;stroke-width:4px;stroke-opacity:1;stroke-linecap:round"
		d="M 239.154,35.5416 C 237.721,36.261 236.289,36.9803 235.057,37.9525 233.494,39.1864 232.255,40.8276 231.101,42.5072 227.167,48.2331 224.223,54.4051 221.279,60.577" />
	<path
		style="fill:none;stroke:#000000;stroke-width:4px;stroke-opacity:1;stroke-linecap:round"
		d="M 221.279,60.577 C 222.912,60.0457 224.545,59.5143 225.898,58.5991 227.746,57.3491 229.071,55.3829 230.397,53.4168" />
	<path
		style="fill:none;stroke:#000000;stroke-width:4px;stroke-opacity:1;stroke-linecap:round"
		d="M 230.397,53.4168 C 228.965,56.4167 227.532,59.4165 226.704,62.5869 225.928,65.5546 225.682,68.6716 225.612,71.7761 225.528,75.5044 225.698,79.2146 226.291,82.8687 226.836,86.2303 227.738,89.5445 228.875,92.7605 230.813,98.2372 233.434,103.429 236.055,108.621" />
	<path
		style="fill:none;stroke:#000000;stroke-width:4px;stroke-opacity:1;stroke-linecap:round"
		d="M 236.055,108.621 C 236.79,106.792 237.524,104.962 237.763,103.077 238.047,100.84 237.633,98.5262 237.219,96.2121" />
	<path
		style="fill:none;stroke:#000000;stroke-width:4px;stroke-opacity:1;stroke-linecap:round"
		d="M 237.219,96.2121 C 241.501,104.492 243.022,106.166 244.527,107.834 246.375,109.88 248.299,111.909 250.543,113.51 252.894,115.187 255.522,116.473 258.185,117.59 260.922,118.738 263.724,119.967 266.677,120.266" />
	<path
		style="fill:none;stroke:#000000;stroke-width:4px;stroke-opacity:1;stroke-linecap:round"
		d="M 306.422,27.0959 C 311.185,27.5223 315.949,27.9488 319.314,30.3849 322.359,32.5899 324.259,36.4414 326.159,40.2928" />
	<path
		style="fill:none;stroke:#000000;stroke-width:4px;stroke-opacity:1;stroke-linecap:round"
		d="M 326.159,40.2928 C 324.707,38.7388 323.255,37.1847 321.476,36.5098 319.628,35.8091 317.428,36.0562 315.227,36.3034" />
	<path
		style="fill:none;stroke:#000000;stroke-width:4px;stroke-opacity:1;stroke-linecap:round"
		d="M 315.227,36.3034 C 319.671,39.9701 324.114,43.6367 327.075,48.6558 331.608,56.3398 332.667,67.1936 328.46,74.8228 327.3,76.9271 325.739,78.7862 324.178,80.6452" />
	<path
		style="fill:none;stroke:#000000;stroke-width:4px;stroke-opacity:1;stroke-linecap:round"
		d="M 324.178,80.6452 C 324.478,79.2284 324.777,77.8117 324.797,76.3938 324.82,74.7637 324.472,73.1322 324.124,71.5006" />
	<path
		style="fill:none;stroke:#000000;stroke-width:4px;stroke-opacity:1;stroke-linecap:round"
		d="M 324.124,71.5006 C 320.777,79.0238 319.564,81.1808 317.962,83.0048 316.613,84.5411 315.028,85.8548 313.488,87.2003" />
	<path
		style="fill:none;stroke:#000000;stroke-width:4px;stroke-opacity:1;stroke-linecap:round"
		d="M 311.657,63.8328 C 312.897,66.7133 313.361,69.897 313.719,73.0126 314.486,79.6777 313.686,86.4731 312.748,93.1163" />
	<path
		style="fill:none;stroke:#000000;stroke-width:4px;stroke-opacity:1;stroke-linecap:round"
		d="M 312.748,93.1163 C 314.62,96.0365 315.586,96.4692 316.366,97.1292 317.06,97.7163 317.663,98.5405 317.822,99.4358 317.981,100.337 316.991,101.173 316.221,101.668 315.206,102.319 314.163,102.937 313.067,103.441" />
	<path
		style="fill:none;stroke:#000000;stroke-width:4px;stroke-opacity:1;stroke-linecap:round"
		d="M 313.067,103.441 C 313.394,106.28 314.428,107.314 314.439,108.574 314.451,109.885 313.349,111.146 312.228,111.824" />
	<path
		style="fill:none;stroke:#000000;stroke-width:4px;stroke-opacity:1;stroke-linecap:round"
		d="M 312.228,111.824 C 308.575,112.373 304.922,112.921 301.276,112.837 298.449,112.771 295.625,112.325 292.802,111.879" />
	<path
		style="fill:none;stroke:#000000;stroke-width:4px;stroke-opacity:1;stroke-linecap:round"
		d="M 308.33,112.353 C 309.323,113.715 310.315,115.076 309.876,116.301 309.682,116.841 309.211,117.355 308.7,117.752 308.092,118.224 307.427,118.531 306.763,118.838" />
	<path
		style="fill:none;stroke:#000000;stroke-width:4px;stroke-opacity:1;stroke-linecap:round"
		d="M 306.763,118.838 C 306.783,119.804 306.803,120.77 306.873,121.824 307,123.724 307.288,125.909 306.373,127.185 305.545,128.34 303.73,128.75 301.916,129.159" />
	<path
		style="fill:none;stroke:#000000;stroke-width:4px;stroke-opacity:1;stroke-linecap:round"
		d="M 301.916,129.159 C 300.081,129.416 298.246,129.673 296.409,129.729 293.465,129.818 290.518,129.39 287.57,128.962" />
	<path
		style="fill:none;stroke:#000000;stroke-width:4px;stroke-opacity:1;stroke-linecap:round"
		d="M 287.57,128.962 C 287.079,131.381 286.588,133.801 285.841,136.138 285.064,138.569 284.009,140.91 282.955,143.252" />
	<path
		style="fill:none;stroke:#000000;stroke-width:4px;stroke-opacity:1;stroke-linecap:round"
		d="M 311.657,63.8328 C 310.421,62.4236 309.185,61.0144 307.778,59.7947 306.039,58.2875 304.038,57.0697 301.965,56.0407 296.81,53.4815 291.208,52.0897 285.607,50.698" />
	<path
		style="fill:none;stroke:#000000;stroke-width:4px;stroke-opacity:1;stroke-linecap:round"
		d="M 285.607,50.698 C 289.514,54.74 292.859,59.3347 295.855,64.0912" />
	<path
		style="fill:none;stroke:#000000;stroke-width:4px;stroke-opacity:1;stroke-linecap:round"
		d="M 295.855,64.0912 C 280.834,59.8834 276.797,58.8989 272.724,58.9621" />
	<path
		style="fill:none;stroke:#000000;stroke-width:4px;stroke-opacity:1;stroke-linecap:round"
		d="M 277.259,59.3869 C 277.082,59.5581 276.55,60.0715 276.55,60.0715 275.748,60.8472 275.221,61.8799 274.732,62.8833 273.551,65.3075 273.109,68.0445 272.664,70.7039" />
	<path
		style="fill:none;stroke:#000000;stroke-width:4px;stroke-opacity:1;stroke-linecap:round"
		d="M 272.664,70.7039 C 272.249,74.2601 272.168,75.7583 272.209,77.2508 272.339,81.8951 273.37,86.4737 274.166,91.0511" />
	<path
		style="fill:none;stroke:#000000;stroke-width:4px;stroke-opacity:1;stroke-linecap:round"
		d="M 274.166,91.0511 C 272.184,88.3701 270.202,85.689 267.172,83.5635 266.066,82.7875 264.82,82.0856 263.697,82.1804 262.137,82.3119 260.814,83.9799 259.873,85.695 257.071,90.8 257.658,96.322 260.706,101.133 262.13,103.382 264.093,105.476 266.362,105.632 267.436,105.706 268.579,105.345 269.722,104.985" />
	<path
		style="fill:none;stroke:#000000;stroke-width:4px;stroke-opacity:1;stroke-linecap:round"
		d="M 304.718,74.5468 C 304.137,73.4479 302.967,72.7406 301.897,72.1074 300.197,71.1014 298.078,70.333 296.139,70.7102 293.836,71.1582 292.075,73.5822 291.26,75.7818" />
	<path
		style="fill:none;stroke:#000000;stroke-width:4px;stroke-opacity:1;stroke-linecap:round"
		d="M 301.625,86.7014 C 301.504,85.9785 301.384,85.2556 301.078,84.3894 300.657,83.1978 299.886,81.7349 299.089,81.7957 298.405,81.8479 297.702,83.0243 297.401,84.0391 297.168,84.8262 297.176,85.5161 297.185,86.206" />
	<path
		style="fill:none;stroke:#000000;stroke-width:4px;stroke-opacity:1;stroke-linecap:round"
		d="M 301.625,86.7014 C 301.735,88.2636 301.846,89.8258 300.898,91.3673 300.517,91.9858 299.966,92.6009 299.455,92.5952 298.884,92.5888 298.361,91.8084 297.998,91.0613 297.153,89.3226 297.169,87.7643 297.185,86.206" />
	<path
		style="fill:none;stroke:#000000;stroke-width:4px;stroke-opacity:1;stroke-linecap:round"
		d="M 266.811,105.621 C 266.937,105.969 267.315,107.013 267.315,107.013 267.722,108.138 268.144,109.275 268.774,110.293 269.988,112.256 271.573,113.963 273.019,115.762" />
	<path
		style="fill:none;stroke:#000000;stroke-width:4px;stroke-opacity:1;stroke-linecap:round"
		d="M 273.019,115.762 C 272.97,115.73 272.824,115.634 272.824,115.634 270.938,115.41 269.342,114.112 267.64,113.267" />
	<path
		style="fill:none;stroke:#000000;stroke-width:4px;stroke-opacity:1;stroke-linecap:round"
		d="M 267.64,113.267 C 266.452,118.754 266.706,119.505 266.677,120.266" />
	<path
		style="fill:none;stroke:#000000;stroke-width:4px;stroke-opacity:1;stroke-linecap:round"
		d="M 266.677,120.266 C 266.757,122.207 266.837,124.147 266.447,126.002 266.176,127.286 265.68,128.529 265.184,129.772" />
	<path
		style="fill:none;stroke:#000000;stroke-width:4px;stroke-opacity:1;stroke-linecap:round"
		d="M 282.955,143.252 C 283.823,145.593 284.692,147.934 284.625,150.434 284.608,151.063 284.531,151.701 284.268,152.253 284.107,152.591 283.877,152.896 283.646,153.201" />
	<path
		style="fill:none;stroke:#000000;stroke-width:4px;stroke-opacity:1;stroke-linecap:round"
		d="M 283.646,153.201 C 282.711,155.023 281.775,156.845 280.204,157.452 279.009,157.914 277.445,157.673 276.051,157.189 270.903,155.403 268.077,150.306 266.368,145.251 264.716,140.361 264.109,135.511 263.502,130.66" />
	<path
		style="fill:none;stroke:#000000;stroke-width:4px;stroke-opacity:1;stroke-linecap:round"
		d="M 283.646,153.201 C 277.05,167.855 270.455,182.51 265.738,197.791 263.626,204.635 261.891,211.604 260.155,218.574" />
	<path
		style="fill:none;stroke:#000000;stroke-width:4px;stroke-opacity:1;stroke-linecap:round"
		d="M 260.155,218.574 C 259.729,222.2 259.302,225.827 259.535,229.43 259.656,231.319 259.959,233.201 260.262,235.084" />
	<path
		style="fill:none;stroke:#000000;stroke-width:4px;stroke-opacity:1;stroke-linecap:round"
		d="M 260.262,235.084 C 260.967,235.332 261.672,235.579 262.353,235.974 264.649,237.306 266.66,240.309 266.315,242.541 265.867,245.439 261.444,247.035 257.824,247.749 255.661,248.175 253.785,248.287 251.909,248.398" />
	<path
		style="fill:none;stroke:#000000;stroke-width:4px;stroke-opacity:1;stroke-linecap:round"
		d="M 251.909,248.398 C 245.416,248.375 238.923,248.351 232.523,247.3 225.137,246.087 217.874,243.506 211.456,239.667 209.204,238.319 207.056,236.818 204.908,235.316" />
	<path
		style="fill:none;stroke:#000000;stroke-width:4px;stroke-opacity:1;stroke-linecap:round"
		d="M 204.908,235.316 C 202.753,233.353 200.599,231.39 200.8,229.103 200.932,227.606 202.072,225.97 203.448,225.011 205.261,223.747 207.483,223.657 209.706,223.567" />
	<path
		style="fill:none;stroke:#000000;stroke-width:4px;stroke-opacity:1;stroke-linecap:round"
		d="M 209.706,223.567 C 210.384,221.482 211.063,219.397 211.769,217.322 216.391,203.742 222.18,190.591 227.969,177.441" />
	<path
		style="fill:none;stroke:#000000;stroke-width:4px;stroke-opacity:1;stroke-linecap:round"
		d="M 265.184,129.772 C 260.267,133.472 255.351,137.172 251.068,141.434 241.061,151.391 234.515,164.416 227.969,177.441" />
	<path
		style="fill:none;stroke:#000000;stroke-width:4px;stroke-opacity:1;stroke-linecap:round"
		d="M 282.955,143.252 C 282.949,145.301 282.944,147.349 281.979,149.136 281.51,150.004 280.814,150.81 279.973,151.229 278.367,152.028 276.233,151.413 274.491,150.453 270.632,148.327 268.69,144.506 267.102,140.669 265.725,137.341 264.613,134 263.502,130.66" />
	<path
		style="fill:none;stroke:#000000;stroke-width:4px;stroke-opacity:1;stroke-linecap:round"
		d="M 308.33,112.353 C 307.18,112.544 305.995,112.678 304.773,112.753 303.487,112.833 302.16,112.849 300.794,112.801 299.492,112.755 298.154,112.651 296.779,112.49 295.486,112.337 294.16,112.134 292.802,111.879" />
	</g>
	<g cacani:groupmode="layer" id="arm_L top">
	<path
		style="fill:none;stroke:#000000;stroke-width:4px;stroke-opacity:1;stroke-linecap:round"
		d="M 265.427,149.162 C 265.192,148.716 264.957,148.27 264.703,147.849 260.263,140.5 249.867,140.711 239.471,140.922" />
	<path
		style="fill:none;stroke:#000000;stroke-width:4px;stroke-opacity:1;stroke-linecap:round"
		d="M 239.471,140.922 C 236.587,140.235 233.703,139.548 230.783,139.147 227.015,138.629 223.187,138.588 219.358,138.546" />
	<path
		style="fill:none;stroke:#000000;stroke-width:4px;stroke-opacity:1;stroke-linecap:round"
		d="M 219.358,138.546 C 217.695,144.588 216.032,150.629 215.991,156.713 215.959,161.463 216.915,166.238 217.87,171.013" />
	<path
		style="fill:none;stroke:#000000;stroke-width:4px;stroke-opacity:1;stroke-linecap:round"
		d="M 217.87,171.013 C 222.401,171.117 226.932,171.222 231.399,170.734 235.731,170.261 240.004,169.23 244.276,168.2" />
	<path
		style="fill:none;stroke:#000000;stroke-width:4px;stroke-opacity:1;stroke-linecap:round"
		d="M 244.276,168.2 C 252.358,164.326 260.439,160.451 263.909,153.14 264.506,151.882 264.967,150.522 265.427,149.162" />
	<path
		style="fill:none;stroke:#000000;stroke-width:4px;stroke-opacity:1;stroke-linecap:round"
		d="M 218.017,143.585 C 207.589,143.158 197.161,142.731 186.733,142.305" />
	<path
		style="fill:none;stroke:#000000;stroke-width:4px;stroke-opacity:1;stroke-linecap:round"
		d="M 186.733,142.305 C 184.525,146.062 182.317,149.819 180.309,153.677 175.63,162.671 172.044,172.213 167.932,181.498 166.029,185.795 164.013,190.036 161.998,194.278" />
	<path
		style="fill:none;stroke:#000000;stroke-width:4px;stroke-opacity:1;stroke-linecap:round"
		d="M 161.998,194.278 C 159.636,193.099 157.275,191.92 155.048,192.14 152.847,192.357 150.777,193.942 148.707,195.526" />
	<path
		style="fill:none;stroke:#000000;stroke-width:4px;stroke-opacity:1;stroke-linecap:round"
		d="M 148.707,195.526 C 143.312,199.28 137.917,203.034 138.446,207.515 138.69,209.584 140.198,211.809 141.705,214.033" />
	<path
		style="fill:none;stroke:#000000;stroke-width:4px;stroke-opacity:1;stroke-linecap:round"
		d="M 141.705,214.033 C 143.929,215.987 146.153,217.942 148.688,219.386 150.098,220.19 151.604,220.836 153.111,221.481" />
	<path
		style="fill:none;stroke:#000000;stroke-width:4px;stroke-opacity:1;stroke-linecap:round"
		d="M 153.111,221.481 C 155.372,219.863 157.634,218.245 159.628,216.36 162.948,213.223 165.527,209.347 168.105,205.471" />
	<path
		style="fill:none;stroke:#000000;stroke-width:4px;stroke-opacity:1;stroke-linecap:round"
		d="M 168.105,205.471 C 168.646,204.487 169.187,203.503 169.729,202.519 170.66,200.829 171.595,199.141 172.53,197.453" />
	<path
		style="fill:none;stroke:#000000;stroke-width:4px;stroke-opacity:1;stroke-linecap:round"
		d="M 172.53,197.453 C 175.88,192.181 179.23,186.91 182.509,181.595 187.089,174.17 191.531,166.66 195.974,159.15" />
	<path
		style="fill:none;stroke:#000000;stroke-width:4px;stroke-opacity:1;stroke-linecap:round"
		d="M 195.974,159.15 C 200.848,159.87 205.722,160.59 210.625,160.921 212.492,161.047 214.364,161.116 216.239,161.142" />
	</g>
	<g display="none" cacani:groupmode="sketch_layer" id="Sketch 1">
	<path
		style="fill:none;stroke:#000000;stroke-width:1.96181px;stroke-opacity:1;stroke-linecap:round"
		d="M 230.887,258.091 C 231.088,258.675 231.179,259.31 231.49,259.843 233.045,262.515 235.374,264.741 237.848,266.595 242.449,270.045 247.69,272.639 253.008,274.827 263.078,278.97 273.818,281.25 284.215,284.488" />
	<path
		style="fill:none;stroke:#000000;stroke-width:2.55492px;stroke-opacity:1;stroke-linecap:round"
		d="M 261.864,277.999 C 267.122,279.689 272.097,282.159 277.166,284.352 281.718,286.32 286.324,288.166 290.839,290.219" />
	<path
		style="fill:none;stroke:#000000;stroke-width:2.68024px;stroke-opacity:1;stroke-linecap:round"
		d="M 290.511,290.423 C 290.939,291.254 291.364,292.086 291.795,292.915 292.532,294.33 293.119,296.019 294.452,296.895 296.223,298.059 298.629,297.828 300.748,297.788" />
	<path
		style="fill:none;stroke:#000000;stroke-width:2.10219px;stroke-opacity:1;stroke-linecap:round"
		d="M 102.492,468.095 C 101.311,477.109 100.903,486.227 100.843,495.317 100.429,485.205 100.327,475.081 100.327,464.961 99.8347,475.778 99.1837,486.621 97.5786,497.33 97.4225,488.43 98.1492,479.52 99.0904,470.669 98.5694,478.56 97.79,486.434 96.9257,494.294 96.6331,486.73 96.4941,479.161 96.3416,471.593 96.1011,474.211 95.8605,476.828 95.62,479.446 95.494,476.707 95.368,473.969 95.2421,471.23" />
	<path
		style="fill:none;stroke:#000000;stroke-width:2.19357px;stroke-opacity:1;stroke-linecap:round"
		d="M 357.96,466.775 C 357.441,473.318 356.945,479.862 356.482,486.408 356.26,479.995 356.366,473.533 357.204,467.171 356.426,478.398 355.053,489.593 353.218,500.696 353.719,493.129 354.501,485.579 355.486,478.06 355.696,484.505 355.407,490.968 354.902,497.396 355.267,489.84 355.853,482.281 356.929,474.793 357.108,483.065 357.007,491.362 356.31,499.607 356.172,492.734 356.139,485.858 356.139,478.984 356.526,483.892 356.895,488.81 356.895,493.733 357.205,488.563 357.516,483.393 357.857,478.225 357.387,482.471 356.917,486.716 356.448,490.962" />
	<path
		style="fill:none;stroke:#000000;stroke-width:1.73129px;stroke-opacity:1;stroke-linecap:round"
		d="M 301.3,474.694 C 299.852,481.957 298.597,489.263 297.623,496.604 297.196,487.581 297.027,478.546 296.902,469.514 296.902,480.342 297.18,491.176 297.864,501.982 298.165,491.538 297.999,481.077 297.589,470.636 297.589,473.485 297.589,476.333 297.589,479.182" />
	</g>
</g>
</svg>
