<?xml version="1.0" encoding="UTF-8" standalone="no"?>
<!-- Created with Cacani (http://www.cacani.org/) -->
<svg
	xmlns="http://www.w3.org/2000/svg"
	xmlns:cacani="http://www.cacani.org/namespaces/cacani"
	version="1.1"
	width="480"
	height="490">
<g cacani:groupmode="cel" id="Run">
	<g display="none" cacani:groupmode="layer" id="Ref 1">
	</g>
	<g display="none" cacani:groupmode="sketch_layer" id="Sketch 2">
	</g>
	<g cacani:groupmode="layer" id="leg_R">
	<path
		style="fill:none;stroke:#000000;stroke-width:4px;stroke-opacity:1;stroke-linecap:round"
		d="M 218.826,251.893 C 218.405,253.676 218.361,255.529 218.034,257.331 217.43,260.662 216.592,263.945 215.848,267.247 214.888,271.512 213.709,275.724 212.747,279.988 210.705,289.034 208.982,298.171 207.851,307.375 207.221,312.496 206.94,317.653 206.441,322.789 206.279,324.456 206.178,326.13 205.945,327.789 205.781,328.965 205.288,330.163 205.516,331.326" />
	<path
		style="fill:none;stroke:#000000;stroke-width:4px;stroke-opacity:1;stroke-linecap:round"
		d="M 205.516,331.326 C 203.082,333.246 201.863,334.263 201.074,335.615 200.667,336.311 200.375,337.096 200.563,337.633 200.906,338.61 201.944,339.192 202.938,339.794" />
	<path
		style="fill:none;stroke:#000000;stroke-width:4px;stroke-opacity:1;stroke-linecap:round"
		d="M 202.938,339.794 C 207.009,342.427 209.925,343.848 212.864,344.868 216.654,346.185 220.559,346.96 224.476,347.607 226.876,348.003 229.28,348.35 231.718,348.653" />
	<path
		style="fill:none;stroke:#000000;stroke-width:4px;stroke-opacity:1;stroke-linecap:round"
		d="M 231.718,348.653 C 232.668,348.671 234.158,348.814 234.893,348.542 236.071,348.457 237.702,347.761 238.086,346.705 238.388,345.878 238.055,344.993 237.615,344.128 237.112,343.138 236.437,342.115 235.662,341.146" />
	<path
		style="fill:none;stroke:#000000;stroke-width:4px;stroke-opacity:1;stroke-linecap:round"
		d="M 235.662,341.146 C 238.227,333.317 241.026,325.757 243.736,318.162 247.355,308.02 250.813,297.815 254.122,287.589 256.412,280.51 258.63,273.421 260.802,266.287" />
	<path
		style="fill:none;stroke:#000000;stroke-width:4px;stroke-opacity:1;stroke-linecap:round"
		d="M 231.718,348.653 C 231.648,348.889 231.582,349.134 231.517,349.364 231.263,350.265 230.812,351.103 230.43,351.93 229.858,353.167 229.265,354.345 228.294,355.227 226.897,356.496 224.85,357.111 222.803,357.669" />
	<path
		style="fill:none;stroke:#000000;stroke-width:4px;stroke-opacity:1;stroke-linecap:round"
		d="M 222.803,357.669 C 214.388,366.485 207.73,373.158 201.46,380.239 193.719,388.981 186.622,398.37 179.786,407.995 176.504,412.616 173.426,417.367 170.133,422.004" />
	<path
		style="fill:none;stroke:#000000;stroke-width:4px;stroke-opacity:1;stroke-linecap:round"
		d="M 207.073,342.252 C 206.844,342.447 206.627,342.664 206.441,342.914 205.225,344.554 204.304,346.336 203.026,348.043 202.376,348.911 201.6,349.753 200.857,350.518 196.836,354.651 192.777,358.712 189.042,363.099 184.859,368.012 181.118,373.307 177.667,378.859 172.245,387.584 168.214,397.111 163.963,406.526 162.005,410.864 160.13,415.186 158.044,419.418" />
	<path
		style="fill:none;stroke:#000000;stroke-width:4px;stroke-opacity:1;stroke-linecap:round"
		d="M 175.552,423.455 C 175.546,423.454 175.528,423.449 175.516,423.446 173.689,422.965 171.842,422.433 170.001,421.941 167.006,421.141 164.029,420.449 161.068,419.795 158.256,419.173 155.459,418.586 152.753,418.246" />
	<path
		style="fill:none;stroke:#000000;stroke-width:4px;stroke-opacity:1;stroke-linecap:round"
		d="M 152.753,418.246 C 152.75,418.436 152.774,418.705 152.757,418.855 152.656,420.754 152.631,422.645 152.588,424.537" />
	<path
		style="fill:none;stroke:#000000;stroke-width:4px;stroke-opacity:1;stroke-linecap:round"
		d="M 152.588,424.537 C 149.035,427.811 146.22,429.775 143.977,432.126 141.776,434.434 140.001,436.964 138.431,439.627 137.85,440.613 137.297,441.618 136.91,442.703 136.814,442.974 136.728,443.25 136.65,443.509" />
	<path
		style="fill:none;stroke:#000000;stroke-width:4px;stroke-opacity:1;stroke-linecap:round"
		d="M 136.65,443.509 C 136.835,443.719 137.029,443.926 137.237,444.123 137.582,444.451 137.967,444.755 138.343,445.048 139.717,446.119 140.972,447.049 142.212,447.937 145.981,450.636 149.608,452.957 153.129,455.214 154.267,455.943 155.395,456.666 156.468,457.228" />
	<path
		style="fill:none;stroke:#000000;stroke-width:4px;stroke-opacity:1;stroke-linecap:round"
		d="M 156.468,457.228 C 158.089,458.176 159.404,458.991 160.59,459.77 162.497,461.024 164.068,462.185 165.595,463.413 166.818,464.395 168.013,465.42 169.147,466.444 170.129,467.331 171.066,468.217 172.015,468.991 172.327,469.246 172.641,469.488 172.948,469.718 174.189,470.647 175.331,471.373 176.758,471.655 177.643,471.83 178.639,471.834 179.628,471.825 182.645,471.795 185.6,471.639 188.694,471.335 189.696,471.237 190.713,471.123 191.531,471.147" />
	<path
		style="fill:none;stroke:#000000;stroke-width:4px;stroke-opacity:1;stroke-linecap:round"
		d="M 191.531,471.147 C 193.745,471.033 195.401,470.715 196.94,470.361 198.038,470.108 199.022,469.753 199.798,469.06 200.122,468.77 200.41,468.421 200.563,468.018 200.707,467.641 200.732,467.216 200.742,466.777" />
	<path
		style="fill:none;stroke:#000000;stroke-width:4px;stroke-opacity:1;stroke-linecap:round"
		d="M 200.742,466.777 C 200.438,465.085 200.107,463.387 199.386,461.854 198.356,459.664 196.531,457.811 194.445,456.42 192.489,455.116 190.303,454.219 188.097,453.352" />
	<path
		style="fill:none;stroke:#000000;stroke-width:4px;stroke-opacity:1;stroke-linecap:round"
		d="M 188.097,453.352 C 186.765,450.045 185.442,446.736 183.835,443.546 182.488,440.874 180.942,438.287 179.25,435.796 178.274,434.358 177.248,432.953 176.235,431.54" />
	<path
		style="fill:none;stroke:#000000;stroke-width:4px;stroke-opacity:1;stroke-linecap:round"
		d="M 176.235,431.54 C 177.916,429.531 179.865,427.607 181.675,425.693 183.019,424.271 184.286,422.855 185.322,420.589 185.883,419.361 186.377,417.884 185.833,417.141 185.313,416.43 183.842,416.391 182.632,416.696 182.131,416.822 181.674,417.007 181.246,417.218 178.55,418.546 176.982,420.897 175.613,423.339 174.735,424.903 173.94,426.505 173.414,428.211 173.117,429.173 172.906,430.168 172.69,431.166" />
	<path
		style="fill:none;stroke:#000000;stroke-width:4px;stroke-opacity:1;stroke-linecap:round"
		d="M 176.235,431.54 C 175.925,431.605 175.576,431.683 175.29,431.675 174.659,431.888 173.813,431.767 172.69,431.166" />
	<path
		style="fill:none;stroke:#000000;stroke-width:4px;stroke-opacity:1;stroke-linecap:round"
		d="M 172.69,431.166 C 175.05,434.564 176.619,436.682 178.032,438.877 179.807,441.634 181.334,444.552 182.599,447.556 183.502,449.701 184.273,451.891 185.024,454.108" />
	<path
		style="fill:none;stroke:#000000;stroke-width:4px;stroke-opacity:1;stroke-linecap:round"
		d="M 185.024,454.108 C 186.701,455.128 187.945,455.676 188.946,456.099 189.758,456.442 190.41,456.701 191.45,456.923 191.83,457.005 192.262,457.081 192.386,457.067 192.632,457.04 192.6,456.937 192.499,456.834 192.457,456.79 192.407,456.773 192.387,456.674 192.379,456.631 192.334,456.511 192.254,456.434 191.726,455.927 191.263,455.387 190.851,455.032 190.525,454.751 189.881,454.195 189.666,454.01" />
	</g>
	<g cacani:groupmode="layer" id="arm_R">
	<path
		style="fill:none;stroke:#000000;stroke-width:4px;stroke-opacity:1;stroke-linecap:round"
		d="M 291.704,171.036 C 292.556,174.403 293.407,177.77 294.261,181.14 295.368,185.514 296.479,189.893 297.247,194.343 297.678,196.831 298.001,199.342 298.324,201.852" />
	<path
		style="fill:none;stroke:#000000;stroke-width:4px;stroke-opacity:1;stroke-linecap:round"
		d="M 298.324,201.852 C 296.756,203.476 296.269,203.705 295.777,203.92 294.265,204.581 292.671,205.061 291.063,205.397 288.615,205.908 286.096,206.027 283.61,206.007 281.434,205.99 279.253,205.902 277.104,205.62" />
	<path
		style="fill:none;stroke:#000000;stroke-width:4px;stroke-opacity:1;stroke-linecap:round"
		d="M 277.104,205.62 C 274.516,198.907 274.04,196.579 273.509,194.264 272.025,187.805 270.655,181.314 269.032,174.891" />
	<path
		style="fill:none;stroke:#000000;stroke-width:4px;stroke-opacity:1;stroke-linecap:round"
		d="M 295.454,204.04 C 295.625,205.196 295.796,206.352 296.014,207.487 296.47,209.866 297.128,212.153 297.516,214.654 297.656,215.554 297.761,216.483 298.21,217.197 298.687,217.956 299.551,218.474 300.406,218.931 301.861,219.709 303.291,220.313 304.684,221.012 309.198,223.278 313.325,226.548 317.776,229.146 322.125,231.684 326.784,233.581 331.442,235.477" />
	<path
		style="fill:none;stroke:#000000;stroke-width:4px;stroke-opacity:1;stroke-linecap:round"
		d="M 280.439,205.916 C 280.444,205.942 280.46,206.022 280.47,206.076 280.611,206.797 280.775,207.492 280.923,208.204 281.174,209.409 281.379,210.661 281.598,211.901 282.015,214.259 282.486,216.572 283.084,218.785 283.782,221.367 284.653,223.814 285.823,226.235 286.241,227.101 286.697,227.963 287.36,228.654 287.885,229.2 288.538,229.638 289.213,230.049 291.694,231.56 294.46,232.698 297.262,233.781 301.541,235.433 305.902,236.955 310.239,238.366 314.488,239.749 318.713,241.026 322.733,242.508 324.348,243.103 325.93,243.732 327.46,244.383" />
	<path
		style="fill:none;stroke:#000000;stroke-width:4px;stroke-opacity:1;stroke-linecap:round"
		d="M 331.442,235.477 C 333.157,234.854 334.523,234.216 335.733,233.63 336.742,233.14 337.642,232.687 338.479,232.275 339.087,231.976 339.661,231.699 340.227,231.458" />
	<path
		style="fill:none;stroke:#000000;stroke-width:4px;stroke-opacity:1;stroke-linecap:round"
		d="M 340.227,231.458 C 341.044,231.804 341.69,231.69 342.348,231.64 343.75,231.533 345.207,231.714 346.718,231.639 347.162,231.617 347.611,231.573 347.97,231.772 348.231,231.917 348.444,232.189 348.66,232.43 348.891,232.687 349.126,232.908 349.338,233.126 349.435,233.225 349.527,233.324 349.616,233.427 350.498,234.446 351.057,235.819 351.493,237.079 351.874,238.18 352.161,239.195 352.461,240.643 352.624,241.433 352.821,242.25 352.482,242.624 352.316,242.808 352.022,242.884 351.769,242.889 351.347,242.897 350.949,242.787 350.557,242.614" />
	<path
		style="fill:none;stroke:#000000;stroke-width:4px;stroke-opacity:1;stroke-linecap:round"
		d="M 350.557,242.614 C 349.23,242.597 348.758,242.288 348.252,241.905 347.531,241.359 346.844,240.617 346.141,239.909" />
	<path
		style="fill:none;stroke:#000000;stroke-width:4px;stroke-opacity:1;stroke-linecap:round"
		d="M 346.141,239.909 C 345.509,240.153 344.971,240.451 344.446,240.784 343.209,241.568 342.041,242.549 340.897,242.642 339.821,242.729 338.766,242.033 337.737,241.357" />
	<path
		style="fill:none;stroke:#000000;stroke-width:4px;stroke-opacity:1;stroke-linecap:round"
		d="M 350.58,235.2 C 351.085,235.68 351.593,236.004 352.035,236.356 352.886,237.035 353.489,237.818 354.175,238.416" />
	<path
		style="fill:none;stroke:#000000;stroke-width:4px;stroke-opacity:1;stroke-linecap:round"
		d="M 354.175,238.416 C 354.42,238.555 354.639,238.704 354.805,238.926 355.079,239.293 355.21,239.857 355.354,240.391 355.697,241.661 356.116,242.752 356.306,243.919 356.578,245.595 356.377,247.427 355.997,249.049 355.622,250.648 355.073,252.043 354.41,253.455 354.198,253.907 353.974,254.361 353.671,254.676 353.292,255.068 352.79,255.245 352.401,255.486 352.214,255.602 352.053,255.732 351.839,255.808 351.543,255.913 351.145,255.913 350.717,255.94" />
	<path
		style="fill:none;stroke:#000000;stroke-width:4px;stroke-opacity:1;stroke-linecap:round"
		d="M 350.717,255.94 C 349.588,255.544 348.444,255.231 347.222,254.928 345.812,254.579 344.299,254.242 342.796,253.945" />
	<path
		style="fill:none;stroke:#000000;stroke-width:4px;stroke-opacity:1;stroke-linecap:round"
		d="M 342.796,253.945 C 340.905,253.486 339.059,253.075 337.18,252.483 335.082,251.823 332.942,250.936 331.317,249.646 330.545,249.033 329.888,248.328 329.309,247.473 329.002,247.02 328.716,246.524 328.439,246.047 328.105,245.472 327.782,244.924 327.46,244.383" />
	</g>
	<g cacani:groupmode="layer" id="body">
	<path
		style="fill:none;stroke:#000000;stroke-width:4px;stroke-opacity:1;stroke-linecap:round"
		d="M 337.454,41.8382 C 332.843,39.2552 327.895,37.0211 322.806,35.1563 316.209,32.7386 309.223,30.9291 302.29,30.9278 295.662,30.9267 288.956,32.3892 282.61,34.7303" />
	<path
		style="fill:none;stroke:#000000;stroke-width:4px;stroke-opacity:1;stroke-linecap:round"
		d="M 282.61,34.7303 C 283.081,33.1719 283.317,32.1593 283.344,31.1987 283.381,29.9 283.213,28.6608 282.828,27.6053 282.451,26.574 281.801,25.7984 281.044,24.9722" />
	<path
		style="fill:none;stroke:#000000;stroke-width:4px;stroke-opacity:1;stroke-linecap:round"
		d="M 281.044,24.9722 C 280.064,26.3459 280.229,27.4411 280.007,28.5318 279.595,30.5592 278.358,32.6371 277.25,34.7839" />
	<path
		style="fill:none;stroke:#000000;stroke-width:4px;stroke-opacity:1;stroke-linecap:round"
		d="M 277.25,34.7839 C 273.698,34.3484 270.491,33.98 267.808,34.6165 266.16,35.0074 264.71,35.7774 263.189,36.1071 261.857,36.3958 260.47,36.3466 259.052,36.3108" />
	<path
		style="fill:none;stroke:#000000;stroke-width:4px;stroke-opacity:1;stroke-linecap:round"
		d="M 268.963,39.2522 C 267.78,39.3305 266.408,39.4721 265.193,39.2735 263.644,39.0203 262.19,38.3359 259.052,36.3108" />
	<path
		style="fill:none;stroke:#000000;stroke-width:4px;stroke-opacity:1;stroke-linecap:round"
		d="M 268.963,39.2522 C 266.837,39.7873 265.625,40.2995 264.437,40.8471 262.527,41.7277 260.66,42.713 258.994,43.924 253.932,47.6021 250.38,53.1879 247.598,59.0102" />
	<path
		style="fill:none;stroke:#000000;stroke-width:4px;stroke-opacity:1;stroke-linecap:round"
		d="M 247.598,59.0102 C 249.224,57.8259 250.579,56.8834 251.878,56.2586 253.156,55.6432 254.38,55.336 255.58,54.9938" />
	<path
		style="fill:none;stroke:#000000;stroke-width:4px;stroke-opacity:1;stroke-linecap:round"
		d="M 255.58,54.9938 C 253.375,57.2661 251.161,59.5423 249.462,62.1694 247.573,65.0904 246.322,68.4453 245.392,71.8439 244.366,75.5915 243.731,79.3924 243.44,83.2495 243.151,87.0668 243.199,90.9392 243.833,94.6858 244.799,100.391 247.124,105.805 249.448,111.21" />
	<path
		style="fill:none;stroke:#000000;stroke-width:4px;stroke-opacity:1;stroke-linecap:round"
		d="M 249.448,111.21 C 249.453,110.019 249.572,108.823 249.772,107.637 250.169,105.278 250.884,102.962 251.607,100.68" />
	<path
		style="fill:none;stroke:#000000;stroke-width:4px;stroke-opacity:1;stroke-linecap:round"
		d="M 251.607,100.68 C 253.122,105.832 254.379,108.476 255.934,110.943 258.158,114.472 261.09,117.57 264.359,120.212 267.182,122.493 270.233,124.457 273.39,125.813 275.752,126.827 278.094,127.711 280.583,128.296" />
	<path
		style="fill:none;stroke:#000000;stroke-width:4px;stroke-opacity:1;stroke-linecap:round"
		d="M 337.454,41.8382 C 338.851,42.6421 340.273,43.4033 341.669,44.2383 344.132,45.7111 346.516,47.4133 349.062,48.6766 351.336,49.8044 353.739,50.5824 356.096,51.478" />
	<path
		style="fill:none;stroke:#000000;stroke-width:4px;stroke-opacity:1;stroke-linecap:round"
		d="M 356.096,51.478 C 354.318,52.1345 352.534,52.6657 350.691,52.8347 348.643,53.0225 346.522,52.7631 344.455,52.4694" />
	<path
		style="fill:none;stroke:#000000;stroke-width:4px;stroke-opacity:1;stroke-linecap:round"
		d="M 344.455,52.4694 C 348.607,57.8038 350.623,61.0265 351.977,64.5214 354.897,72.0586 354.044,81.1084 351.758,89.1676 351.099,91.4919 350.32,93.7338 349.63,95.8171 348.953,97.8608 348.467,99.9347 347.828,101.833" />
	<path
		style="fill:none;stroke:#000000;stroke-width:4px;stroke-opacity:1;stroke-linecap:round"
		d="M 347.828,101.833 C 347.139,100.248 346.508,99.1917 346.147,98.0529 345.504,96.0203 345.201,93.7672 344.722,91.5113" />
	<path
		style="fill:none;stroke:#000000;stroke-width:4px;stroke-opacity:1;stroke-linecap:round"
		d="M 344.722,91.5113 C 341.96,96.0546 340.467,99.0097 338.092,101.102 336.639,102.383 334.93,103.348 333.234,104.328" />
	<path
		style="fill:none;stroke:#000000;stroke-width:4px;stroke-opacity:1;stroke-linecap:round"
		d="M 335.752,80.8485 C 336.449,83.9329 336.319,87.172 336.097,90.324 335.622,97.0668 333.566,103.645 331.401,110.047" />
	<path
		style="fill:none;stroke:#000000;stroke-width:4px;stroke-opacity:1;stroke-linecap:round"
		d="M 331.401,110.047 C 332.718,113.289 333.598,113.898 334.251,114.698 334.831,115.409 335.278,116.338 335.269,117.255 335.26,118.177 334.121,118.819 333.264,119.164 332.135,119.62 330.983,120.036 329.801,120.329" />
	<path
		style="fill:none;stroke:#000000;stroke-width:4px;stroke-opacity:1;stroke-linecap:round"
		d="M 329.801,120.329 C 329.599,123.202 330.434,124.419 330.212,125.669 329.98,126.968 328.651,128.011 327.411,128.472" />
	<path
		style="fill:none;stroke:#000000;stroke-width:4px;stroke-opacity:1;stroke-linecap:round"
		d="M 327.411,128.472 C 323.68,128.331 319.948,128.19 316.341,127.423 313.544,126.828 310.821,125.857 308.098,124.887" />
	<path
		style="fill:none;stroke:#000000;stroke-width:4px;stroke-opacity:1;stroke-linecap:round"
		d="M 323.439,128.266 C 324.173,129.8 324.907,131.333 324.243,132.465 323.95,132.963 323.387,133.383 322.805,133.68 322.113,134.034 321.396,134.213 320.678,134.393" />
	<path
		style="fill:none;stroke:#000000;stroke-width:4px;stroke-opacity:1;stroke-linecap:round"
		d="M 320.678,134.393 C 320.519,135.353 320.36,136.313 320.234,137.37 320.007,139.274 319.888,141.492 318.742,142.584 317.705,143.573 315.826,143.638 313.947,143.704" />
	<path
		style="fill:none;stroke:#000000;stroke-width:4px;stroke-opacity:1;stroke-linecap:round"
		d="M 313.947,143.704 C 312.076,143.614 310.205,143.525 308.369,143.235 305.428,142.772 302.579,141.796 299.729,140.82" />
	<path
		style="fill:none;stroke:#000000;stroke-width:4px;stroke-opacity:1;stroke-linecap:round"
		d="M 299.729,140.82 C 299.217,143.585 298.678,146.339 298.078,149.096 297.156,153.33 296.088,157.57 295.021,161.806" />
	<path
		style="fill:none;stroke:#000000;stroke-width:4px;stroke-opacity:1;stroke-linecap:round"
		d="M 335.752,80.8485 C 334.785,79.2216 333.819,77.5948 332.647,76.1235 331.199,74.3054 329.437,72.7248 327.568,71.3176 322.921,67.8177 317.614,65.3902 312.306,62.9626" />
	<path
		style="fill:none;stroke:#000000;stroke-width:4px;stroke-opacity:1;stroke-linecap:round"
		d="M 312.306,62.9626 C 313.537,65.5183 314.709,68.1071 315.538,70.7934 316.439,73.7125 316.934,76.7468 317.39,79.7894" />
	<path
		style="fill:none;stroke:#000000;stroke-width:4px;stroke-opacity:1;stroke-linecap:round"
		d="M 317.39,79.7894 C 313.848,76.8462 310.883,74.2998 307.962,72.5258 305.91,71.2799 303.879,70.415 301.922,69.7848 300.582,69.3534 299.276,69.032 297.972,68.7311" />
	<path
		style="fill:none;stroke:#000000;stroke-width:4px;stroke-opacity:1;stroke-linecap:round"
		d="M 302.432,69.9794 C 302.425,69.9835 302.407,69.9959 302.398,70.0014 302.191,70.1377 301.841,70.3671 301.567,70.5465 300.626,71.1641 299.911,72.0878 299.239,72.9898 297.615,75.1687 296.668,77.7958 295.732,80.3455" />
	<path
		style="fill:none;stroke:#000000;stroke-width:4px;stroke-opacity:1;stroke-linecap:round"
		d="M 295.732,80.3455 C 294.66,83.7888 294.301,85.2569 294.065,86.7424 293.332,91.3651 293.506,96.0915 293.447,100.773" />
	<path
		style="fill:none;stroke:#000000;stroke-width:4px;stroke-opacity:1;stroke-linecap:round"
		d="M 293.447,100.773 C 291.976,97.747 290.504,94.7211 287.888,92.0488 286.933,91.0733 285.826,90.1449 284.692,90.0283 283.118,89.8663 281.493,91.2698 280.24,92.7915 276.509,97.3212 276.066,102.898 278.202,108.233 279.2,110.727 280.761,113.168 282.986,113.747 284.04,114.022 285.243,113.879 286.445,113.736" />
	<path
		style="fill:none;stroke:#000000;stroke-width:4px;stroke-opacity:1;stroke-linecap:round"
		d="M 326.869,90.1565 C 326.495,88.9595 325.464,88.04 324.518,87.2125 323.016,85.898 321.053,84.7401 319.056,84.7503 316.685,84.7625 314.485,86.8325 313.267,88.8576" />
	<path
		style="fill:none;stroke:#000000;stroke-width:4px;stroke-opacity:1;stroke-linecap:round"
		d="M 321.539,101.611 C 321.553,100.873 321.568,100.135 321.424,99.2196 321.228,97.9609 320.733,96.368 319.93,96.2789 319.24,96.2024 318.323,97.2354 317.836,98.1838 317.458,98.9194 317.339,99.6041 317.219,100.289" />
	<path
		style="fill:none;stroke:#000000;stroke-width:4px;stroke-opacity:1;stroke-linecap:round"
		d="M 321.539,101.611 C 321.359,103.179 321.179,104.746 319.95,106.095 319.457,106.636 318.796,107.142 318.289,107.04 317.722,106.927 317.348,106.056 317.126,105.248 316.609,103.369 316.914,101.829 317.219,100.289" />
	<path
		style="fill:none;stroke:#000000;stroke-width:4px;stroke-opacity:1;stroke-linecap:round"
		d="M 283.435,113.821 C 283.496,114.189 283.597,114.805 283.678,115.293 283.873,116.483 284.081,117.689 284.518,118.814 285.36,120.985 286.619,122.973 287.721,125.025" />
	<path
		style="fill:none;stroke:#000000;stroke-width:4px;stroke-opacity:1;stroke-linecap:round"
		d="M 287.721,125.025 C 287.679,124.984 287.552,124.861 287.552,124.861 285.719,124.286 284.374,122.701 282.839,121.546" />
	<path
		style="fill:none;stroke:#000000;stroke-width:4px;stroke-opacity:1;stroke-linecap:round"
		d="M 282.839,121.546 C 280.641,126.756 280.754,127.547 280.583,128.296" />
	<path
		style="fill:none;stroke:#000000;stroke-width:4px;stroke-opacity:1;stroke-linecap:round"
		d="M 280.583,128.296 C 280.32,131.599 280.085,134.896 279.231,138.056 278.718,139.955 277.98,141.805 277.242,143.643" />
	<path
		style="fill:none;stroke:#000000;stroke-width:4px;stroke-opacity:1;stroke-linecap:round"
		d="M 295.021,161.806 C 294.785,163.757 294.477,165.733 293.687,167.635 293.213,168.776 292.565,169.891 291.585,170.611 291.089,170.975 290.509,171.238 289.933,171.503" />
	<path
		style="fill:none;stroke:#000000;stroke-width:4px;stroke-opacity:1;stroke-linecap:round"
		d="M 289.933,171.503 C 289.301,171.657 288.688,171.817 288.11,171.813 285.921,171.801 284.237,169.452 282.795,167.28 280.458,163.758 278.757,160.698 277.398,157.312 276.072,154.007 275.072,150.392 274.076,146.768" />
	<path
		style="fill:none;stroke:#000000;stroke-width:4px;stroke-opacity:1;stroke-linecap:round"
		d="M 277.242,143.643 C 276.792,144.25 276.355,144.832 275.846,145.347 275.301,145.899 274.674,146.374 274.046,146.846 271.951,148.424 269.852,149.977 267.897,151.713 264.667,154.582 261.835,157.949 259.291,161.471 256.29,165.626 253.69,169.997 251.144,174.337" />
	<path
		style="fill:none;stroke:#000000;stroke-width:4px;stroke-opacity:1;stroke-linecap:round"
		d="M 293.985,166.792 C 293.511,167.985 293.037,169.179 292.637,170.395 291.917,172.583 291.436,174.846 290.884,177.087 290.567,178.376 290.226,179.658 289.866,180.933 286.397,193.213 281.12,204.927 276.901,216.976 272.29,230.145 268.942,243.715 265.594,257.285" />
	<path
		style="fill:none;stroke:#000000;stroke-width:4px;stroke-opacity:1;stroke-linecap:round"
		d="M 265.594,257.285 C 267.351,259.283 268.573,260.491 269.072,261.798 269.309,262.417 269.383,263.059 269.22,263.577 268.772,264.998 266.876,265.741 265.146,266.188 264.462,266.365 263.804,266.495 263.151,266.592" />
	<path
		style="fill:none;stroke:#000000;stroke-width:4px;stroke-opacity:1;stroke-linecap:round"
		d="M 263.151,266.592 C 260.425,266.536 259.074,266.531 257.731,266.439 254.028,266.187 250.383,265.32 246.712,264.525 241.579,263.413 236.399,262.401 231.624,260.389 229.864,259.648 228.1,258.878 226.433,257.916" />
	<path
		style="fill:none;stroke:#000000;stroke-width:4px;stroke-opacity:1;stroke-linecap:round"
		d="M 264.294,266.361 C 264.302,266.369 264.327,266.395 264.343,266.412 265.701,267.842 266.889,269.416 268.053,271.023 271.475,275.75 274.679,280.756 277.837,285.747 285.152,297.309 292.22,308.792 298.902,320.615" />
	<path
		style="fill:none;stroke:#000000;stroke-width:4px;stroke-opacity:1;stroke-linecap:round"
		d="M 298.902,320.615 C 301.103,321.238 302.888,321.401 303.714,322.624 304.205,323.35 304.358,324.451 304.23,325.306 304.019,326.732 303.168,327.658 302.446,328.541" />
	<path
		style="fill:none;stroke:#000000;stroke-width:4px;stroke-opacity:1;stroke-linecap:round"
		d="M 302.446,328.541 C 300.601,330.853 298.757,333.165 296.59,335.158 293.866,337.664 290.633,339.666 287.216,341.123 284.966,342.083 282.636,342.806 280.306,343.529" />
	<path
		style="fill:none;stroke:#000000;stroke-width:4px;stroke-opacity:1;stroke-linecap:round"
		d="M 280.306,343.529 C 279.181,343.556 278.338,343.697 277.526,343.657 276.792,343.621 276.083,343.437 275.603,343.044 275.138,342.663 274.924,342.039 274.896,341.398 274.861,340.618 275.037,339.813 275.158,338.992" />
	<path
		style="fill:none;stroke:#000000;stroke-width:4px;stroke-opacity:1;stroke-linecap:round"
		d="M 275.158,338.992 C 273.012,336.626 270.866,334.259 268.834,331.799 265.889,328.237 263.183,324.479 260.401,320.782 255.989,314.916 251.388,309.201 246.839,303.444 244.56,300.559 242.293,297.664 240.01,294.782 237.611,291.755 235.193,288.744 232.775,285.733" />
	<path
		style="fill:none;stroke:#000000;stroke-width:4px;stroke-opacity:1;stroke-linecap:round"
		d="M 226.433,257.916 C 223.693,256.23 221.553,254.85 219.725,253.377 218.786,252.619 217.929,251.837 217.264,250.84 216.563,249.791 216.175,248.696 216.246,247.723 216.387,245.789 218.771,244.435 220.953,242.989" />
	<path
		style="fill:none;stroke:#000000;stroke-width:4px;stroke-opacity:1;stroke-linecap:round"
		d="M 251.144,174.337 C 245.472,187.535 240.611,198.104 236.157,208.075 230.911,219.818 226.228,230.732 220.953,242.989" />
	<path
		style="fill:none;stroke:#000000;stroke-width:4px;stroke-opacity:1;stroke-linecap:round"
		d="M 295.021,161.806 C 294.667,162.785 294.312,163.748 293.761,164.581 292.976,165.769 291.794,166.693 290.393,166.963 289.755,167.086 289.073,167.073 288.453,166.923 286.222,166.382 284.805,164.055 283.609,161.796 281.687,158.164 280.336,154.71 279.253,151.165 278.496,148.687 277.869,146.164 277.242,143.643" />
	<path
		style="fill:none;stroke:#000000;stroke-width:4px;stroke-opacity:1;stroke-linecap:round"
		d="M 219.428,253.114 C 219.82,257.247 220.211,261.381 221.298,265.348 222.544,269.893 224.703,274.22 227.294,278.196 228.997,280.809 230.886,283.271 232.775,285.733" />
	<path
		style="fill:none;stroke:#000000;stroke-width:4px;stroke-opacity:1;stroke-linecap:round"
		d="M 301.858,329.259 C 302.641,329.952 303.411,330.7 304.161,331.452 306.567,333.863 308.547,336.478 308.978,339.469 309.263,341.451 309.284,343.246 308.769,345.027 308.164,347.125 306.709,348.965 305.21,350.689 304.152,351.905 303.073,353.064 302.055,354.185" />
	<path
		style="fill:none;stroke:#000000;stroke-width:4px;stroke-opacity:1;stroke-linecap:round"
		d="M 302.055,354.185 C 297.209,366.699 291.641,378.603 286.375,390.501 282.136,400.078 278.092,409.651 273.156,418.608" />
	<path
		style="fill:none;stroke:#000000;stroke-width:4px;stroke-opacity:1;stroke-linecap:round"
		d="M 282.126,342.947 C 282.309,343.933 282.308,345.034 282.321,346.137" />
	<path
		style="fill:none;stroke:#000000;stroke-width:4px;stroke-opacity:1;stroke-linecap:round"
		d="M 282.321,346.137 C 280.95,349.525 279.58,352.913 278.321,356.343 276.651,360.894 275.178,365.52 273.872,370.191 270.64,381.747 268.426,393.584 264.857,405.026 263.779,408.481 262.578,411.9 261.377,415.32" />
	<path
		style="fill:none;stroke:#000000;stroke-width:4px;stroke-opacity:1;stroke-linecap:round"
		d="M 275.694,419.094 C 274.695,418.938 273.723,418.658 272.754,418.38 269.487,417.444 266.24,416.54 262.967,415.704 260.825,415.156 258.672,414.637 256.487,414.314" />
	<path
		style="fill:none;stroke:#000000;stroke-width:4px;stroke-opacity:1;stroke-linecap:round"
		d="M 256.487,414.314 C 256.686,417.461 256.372,419.55 256.048,421.642" />
	<path
		style="fill:none;stroke:#000000;stroke-width:4px;stroke-opacity:1;stroke-linecap:round"
		d="M 256.048,421.642 C 253.795,423.854 251.963,425 250.349,426.396 248.283,428.181 246.507,430.225 244.822,432.382 243.898,433.564 243.002,434.78 242.088,435.991" />
	<path
		style="fill:none;stroke:#000000;stroke-width:4px;stroke-opacity:1;stroke-linecap:round"
		d="M 241.388,442.416 C 242.229,443.32 243.112,444.167 244.015,444.979 246.598,447.3 249.348,449.341 252.129,451.294 257.428,455.016 262.839,458.417 268.467,461.649 271.33,463.293 274.25,464.892 277.097,466.569 278.412,467.343 279.712,468.133 281.004,468.939" />
	<path
		style="fill:none;stroke:#000000;stroke-width:4px;stroke-opacity:1;stroke-linecap:round"
		d="M 281.004,468.939 C 281.746,469.295 282.485,469.76 283.22,470.158 284.045,470.605 284.865,470.966 285.587,471.293 286.213,471.577 286.766,471.835 287.314,471.65 287.744,471.505 288.172,471.088 288.494,470.598 288.748,470.21 288.937,469.778 289.177,469.335" />
	<path
		style="fill:none;stroke:#000000;stroke-width:4px;stroke-opacity:1;stroke-linecap:round"
		d="M 289.177,469.335 C 289.237,468.25 289.426,467.142 289.447,465.998 289.478,464.349 289.161,462.626 288.724,460.972 288.181,458.912 287.452,456.957 286.448,455.11 285.291,452.985 283.768,451.003 282.311,448.938" />
	<path
		style="fill:none;stroke:#000000;stroke-width:4px;stroke-opacity:1;stroke-linecap:round"
		d="M 282.311,448.938 C 281.98,445.563 281.412,442.333 280.648,439.159 279.595,434.78 278.171,430.51 276.515,426.423" />
	<path
		style="fill:none;stroke:#000000;stroke-width:4px;stroke-opacity:1;stroke-linecap:round"
		d="M 276.515,426.423 C 278.585,424.805 280.209,424.058 281.782,423.185 283.813,422.057 285.793,420.762 286.965,418.838 287.346,418.212 287.394,417.536 287.569,416.88 287.86,415.792 288.171,414.589 288.182,413.272 288.189,412.344 288.014,411.219 287.438,410.697 286.617,409.953 285.352,410.239 284.173,410.782 282.839,411.397 281.675,412.367 280.611,413.325 278.83,414.928 277.567,416.611 276.2,418.411 275.136,419.81 273.984,421.339 273.043,422.961 272.632,423.669 272.262,424.396 271.959,425.122" />
	<path
		style="fill:none;stroke:#000000;stroke-width:4px;stroke-opacity:1;stroke-linecap:round"
		d="M 241.388,442.416 C 241.159,442.195 240.932,441.969 240.711,441.728 240.357,441.344 240.015,440.92 239.879,440.517 239.69,439.962 239.892,439.447 240.171,438.911 240.656,437.982 241.374,436.988 242.088,435.991" />
	<path
		style="fill:none;stroke:#000000;stroke-width:4px;stroke-opacity:1;stroke-linecap:round"
		d="M 284.716,452.357 C 284.774,452.469 284.798,452.582 284.811,452.694 285.108,453.007 285.374,453.438 285.533,453.876 285.677,454.271 285.78,454.726 285.526,454.897 285.234,455.095 284.723,454.946 284.244,454.789 283.868,454.666 283.481,454.553 283.131,454.351 282.195,453.814 281.589,453.264 280.993,452.629 280.363,451.958 279.744,451.193 279.145,450.374" />
	<path
		style="fill:none;stroke:#000000;stroke-width:4px;stroke-opacity:1;stroke-linecap:round"
		d="M 279.145,450.374 C 278.721,448.41 278.667,446.929 278.513,445.57 278.234,443.113 277.798,440.813 277.331,438.476 276.577,434.695 275.621,430.926 271.959,425.122" />
	<path
		style="fill:none;stroke:#000000;stroke-width:4px;stroke-opacity:1;stroke-linecap:round"
		d="M 276.515,426.423 C 276.231,426.291 275.937,426.166 275.63,426.041 275.347,425.925 275.054,425.81 274.745,425.709 274.284,425.56 273.79,425.446 273.276,425.348 272.849,425.266 272.408,425.194 271.959,425.122" />
	<path
		style="fill:none;stroke:#000000;stroke-width:4px;stroke-opacity:1;stroke-linecap:round"
		d="M 323.439,128.266 C 322.262,128.239 321.059,128.149 319.831,127.995 318.538,127.833 317.217,127.6 315.869,127.297 314.584,127.007 313.273,126.654 311.938,126.236 310.68,125.843 309.4,125.393 308.098,124.887" />
	</g>
	<g cacani:groupmode="layer" id="arm_L top">
	<path
		style="fill:none;stroke:#000000;stroke-width:4px;stroke-opacity:1;stroke-linecap:round"
		d="M 262.476,157.671 C 256.105,161.675 251.967,163.092 247.941,164.8 239.97,168.183 232.391,172.591 224.698,176.9" />
	<path
		style="fill:none;stroke:#000000;stroke-width:4px;stroke-opacity:1;stroke-linecap:round"
		d="M 263.113,188.674 C 265.035,186.539 266.916,184.315 268.197,181.749 269.298,179.543 269.955,177.084 270.34,174.58 270.865,171.159 270.881,167.652 270.223,164.313 269.952,162.936 269.566,161.588 268.943,160.256 268.469,159.241 267.857,158.236 267.025,157.725 265.82,156.986 264.153,157.281 262.476,157.671" />
	<path
		style="fill:none;stroke:#000000;stroke-width:4px;stroke-opacity:1;stroke-linecap:round"
		d="M 263.113,188.674 C 261.969,189.825 260.666,190.9 259.411,191.974 257.457,193.646 255.464,195.247 253.443,196.721 251.589,198.074 249.739,199.363 247.838,200.582 246.35,201.537 244.835,202.45 243.227,203.288" />
	<path
		style="fill:none;stroke:#000000;stroke-width:4px;stroke-opacity:1;stroke-linecap:round"
		d="M 243.227,203.288 C 241.654,202.313 240.077,201.349 238.586,200.186 236.883,198.857 235.293,197.267 233.834,195.587 231.819,193.268 230.054,190.778 228.57,188.103 227.418,186.025 226.435,183.835 225.765,181.535 225.325,180.022 225.019,178.462 224.698,176.9" />
	<path
		style="fill:none;stroke:#000000;stroke-width:4px;stroke-opacity:1;stroke-linecap:round"
		d="M 235.31,197.157 C 235.276,197.182 235.174,197.256 235.113,197.301 234.457,197.779 233.74,198.365 233.048,198.878 232.116,199.569 231.126,200.205 230.165,200.846 227.754,202.454 225.36,204.015 223.025,206 222.211,206.693 221.405,207.436 220.926,208.288 220.326,209.357 220.04,210.561 219.902,211.816 219.559,214.931 218.88,217.932 218.365,221 217.27,227.533 216.601,234.235 215.75,240.751 215.462,242.952 214.894,245.039 214.345,247.136" />
	<path
		style="fill:none;stroke:#000000;stroke-width:4px;stroke-opacity:1;stroke-linecap:round"
		d="M 226.113,181.806 C 224.771,182.56 223.436,183.326 222.099,184.099 220.412,185.074 218.723,186.061 217.121,187.123 214.289,189.001 211.734,191.115 209.124,193.196 207.731,194.307 206.321,195.409 205.405,196.907 204.889,197.751 204.528,198.72 204.204,199.692 202.504,204.78 201.771,209.959 201.401,215.158 200.939,221.648 201.041,228.171 201.104,234.632 201.135,237.789 201.156,240.931 201.225,244.096" />
	<path
		style="fill:none;stroke:#000000;stroke-width:4px;stroke-opacity:1;stroke-linecap:round"
		d="M 214.345,247.136 C 214.777,250.722 215.485,253.175 216.017,255.566 216.298,256.832 216.56,258.059 216.619,259.259 216.641,259.712 216.634,260.162 216.629,260.63" />
	<path
		style="fill:none;stroke:#000000;stroke-width:4px;stroke-opacity:1;stroke-linecap:round"
		d="M 216.629,260.63 C 216.279,262.708 216.09,263.811 215.787,264.491 215.546,265.035 215.232,265.309 214.901,265.496 214.404,265.777 213.87,265.865 213.32,266.072 212.721,266.297 212.103,266.664 211.612,266.776 211.442,266.815 211.288,266.824 211.147,266.822 210.851,266.819 210.617,266.77 210.279,266.788 209.612,266.823 208.903,267.189 208.056,267.463 207.17,267.75 206.245,268.035 206.041,267.832 205.989,267.78 205.971,267.678 206.003,267.542 206.064,267.28 206.313,266.891 206.476,266.63 206.716,266.245 206.949,265.864 207.189,265.504" />
	<path
		style="fill:none;stroke:#000000;stroke-width:4px;stroke-opacity:1;stroke-linecap:round"
		d="M 207.189,265.504 C 207.623,265.391 208.063,265.282 208.473,265.215 208.823,265.159 209.15,265.132 209.52,265.051 209.787,264.992 210.075,264.905 210.246,264.683 210.404,264.478 210.461,264.157 210.468,263.856 210.476,263.477 210.402,263.128 210.256,262.851 209.945,262.264 209.305,261.997 208.69,261.606 208.147,261.26 207.624,260.818 207.202,260.267 206.578,259.452 206.175,258.4 205.799,257.405" />
	<path
		style="fill:none;stroke:#000000;stroke-width:4px;stroke-opacity:1;stroke-linecap:round"
		d="M 212.596,259.049 C 212.276,259.837 211.93,260.625 211.566,261.404 210.9,262.827 210.17,264.218 209.341,265.579 208.54,266.894 207.647,268.181 206.842,269.526 206.218,270.569 205.647,271.647 205.069,272.726" />
	<path
		style="fill:none;stroke:#000000;stroke-width:4px;stroke-opacity:1;stroke-linecap:round"
		d="M 205.069,272.726 C 204.635,273.301 204.246,273.806 203.807,274.177 203.303,274.603 202.734,274.852 202.212,275.011 201.421,275.253 200.739,275.289 200.059,275.241 199.021,275.167 197.989,274.898 196.935,274.847 196.156,274.81 195.412,274.808 194.677,274.771 194.068,274.74 193.428,274.646 192.881,274.413 191.74,273.926 190.81,272.85 189.976,271.836 189.304,271.02 188.745,270.201 188.359,269.307 187.938,268.333 187.676,267.294 187.26,266.316 187.005,265.716 186.691,265.139 186.662,264.5 186.635,263.925 186.838,263.3 187.046,262.675" />
	<path
		style="fill:none;stroke:#000000;stroke-width:4px;stroke-opacity:1;stroke-linecap:round"
		d="M 187.046,262.675 C 188.334,260.192 189.601,257.75 191.123,255.451 192.559,253.28 194.223,251.237 196.034,249.333 197.077,248.236 198.169,247.185 199.263,246.103 199.931,245.443 200.599,244.771 201.225,244.096" />
	</g>
	<g display="none" cacani:groupmode="sketch_layer" id="Sketch 1">
	</g>
</g>
</svg>
