<?xml version="1.0" encoding="UTF-8" standalone="no"?>
<!-- Created with Cacani (http://www.cacani.org/) -->
<svg
	xmlns="http://www.w3.org/2000/svg"
	xmlns:cacani="http://www.cacani.org/namespaces/cacani"
	version="1.1"
	width="480"
	height="490">
<g cacani:groupmode="cel" id="Run">
	<g display="none" cacani:groupmode="layer" id="Ref 1">
	</g>
	<g display="none" cacani:groupmode="sketch_layer" id="Sketch 2">
	</g>
	<g cacani:groupmode="layer" id="leg_R">
	<path
		style="fill:none;stroke:#000000;stroke-width:4px;stroke-opacity:1;stroke-linecap:round"
		d="M 333.075,415.762 C 337.43,415.537 341.785,415.312 346.062,415.832 350.424,416.362 354.704,417.667 358.914,419.039 360.621,419.595 362.317,420.162 364.013,420.729" />
	<path
		style="fill:none;stroke:#000000;stroke-width:4px;stroke-opacity:1;stroke-linecap:round"
		d="M 199.929,236.05 C 200.121,237.069 200.694,240.124 201.201,242.165 202.993,249.367 204.784,256.57 207.905,263.169 211.3,270.348 216.268,276.812 221.579,282.876 227.584,289.734 234.027,296.081 239.601,303.149 244.459,309.308 248.656,316.014 252.853,322.721" />
	<path
		style="fill:none;stroke:#000000;stroke-width:4px;stroke-opacity:1;stroke-linecap:round"
		d="M 252.853,322.721 C 251.9,325.362 250.946,328.002 251.834,329.245 252.773,330.558 255.769,330.309 258.766,330.06" />
	<path
		style="fill:none;stroke:#000000;stroke-width:4px;stroke-opacity:1;stroke-linecap:round"
		d="M 258.766,330.06 C 261.581,329.605 264.396,329.149 267.125,328.429 274.828,326.398 281.84,322.265 288.851,318.132" />
	<path
		style="fill:none;stroke:#000000;stroke-width:4px;stroke-opacity:1;stroke-linecap:round"
		d="M 288.851,318.132 C 289.648,317.554 290.445,316.976 290.6,316.278 290.838,315.198 289.536,313.83 288.252,313.109 287.074,312.447 285.912,312.329 284.749,312.211" />
	<path
		style="fill:none;stroke:#000000;stroke-width:4px;stroke-opacity:1;stroke-linecap:round"
		d="M 284.749,312.211 C 281.45,305.771 278.151,299.33 274.987,292.825 268.7,279.895 262.948,266.709 257.196,253.523 256.526,251.987 255.522,249.685 255.187,248.917" />
	<path
		style="fill:none;stroke:#000000;stroke-width:4px;stroke-opacity:1;stroke-linecap:round"
		d="M 220.779,281.927 C 217.394,286.901 214.016,291.88 210.724,296.914 204.061,307.103 197.751,317.52 191.44,327.937" />
	<path
		style="fill:none;stroke:#000000;stroke-width:4px;stroke-opacity:1;stroke-linecap:round"
		d="M 191.44,327.937 C 191.775,330.714 192.11,333.49 190.757,334.194 189.873,334.654 188.267,334.228 186.661,333.802" />
	<path
		style="fill:none;stroke:#000000;stroke-width:4px;stroke-opacity:1;stroke-linecap:round"
		d="M 186.661,333.802 C 181.647,331.861 176.632,329.921 172.001,327.298 167.672,324.846 163.679,321.798 159.685,318.75" />
	<path
		style="fill:none;stroke:#000000;stroke-width:4px;stroke-opacity:1;stroke-linecap:round"
		d="M 159.685,318.75 C 157.94,317.6 156.196,316.45 156.283,314.907 156.332,314.041 156.959,313.051 157.732,312.418 158.857,311.497 160.293,311.331 161.728,311.166" />
	<path
		style="fill:none;stroke:#000000;stroke-width:4px;stroke-opacity:1;stroke-linecap:round"
		d="M 161.728,311.166 C 167.164,301.561 172.6,291.956 177.42,282.04 180.397,275.914 183.139,269.668 186.177,263.572 188.728,258.452 191.488,253.437 194.249,248.422 196.246,244.792 199.241,239.352 200.239,237.538" />
	<path
		style="fill:none;stroke:#000000;stroke-width:4px;stroke-opacity:1;stroke-linecap:round"
		d="M 285.945,319.824 C 287.352,321.735 288.759,323.647 289.686,325.763 290.734,328.155 291.17,330.808 291.606,333.462" />
	<path
		style="fill:none;stroke:#000000;stroke-width:4px;stroke-opacity:1;stroke-linecap:round"
		d="M 291.606,333.462 C 292.625,335.959 293.645,338.456 294.665,340.954 295.455,342.889 296.245,344.824 297.035,346.759" />
	<path
		style="fill:none;stroke:#000000;stroke-width:4px;stroke-opacity:1;stroke-linecap:round"
		d="M 297.035,346.759 C 298.378,351.118 305.764,369.99 308.185,375.041" />
	<path
		style="fill:none;stroke:#000000;stroke-width:4px;stroke-opacity:1;stroke-linecap:round"
		d="M 308.185,375.041 C 315.316,389.366 321.67,401.005 327.199,409.793" />
	<path
		style="fill:none;stroke:#000000;stroke-width:4px;stroke-opacity:1;stroke-linecap:round"
		d="M 261.31,329.628 C 263.454,332.14 265.598,334.652 267.264,337.465 268.158,338.975 268.915,340.572 269.672,342.169" />
	<path
		style="fill:none;stroke:#000000;stroke-width:4px;stroke-opacity:1;stroke-linecap:round"
		d="M 269.672,342.169 C 270.395,345.594 271.118,349.02 272.188,352.309 276.565,365.765 286.741,376.927 295.916,388.336 303.828,398.175 310.996,408.198 318.064,418.246" />
	<path
		style="fill:none;stroke:#000000;stroke-width:4px;stroke-opacity:1;stroke-linecap:round"
		d="M 186.831,333.841 C 185.864,334.579 182.963,336.795 182.208,337.371 182.091,337.46 181.74,337.729 181.49,337.919 179.638,339.334 177.786,340.749 175.733,341.362 172.957,342.19 169.815,341.553 166.674,340.916 163.14,340.2 158.293,339.216 156.677,338.889" />
	<path
		style="fill:none;stroke:#000000;stroke-width:4px;stroke-opacity:1;stroke-linecap:round"
		d="M 156.677,338.889 C 130.071,334.748 103.465,330.608 76.859,326.467 76.8211,326.462 76.7642,326.453 76.7453,326.45" />
	<path
		style="fill:none;stroke:#000000;stroke-width:4px;stroke-opacity:1;stroke-linecap:round"
		d="M 158.638,318.039 C 158.414,318.103 158.177,318.131 157.94,318.16" />
	<path
		style="fill:none;stroke:#000000;stroke-width:4px;stroke-opacity:1;stroke-linecap:round"
		d="M 157.94,318.16 C 150.422,316.717 142.904,315.274 135.331,314.697 123.466,313.793 111.465,315.013 99.5052,315.417 92.6861,315.647 85.8806,315.612 79.075,315.577" />
	<path
		style="fill:none;stroke:#000000;stroke-width:4px;stroke-opacity:1;stroke-linecap:round"
		d="M 312.256,425.585 C 314.14,423.046 316.024,420.507 318.134,418.162 319.774,416.339 321.551,414.633 323.41,413.026 324.822,411.805 326.282,410.642 327.667,409.393 328.156,408.953 328.635,408.503 329.113,408.052" />
	<path
		style="fill:none;stroke:#000000;stroke-width:4px;stroke-opacity:1;stroke-linecap:round"
		d="M 312.256,425.585 C 313.69,426.243 315.124,426.901 316.524,427.624 317.653,428.207 318.76,428.833 319.867,429.459" />
	<path
		style="fill:none;stroke:#000000;stroke-width:4px;stroke-opacity:1;stroke-linecap:round"
		d="M 319.867,429.459 C 319.835,432.082 319.803,434.705 320.051,437.293 320.498,441.95 321.852,446.493 323.207,451.036" />
	<path
		style="fill:none;stroke:#000000;stroke-width:4px;stroke-opacity:1;stroke-linecap:round"
		d="M 323.207,451.036 C 323.549,452.231 323.891,453.426 324.749,454.01 325.433,454.476 326.444,454.554 327.375,454.49 328.336,454.424 329.21,454.207 330.085,453.99" />
	<path
		style="fill:none;stroke:#000000;stroke-width:4px;stroke-opacity:1;stroke-linecap:round"
		d="M 330.085,453.99 C 344.732,449.705 356.664,445.311 365.882,440.806" />
	<path
		style="fill:none;stroke:#000000;stroke-width:4px;stroke-opacity:1;stroke-linecap:round"
		d="M 365.882,440.806 C 369.831,439.436 373.779,438.066 377.53,436.285 381.674,434.317 385.577,431.847 389.48,429.377" />
	<path
		style="fill:none;stroke:#000000;stroke-width:4px;stroke-opacity:1;stroke-linecap:round"
		d="M 389.48,429.377 C 387.358,425.795 385.237,422.212 382.214,420.138 378,417.245 372.035,417.284 366.07,417.323" />
	<path
		style="fill:none;stroke:#000000;stroke-width:4px;stroke-opacity:1;stroke-linecap:round"
		d="M 366.07,417.323 C 360.925,415.544 355.781,413.765 350.48,412.948 345.907,412.243 341.217,412.253 336.528,412.263" />
	<path
		style="fill:none;stroke:#000000;stroke-width:4px;stroke-opacity:1;stroke-linecap:round"
		d="M 333.075,415.762 C 331.727,413.449 330.38,411.135 329.113,408.052 326.872,402.597 324.885,394.733 329.296,392.713 329.751,392.504 330.274,392.358 330.797,392.211" />
	<path
		style="fill:none;stroke:#000000;stroke-width:4px;stroke-opacity:1;stroke-linecap:round"
		d="M 330.797,392.211 C 331.505,392.185 332.212,392.159 332.833,392.381 333.596,392.655 334.229,393.304 334.767,393.984 338.703,398.959 337.615,405.611 336.528,412.263" />
	<path
		style="fill:none;stroke:#000000;stroke-width:4px;stroke-opacity:1;stroke-linecap:round"
		d="M 364.013,420.729 C 365.53,420.743 367.046,420.757 368.533,420.558 369.625,420.411 370.7,420.15 371.62,419.336 371.955,419.04 372.269,418.671 372.363,418.384 372.669,417.446 370.611,417.389 368.554,417.332" />
	<path
		style="fill:none;stroke:#000000;stroke-width:4px;stroke-opacity:1;stroke-linecap:round"
		d="M 333.075,415.762 C 333.63,415.112 334.185,414.462 334.786,413.857 335.341,413.3 335.934,412.782 336.528,412.263" />
	<path
		style="fill:none;stroke:#000000;stroke-width:4px;stroke-opacity:1;stroke-linecap:round"
		d="M 68.3962,326.735 C 65.0705,329.229 61.7448,331.722 58.0851,333.585 54.3523,335.484 50.2721,336.727 46.2122,337.88 44.566,338.348 42.9231,338.801 41.2802,339.254" />
	<path
		style="fill:none;stroke:#000000;stroke-width:4px;stroke-opacity:1;stroke-linecap:round"
		d="M 79.6441,307.896 C 79.5037,310.906 79.3632,313.916 78.9409,316.893 78.6125,319.208 78.1136,321.502 77.4973,323.761 77.0288,325.478 76.4924,327.174 76.0603,328.899 75.9081,329.506 75.7688,330.117 75.6295,330.729" />
	<path
		style="fill:none;stroke:#000000;stroke-width:4px;stroke-opacity:1;stroke-linecap:round"
		d="M 79.6441,307.896 C 78.1601,308.137 76.676,308.379 75.1837,308.551 73.9808,308.69 72.7724,308.784 71.5641,308.877" />
	<path
		style="fill:none;stroke:#000000;stroke-width:4px;stroke-opacity:1;stroke-linecap:round"
		d="M 71.5641,308.877 C 70.1948,306.785 68.8255,304.692 67.2531,302.777 64.4239,299.33 60.937,296.457 57.4502,293.583" />
	<path
		style="fill:none;stroke:#000000;stroke-width:4px;stroke-opacity:1;stroke-linecap:round"
		d="M 57.4502,293.583 C 56.5443,292.819 55.6384,292.055 54.6487,292.049 53.8601,292.044 53.0182,292.52 52.3159,293.066 51.5909,293.629 51.0146,294.266 50.4383,294.903" />
	<path
		style="fill:none;stroke:#000000;stroke-width:4px;stroke-opacity:1;stroke-linecap:round"
		d="M 50.4383,294.903 C 41.1289,306.079 34.0252,315.9 29.1273,324.364" />
	<path
		style="fill:none;stroke:#000000;stroke-width:4px;stroke-opacity:1;stroke-linecap:round"
		d="M 29.1273,324.364 C 26.7318,327.547 24.3364,330.73 22.3158,334.133 20.0837,337.893 18.3091,341.922 16.5346,345.951" />
	<path
		style="fill:none;stroke:#000000;stroke-width:4px;stroke-opacity:1;stroke-linecap:round"
		d="M 16.5346,345.951 C 20.1176,347.658 23.7006,349.364 27.1946,349.398 32.0663,349.446 36.7649,346.244 41.4635,343.042" />
	<path
		style="fill:none;stroke:#000000;stroke-width:4px;stroke-opacity:1;stroke-linecap:round"
		d="M 41.4635,343.042 C 46.4792,341.714 51.4948,340.386 56.1231,338.215 60.1158,336.342 63.8203,333.84 67.5247,331.339" />
	<path
		style="fill:none;stroke:#000000;stroke-width:4px;stroke-opacity:1;stroke-linecap:round"
		d="M 68.3962,326.735 C 70.6924,327.849 72.9887,328.963 75.6295,330.729 80.3029,333.853 86.0555,339.018 83.6405,342.961 83.3913,343.368 83.0551,343.762 82.719,344.156" />
	<path
		style="fill:none;stroke:#000000;stroke-width:4px;stroke-opacity:1;stroke-linecap:round"
		d="M 82.719,344.156 C 82.1732,344.553 81.6275,344.949 81.0182,345.104 80.2689,345.293 79.4235,345.116 78.6358,344.864 72.8775,343.021 70.2011,337.18 67.5247,331.339" />
	<path
		style="fill:none;stroke:#000000;stroke-width:4px;stroke-opacity:1;stroke-linecap:round"
		d="M 41.2802,339.254 C 40.0726,340.049 38.8651,340.844 37.7947,341.793 37.0093,342.489 36.2978,343.267 36.0023,344.4 35.8949,344.812 35.8424,345.271 35.9208,345.548 36.1773,346.453 37.8353,345.404 39.4932,344.355" />
	<path
		style="fill:none;stroke:#000000;stroke-width:4px;stroke-opacity:1;stroke-linecap:round"
		d="M 68.3962,326.735 C 68.3029,327.544 68.2096,328.354 68.0553,329.152 67.913,329.888 67.7189,330.613 67.5247,331.339" />
	</g>
	<g cacani:groupmode="layer" id="arm_R">
	<path
		style="fill:none;stroke:#000000;stroke-width:4px;stroke-opacity:1;stroke-linecap:round"
		d="M 289.603,151.751 C 293.507,154.1 305.879,163.802 308.251,166.189" />
	<path
		style="fill:none;stroke:#000000;stroke-width:4px;stroke-opacity:1;stroke-linecap:round"
		d="M 308.251,166.189 C 312.655,168.075 317.059,169.961 321.462,171.847" />
	<path
		style="fill:none;stroke:#000000;stroke-width:4px;stroke-opacity:1;stroke-linecap:round"
		d="M 321.462,171.847 C 313.636,182.855 306.673,190.456 300.574,194.648" />
	<path
		style="fill:none;stroke:#000000;stroke-width:4px;stroke-opacity:1;stroke-linecap:round"
		d="M 300.574,194.648 C 294.907,191.24 289.24,187.832 283.898,183.965 280.43,181.455 277.1,178.751 273.77,176.047" />
	<path
		style="fill:none;stroke:#000000;stroke-width:4px;stroke-opacity:1;stroke-linecap:round"
		d="M 317.315,177.092 C 323.299,181.458 329.283,185.825 335.267,190.192" />
	<path
		style="fill:none;stroke:#000000;stroke-width:4px;stroke-opacity:1;stroke-linecap:round"
		d="M 335.267,190.192 C 338.094,188.475 340.921,186.757 343.767,185.072 351.695,180.379 359.77,175.938 367.846,171.498" />
	<path
		style="fill:none;stroke:#000000;stroke-width:4px;stroke-opacity:1;stroke-linecap:round"
		d="M 367.846,171.498 C 367.326,169.941 366.806,168.383 366.999,166.893 367.148,165.738 367.724,164.623 368.301,163.508" />
	<path
		style="fill:none;stroke:#000000;stroke-width:4px;stroke-opacity:1;stroke-linecap:round"
		d="M 368.301,163.508 C 368.789,162.224 369.277,160.941 369.994,159.798 370.625,158.79 371.434,157.892 372.243,156.994" />
	<path
		style="fill:none;stroke:#000000;stroke-width:4px;stroke-opacity:1;stroke-linecap:round"
		d="M 372.243,156.994 C 375.021,154.935 378.048,154.437 381.325,155.501" />
	<path
		style="fill:none;stroke:#000000;stroke-width:4px;stroke-opacity:1;stroke-linecap:round"
		d="M 381.325,155.501 C 382.232,156.01 383.139,156.52 383.922,157.39 385.095,158.691 385.992,160.8 385.712,161.85 385.243,163.612 381.458,162.388 377.674,161.165" />
	<path
		style="fill:none;stroke:#000000;stroke-width:4px;stroke-opacity:1;stroke-linecap:round"
		d="M 374.454,155.713 C 376.408,153.569 378.363,151.426 381.188,150.36 382.011,150.05 382.907,149.831 383.662,149.969 385.161,150.244 386.104,151.929 387.046,153.614" />
	<path
		style="fill:none;stroke:#000000;stroke-width:4px;stroke-opacity:1;stroke-linecap:round"
		d="M 387.046,153.614 C 389.025,155.535 391.003,157.456 392.384,159.993 394.014,162.988 394.812,166.841 393.425,169.757 393.053,170.539 392.523,171.254 391.993,171.97" />
	<path
		style="fill:none;stroke:#000000;stroke-width:4px;stroke-opacity:1;stroke-linecap:round"
		d="M 391.993,171.97 C 391.077,173.003 390.161,174.036 389.129,174.964 386.563,177.272 383.279,178.932 379.887,179.52 378.553,179.751 377.203,179.816 375.853,179.882" />
	<path
		style="fill:none;stroke:#000000;stroke-width:4px;stroke-opacity:1;stroke-linecap:round"
		d="M 375.853,179.882 C 367.212,186.717 358.572,193.552 349.785,200.195 344.958,203.844 340.086,207.436 335.215,211.028" />
	<path
		style="fill:none;stroke:#000000;stroke-width:4px;stroke-opacity:1;stroke-linecap:round"
		d="M 335.215,211.028 C 325.292,204.315 315.369,197.603 305.446,190.89 305.415,190.869 305.367,190.836 305.352,190.826" />
	</g>
	<g cacani:groupmode="layer" id="body">
	<path
		style="fill:none;stroke:#000000;stroke-width:4px;stroke-opacity:1;stroke-linecap:round"
		d="M 338.574,41.2141 C 334.375,37.8952 329.36,35.6527 324.356,33.7542 317.994,31.3405 311.232,29.5006 304.43,29.3251 297.943,29.1577 291.011,30.0195 285.353,33.1959" />
	<path
		style="fill:none;stroke:#000000;stroke-width:4px;stroke-opacity:1;stroke-linecap:round"
		d="M 285.353,33.1959 C 285.823,31.9317 286.294,30.6676 286.172,29.6205 285.908,27.3428 282.845,26.0926 279.782,24.8424" />
	<path
		style="fill:none;stroke:#000000;stroke-width:4px;stroke-opacity:1;stroke-linecap:round"
		d="M 279.782,24.8424 C 280.475,26.5775 281.168,28.3126 281.043,30.0358 280.964,31.1266 280.557,32.2125 280.149,33.2985" />
	<path
		style="fill:none;stroke:#000000;stroke-width:4px;stroke-opacity:1;stroke-linecap:round"
		d="M 280.149,33.2985 C 276.83,33.5337 273.51,33.7688 270.207,33.5819 268.221,33.4695 266.241,33.2046 264.262,32.9397" />
	<path
		style="fill:none;stroke:#000000;stroke-width:4px;stroke-opacity:1;stroke-linecap:round"
		d="M 272.137,37.7278 C 270.075,37.4525 268.013,37.1772 266.574,36.0165 265.622,35.249 264.942,34.0943 264.262,32.9397" />
	<path
		style="fill:none;stroke:#000000;stroke-width:4px;stroke-opacity:1;stroke-linecap:round"
		d="M 272.137,37.7278 C 270.618,38.1807 269.099,38.6336 267.762,39.3474 263.379,41.6882 260.955,46.8344 257.548,50.736 255.409,53.1855 252.883,55.1444 250.357,57.1034" />
	<path
		style="fill:none;stroke:#000000;stroke-width:4px;stroke-opacity:1;stroke-linecap:round"
		d="M 250.357,57.1034 C 251.718,57.1403 253.079,57.1773 254.352,56.9034 256.615,56.4165 258.6,54.9472 260.584,53.4779" />
	<path
		style="fill:none;stroke:#000000;stroke-width:4px;stroke-opacity:1;stroke-linecap:round"
		d="M 260.584,53.4779 C 258.671,56.1281 256.759,58.7783 255.429,61.6961 254.184,64.4273 253.451,67.3929 252.784,70.3831 251.983,73.9742 251.278,77.6007 251.52,81.2152 251.98,88.098 255.871,94.9375 255.091,101.672 254.865,103.622 254.248,105.562 253.63,107.503" />
	<path
		style="fill:none;stroke:#000000;stroke-width:4px;stroke-opacity:1;stroke-linecap:round"
		d="M 253.63,107.503 C 255.4,106.578 257.169,105.652 258.225,104.269 259.806,102.197 259.785,99.0961 259.765,95.9954" />
	<path
		style="fill:none;stroke:#000000;stroke-width:4px;stroke-opacity:1;stroke-linecap:round"
		d="M 259.765,95.9954 C 262.468,104.734 263.648,106.615 264.813,108.486 266.243,110.783 267.751,113.075 269.641,115.01 271.622,117.037 273.937,118.734 276.316,120.274 278.761,121.856 281.255,123.529 284.055,124.329" />
	<path
		style="fill:none;stroke:#000000;stroke-width:4px;stroke-opacity:1;stroke-linecap:round"
		d="M 338.574,41.2141 C 340.586,42.4754 342.599,43.7366 344.425,45.2913 345.798,46.4604 347.066,47.7955 348.77,48.4352 350.163,48.9588 351.848,49.0167 353.158,48.4352 354.473,47.8517 355.409,46.6241 356.346,45.3965" />
	<path
		style="fill:none;stroke:#000000;stroke-width:4px;stroke-opacity:1;stroke-linecap:round"
		d="M 356.346,45.3965 C 356.247,47.4672 356.149,49.5379 355.451,51.3434 354.457,53.9159 352.247,55.9503 350.037,57.9847" />
	<path
		style="fill:none;stroke:#000000;stroke-width:4px;stroke-opacity:1;stroke-linecap:round"
		d="M 350.037,57.9847 C 352.016,60.4489 353.995,62.913 354.791,65.6144 356.748,72.2494 351.574,80.3153 352.256,87.5484 352.528,90.4287 353.728,93.177 354.928,95.9253" />
	<path
		style="fill:none;stroke:#000000;stroke-width:4px;stroke-opacity:1;stroke-linecap:round"
		d="M 354.928,95.9253 C 353.068,95.3816 351.207,94.838 350.059,93.6658 348.601,92.1767 348.294,89.6733 347.987,87.1698" />
	<path
		style="fill:none;stroke:#000000;stroke-width:4px;stroke-opacity:1;stroke-linecap:round"
		d="M 347.987,87.1698 C 343.451,93.8571 341.906,95.7306 340.043,97.2152 338.474,98.4656 336.715,99.46 334.995,100.493" />
	<path
		style="fill:none;stroke:#000000;stroke-width:4px;stroke-opacity:1;stroke-linecap:round"
		d="M 337.271,77.6051 C 337.971,80.6021 337.867,83.7575 337.674,86.8291 337.261,93.3997 335.312,99.8251 333.257,106.079" />
	<path
		style="fill:none;stroke:#000000;stroke-width:4px;stroke-opacity:1;stroke-linecap:round"
		d="M 333.257,106.079 C 334.559,109.224 335.417,109.809 336.056,110.582 336.625,111.269 337.065,112.17 337.063,113.062 337.061,113.96 335.96,114.596 335.131,114.941 334.038,115.395 332.923,115.811 331.777,116.107" />
	<path
		style="fill:none;stroke:#000000;stroke-width:4px;stroke-opacity:1;stroke-linecap:round"
		d="M 331.777,116.107 C 331.602,118.907 332.421,120.084 332.214,121.303 331.999,122.571 330.715,123.598 329.515,124.06" />
	<path
		style="fill:none;stroke:#000000;stroke-width:4px;stroke-opacity:1;stroke-linecap:round"
		d="M 329.515,124.06 C 325.892,123.957 322.269,123.855 318.762,123.142 316.042,122.589 313.392,121.67 310.742,120.75" />
	<path
		style="fill:none;stroke:#000000;stroke-width:4px;stroke-opacity:1;stroke-linecap:round"
		d="M 325.659,123.896 C 326.382,125.383 327.105,126.869 326.469,127.977 326.188,128.465 325.644,128.88 325.081,129.175 324.412,129.525 323.717,129.707 323.022,129.889" />
	<path
		style="fill:none;stroke:#000000;stroke-width:4px;stroke-opacity:1;stroke-linecap:round"
		d="M 323.022,129.889 C 322.875,130.825 322.727,131.762 322.612,132.792 322.406,134.649 322.306,136.81 321.201,137.884 320.201,138.856 318.377,138.938 316.554,139.019" />
	<path
		style="fill:none;stroke:#000000;stroke-width:4px;stroke-opacity:1;stroke-linecap:round"
		d="M 316.554,139.019 C 314.737,138.949 312.92,138.88 311.136,138.615 308.278,138.192 305.504,137.268 302.731,136.345" />
	<path
		style="fill:none;stroke:#000000;stroke-width:4px;stroke-opacity:1;stroke-linecap:round"
		d="M 302.731,136.345 C 301.794,138.449 300.857,140.553 299.843,142.62 298.601,145.154 297.244,147.631 295.887,150.108" />
	<path
		style="fill:none;stroke:#000000;stroke-width:4px;stroke-opacity:1;stroke-linecap:round"
		d="M 337.271,77.6051 C 336.321,76.03 335.371,74.4549 334.223,73.0332 332.805,71.2763 331.083,69.7537 329.259,68.401 324.722,65.0366 319.553,62.7226 314.383,60.4087" />
	<path
		style="fill:none;stroke:#000000;stroke-width:4px;stroke-opacity:1;stroke-linecap:round"
		d="M 314.383,60.4087 C 317.457,64.9892 319.893,70.0064 321.963,75.1194" />
	<path
		style="fill:none;stroke:#000000;stroke-width:4px;stroke-opacity:1;stroke-linecap:round"
		d="M 321.963,75.1194 C 308.182,68.4548 304.454,66.8051 300.509,66.1611" />
	<path
		style="fill:none;stroke:#000000;stroke-width:4px;stroke-opacity:1;stroke-linecap:round"
		d="M 304.815,67.3564 C 304.614,67.491 304.012,67.895 304.012,67.895 303.103,68.5054 302.415,69.4116 301.769,70.2963 300.209,72.4334 299.308,75.0006 298.418,77.4923" />
	<path
		style="fill:none;stroke:#000000;stroke-width:4px;stroke-opacity:1;stroke-linecap:round"
		d="M 298.418,77.4923 C 297.402,80.8555 297.064,82.2885 296.845,83.7373 296.167,88.2458 296.37,92.8468 296.346,97.4059" />
	<path
		style="fill:none;stroke:#000000;stroke-width:4px;stroke-opacity:1;stroke-linecap:round"
		d="M 296.346,97.4059 C 294.896,94.4732 293.446,91.5405 290.887,88.9629 289.953,88.022 288.871,87.1283 287.77,87.0254 286.241,86.8825 284.673,88.2645 283.468,89.7582 279.878,94.2044 279.489,99.6397 281.6,104.815 282.587,107.234 284.12,109.596 286.284,110.139 287.309,110.396 288.475,110.246 289.642,110.096" />
	<path
		style="fill:none;stroke:#000000;stroke-width:4px;stroke-opacity:1;stroke-linecap:round"
		d="M 328.715,86.7529 C 328.343,85.5908 327.336,84.7051 326.412,83.9082 324.944,82.6423 323.03,81.5332 321.092,81.562 318.79,81.5961 316.669,83.6327 315.501,85.6162" />
	<path
		style="fill:none;stroke:#000000;stroke-width:4px;stroke-opacity:1;stroke-linecap:round"
		d="M 323.623,97.9577 C 323.631,97.2386 323.64,96.5195 323.494,95.6299 323.294,94.406 322.802,92.8594 322.022,92.7803 321.352,92.7123 320.47,93.7269 320.004,94.655 319.642,95.3749 319.531,96.0428 319.42,96.7107" />
	<path
		style="fill:none;stroke:#000000;stroke-width:4px;stroke-opacity:1;stroke-linecap:round"
		d="M 323.623,97.9577 C 323.459,99.4858 323.295,101.014 322.113,102.339 321.638,102.87 320.999,103.369 320.506,103.275 319.956,103.17 319.586,102.326 319.365,101.541 318.849,99.7155 319.134,98.2131 319.42,96.7107" />
	<path
		style="fill:none;stroke:#000000;stroke-width:4px;stroke-opacity:1;stroke-linecap:round"
		d="M 286.721,110.207 C 286.782,110.564 286.966,111.638 286.966,111.638 287.165,112.795 287.375,113.967 287.807,115.059 288.64,117.165 289.876,119.088 290.961,121.076" />
	<path
		style="fill:none;stroke:#000000;stroke-width:4px;stroke-opacity:1;stroke-linecap:round"
		d="M 290.961,121.076 C 290.92,121.037 290.796,120.919 290.796,120.919 289.012,120.376 287.695,118.845 286.197,117.735" />
	<path
		style="fill:none;stroke:#000000;stroke-width:4px;stroke-opacity:1;stroke-linecap:round"
		d="M 286.197,117.735 C 284.1,122.829 284.216,123.599 284.055,124.329" />
	<path
		style="fill:none;stroke:#000000;stroke-width:4px;stroke-opacity:1;stroke-linecap:round"
		d="M 284.055,124.329 C 283.399,126.282 282.742,128.236 281.818,130.053 280.885,131.89 279.679,133.589 278.473,135.287" />
	<path
		style="fill:none;stroke:#000000;stroke-width:4px;stroke-opacity:1;stroke-linecap:round"
		d="M 295.887,150.108 C 296.176,151.637 296.464,153.166 296.594,154.712 296.803,157.192 296.604,159.716 295.994,162.161 295.814,162.884 295.598,163.6 295.227,164.234 295.117,164.42 294.994,164.6 294.871,164.78" />
	<path
		style="fill:none;stroke:#000000;stroke-width:4px;stroke-opacity:1;stroke-linecap:round"
		d="M 294.871,164.78 C 294.539,164.93 294.206,165.08 293.857,165.159 293.391,165.265 292.895,165.245 292.412,165.179 290.116,164.869 288.092,163.55 286.333,161.999 283.806,159.773 281.826,157.069 280.383,154.147 277.768,148.853 276.913,142.843 276.057,136.833" />
	<path
		style="fill:none;stroke:#000000;stroke-width:4px;stroke-opacity:1;stroke-linecap:round"
		d="M 294.871,164.78 C 286.377,179.413 277.882,194.047 270.126,209.074 267.701,213.773 265.348,218.51 262.995,223.248" />
	<path
		style="fill:none;stroke:#000000;stroke-width:4px;stroke-opacity:1;stroke-linecap:round"
		d="M 262.995,223.248 C 261.794,226.026 260.592,228.805 259.612,231.66 258.82,233.966 258.172,236.322 257.524,238.679" />
	<path
		style="fill:none;stroke:#000000;stroke-width:4px;stroke-opacity:1;stroke-linecap:round"
		d="M 257.524,238.679 C 259.153,241.632 260.783,244.585 260.135,246.389 259.309,248.689 254.779,249.12 250.249,249.552" />
	<path
		style="fill:none;stroke:#000000;stroke-width:4px;stroke-opacity:1;stroke-linecap:round"
		d="M 250.249,249.552 C 245.754,249.894 241.259,250.236 236.804,249.948 227.55,249.349 218.472,246.03 210.01,242.013 207.323,240.737 204.699,239.391 202.074,238.045" />
	<path
		style="fill:none;stroke:#000000;stroke-width:4px;stroke-opacity:1;stroke-linecap:round"
		d="M 202.074,238.045 C 199.676,235.939 197.278,233.834 197.709,231.696 198.023,230.138 199.838,228.564 201.677,227.727 204.032,226.656 206.426,226.795 208.82,226.934" />
	<path
		style="fill:none;stroke:#000000;stroke-width:4px;stroke-opacity:1;stroke-linecap:round"
		d="M 208.82,226.934 C 210.764,224.532 212.709,222.13 214.584,219.677 221.554,210.555 227.552,200.728 233.55,190.901" />
	<path
		style="fill:none;stroke:#000000;stroke-width:4px;stroke-opacity:1;stroke-linecap:round"
		d="M 278.473,135.287 C 276.718,136.366 274.964,137.445 273.281,138.61 259.823,147.923 250.898,162.734 242.215,176.864 239.308,181.594 236.429,186.247 233.55,190.901" />
	<path
		style="fill:none;stroke:#000000;stroke-width:4px;stroke-opacity:1;stroke-linecap:round"
		d="M 295.887,150.108 C 295.865,152.308 295.843,154.508 294.991,156.904 294.51,158.257 293.765,159.672 292.787,160.086 291.259,160.732 289.163,158.935 287.463,157.219 284.217,153.944 282.411,150.969 281.173,147.54 279.826,143.813 279.15,139.55 278.473,135.287" />
	<path
		style="fill:none;stroke:#000000;stroke-width:4px;stroke-opacity:1;stroke-linecap:round"
		d="M 325.659,123.896 C 324.515,123.881 323.347,123.805 322.154,123.667 320.897,123.521 319.614,123.306 318.302,123.024 317.053,122.754 315.778,122.422 314.478,122.028 313.255,121.657 312.009,121.231 310.742,120.75" />
	</g>
	<g cacani:groupmode="layer" id="arm_L top">
	<path
		style="fill:none;stroke:#000000;stroke-width:4px;stroke-opacity:1;stroke-linecap:round"
		d="M 277.761,151.738 C 276.628,147.844 271.079,145.149 261.114,143.653" />
	<path
		style="fill:none;stroke:#000000;stroke-width:4px;stroke-opacity:1;stroke-linecap:round"
		d="M 261.114,143.653 C 256.365,143.819 251.617,143.986 246.869,144.166 239.02,144.462 231.172,144.795 223.324,145.127" />
	<path
		style="fill:none;stroke:#000000;stroke-width:4px;stroke-opacity:1;stroke-linecap:round"
		d="M 223.324,145.127 C 224.046,155.708 224.767,166.289 225.488,176.87" />
	<path
		style="fill:none;stroke:#000000;stroke-width:4px;stroke-opacity:1;stroke-linecap:round"
		d="M 225.488,176.87 C 235.248,175.686 245.007,174.502 254.766,173.318" />
	<path
		style="fill:none;stroke:#000000;stroke-width:4px;stroke-opacity:1;stroke-linecap:round"
		d="M 254.766,173.318 C 263.654,170.596 272.543,167.873 275.744,161.028 276.996,158.352 277.378,155.045 277.761,151.738" />
	<path
		style="fill:none;stroke:#000000;stroke-width:4px;stroke-opacity:1;stroke-linecap:round"
		d="M 223.598,149.141 C 210.682,150.951 198.421,153.47 186.805,156.687" />
	<path
		style="fill:none;stroke:#000000;stroke-width:4px;stroke-opacity:1;stroke-linecap:round"
		d="M 186.805,156.687 C 182.175,159.778 177.546,162.868 173.389,166.502 168.341,170.915 163.99,176.13 159.161,180.819 155.769,184.112 152.142,187.145 148.515,190.179" />
	<path
		style="fill:none;stroke:#000000;stroke-width:4px;stroke-opacity:1;stroke-linecap:round"
		d="M 148.515,190.179 C 145.72,189.154 142.926,188.129 140.198,188.42 138.423,188.609 136.676,189.356 134.93,190.103" />
	<path
		style="fill:none;stroke:#000000;stroke-width:4px;stroke-opacity:1;stroke-linecap:round"
		d="M 134.93,190.103 C 131.6,191.856 128.27,193.608 124.94,195.36" />
	<path
		style="fill:none;stroke:#000000;stroke-width:4px;stroke-opacity:1;stroke-linecap:round"
		d="M 124.94,195.36 C 123.96,196.057 122.979,196.754 122.557,197.697 121.997,198.943 122.412,200.619 122.995,202.086 123.821,204.161 124.983,205.817 126.145,207.473" />
	<path
		style="fill:none;stroke:#000000;stroke-width:4px;stroke-opacity:1;stroke-linecap:round"
		d="M 126.145,207.473 C 126.945,208.627 127.745,209.781 128.848,210.573 130.267,211.59 132.187,212.008 133.969,211.889 136.324,211.733 138.439,210.641 140.553,209.548" />
	<path
		style="fill:none;stroke:#000000;stroke-width:4px;stroke-opacity:1;stroke-linecap:round"
		d="M 140.553,209.548 C 143.257,208.265 145.96,206.982 148.533,205.478 151.421,203.79 154.145,201.823 156.869,199.857" />
	<path
		style="fill:none;stroke:#000000;stroke-width:4px;stroke-opacity:1;stroke-linecap:round"
		d="M 156.869,199.857 C 163.892,193.884 170.915,187.912 178.385,182.555 184.413,178.234 190.731,174.313 197.049,170.393" />
	<path
		style="fill:none;stroke:#000000;stroke-width:4px;stroke-opacity:1;stroke-linecap:round"
		d="M 197.049,170.393 C 206.134,169.217 215.22,168.041 224.305,166.865 224.47,166.843 224.719,166.811 224.802,166.8" />
	</g>
	<g display="none" cacani:groupmode="sketch_layer" id="Sketch 1">
	<path
		style="fill:none;stroke:#000000;stroke-width:1.94129px;stroke-opacity:1;stroke-linecap:round"
		d="M 376.72,477.532 C 376.651,485.078 376.957,492.624 377.167,500.168 377.167,492.974 377.167,485.781 377.167,478.588 377.295,483.515 377.442,488.442 377.442,493.37 377.669,488.299 377.902,483.228 378.163,478.159" />
	<path
		style="fill:none;stroke:#000000;stroke-width:1.90955px;stroke-opacity:1;stroke-linecap:round"
		d="M 436.335,467.897 C 436.08,476.002 435.478,484.093 434.926,492.183 434.889,484.217 435.317,476.256 435.545,468.293 435.569,476.84 435.64,485.388 435.889,493.931 436.023,487.454 436.06,480.975 436.06,474.496 436.06,476.377 436.06,478.258 436.06,480.139" />
	<path
		style="fill:none;stroke:#000000;stroke-width:1.07829px;stroke-opacity:1;stroke-linecap:round"
		d="M 501.331,309.6 C 508.524,305.15 515.823,300.866 523.224,296.771 526.843,294.768 530.517,292.858 534.064,290.73" />
	<path
		style="fill:none;stroke:#000000;stroke-width:1.30527px;stroke-opacity:1;stroke-linecap:round"
		d="M 504.127,326.812 C 512.866,320.72 521.607,314.629 530.266,308.423 533.631,306.011 536.978,303.566 540.197,300.963 541.476,299.928 542.734,298.823 543.718,297.505" />
	<path
		style="fill:none;stroke:#000000;stroke-width:1.37401px;stroke-opacity:1;stroke-linecap:round"
		d="M 540.369,300.976 C 543.581,298.509 546.797,296.027 550.234,293.883 555.611,290.529 561.33,287.704 566.495,284.03" />
	<path
		style="fill:none;stroke:#000000;stroke-width:1.01323px;stroke-opacity:1;stroke-linecap:round"
		d="M 534.183,289.564 C 533.988,284.637 533.744,279.685 534.157,274.772 534.285,273.246 534.589,271.74 534.882,270.238" />
	<path
		style="fill:none;stroke:#000000;stroke-width:1.4555px;stroke-opacity:1;stroke-linecap:round"
		d="M 534.17,274.886 C 538.048,271.888 542.051,268.862 546.594,267.021 548.529,266.236 550.608,265.816 552.673,265.514" />
	<path
		style="fill:none;stroke:#000000;stroke-width:1.3497px;stroke-opacity:1;stroke-linecap:round"
		d="M 551.064,265.615 C 553.505,267.044 556.01,268.583 557.804,270.769 562.028,275.919 564.689,282.318 566.666,288.678" />
	<path
		style="fill:none;stroke:#000000;stroke-width:1.93074px;stroke-opacity:1;stroke-linecap:round"
		d="M 531.926,273.897 C 533.109,273.323 534.399,272.932 535.474,272.175 537.613,270.667 539.057,268.141 539.826,265.64" />
	<path
		style="fill:none;stroke:#000000;stroke-width:1.66086px;stroke-opacity:1;stroke-linecap:round"
		d="M 540.406,266.855 C 543.964,269.063 547.373,271.566 550.416,274.442" />
	<path
		style="fill:none;stroke:#000000;stroke-width:1.78013px;stroke-opacity:1;stroke-linecap:round"
		d="M 541.303,276.785 C 543.256,277.54 545.365,278.927 547.383,278.368 548.368,278.095 549.001,277.118 549.81,276.493" />
	<path
		style="fill:none;stroke:#000000;stroke-width:1.56104px;stroke-opacity:1;stroke-linecap:round"
		d="M 542.53,275.062 C 543.383,276.35 544.506,277.495 545.088,278.925 545.667,280.346 546.028,281.915 545.945,283.447 545.855,285.132 545.032,286.898 543.769,288.019" />
	<path
		style="fill:none;stroke:#000000;stroke-width:1.31684px;stroke-opacity:1;stroke-linecap:round"
		d="M 542.292,267.007 C 544.936,265.3 547.653,263.554 550.667,262.651 551.707,262.339 552.821,262.372 553.898,262.233" />
	<path
		style="fill:none;stroke:#000000;stroke-width:1.36249px;stroke-opacity:1;stroke-linecap:round"
		d="M 555.164,262.537 C 556.171,262.921 557.287,263.093 558.184,263.689 559.067,264.275 559.644,265.226 560.374,265.994 559.56,266.771 558.747,267.548 557.934,268.325" />
	<path
		style="fill:none;stroke:#000000;stroke-width:1.60336px;stroke-opacity:1;stroke-linecap:round"
		d="M 550.43,272.073 C 553.247,270.415 556.127,268.814 558.686,266.779" />
	<path
		style="fill:none;stroke:#000000;stroke-width:1.6993px;stroke-opacity:1;stroke-linecap:round"
		d="M 559.569,266.767 C 560.462,266.699 561.365,266.412 562.246,266.564 563.467,266.775 564.714,267.573 565.319,268.654" />
	<path
		style="fill:none;stroke:#000000;stroke-width:1.53574px;stroke-opacity:1;stroke-linecap:round"
		d="M 566.243,269.186 C 566.181,270.089 566.407,271.061 566.058,271.896 565.541,273.132 564.816,274.383 563.737,275.176 561.333,276.943 557.987,277.047 555.006,277.139" />
	<path
		style="fill:none;stroke:#000000;stroke-width:1.7361px;stroke-opacity:1;stroke-linecap:round"
		d="M 549.401,278.596 C 552.464,278.821 555.782,279.211 558.593,277.975 559.835,277.43 560.756,276.337 561.838,275.518" />
	<path
		style="fill:none;stroke:#000000;stroke-width:1.46207px;stroke-opacity:1;stroke-linecap:round"
		d="M 552.395,278.862 C 552.054,280.827 551.22,283.431 552.632,284.84 553.264,285.47 554.391,285.144 555.27,285.296" />
	<path
		style="fill:none;stroke:#000000;stroke-width:1.24849px;stroke-opacity:1;stroke-linecap:round"
		d="M 551.999,285.144 C 554.887,285.162 557.863,285.008 560.598,284.08 562.069,283.581 563.577,282.815 564.541,281.597" />
	<path
		style="fill:none;stroke:#000000;stroke-width:1.71117px;stroke-opacity:1;stroke-linecap:round"
		d="M 564.62,273.948 C 565.24,275.168 566.304,276.251 566.48,277.608 566.658,278.986 566.192,280.419 565.623,281.686 565.173,282.685 564.216,283.366 563.513,284.206" />
	<path
		style="fill:none;stroke:#000000;stroke-width:1.52056px;stroke-opacity:1;stroke-linecap:round"
		d="M 516.68,340.772 C 518.86,356.899 521.362,372.99 524.308,388.995 525.903,397.655 527.469,406.404 530.474,414.68" />
	<path
		style="fill:none;stroke:#000000;stroke-width:1.41673px;stroke-opacity:1;stroke-linecap:round"
		d="M 550.085,333.657 C 547.855,356.939 549.604,380.559 552.335,403.788 552.672,406.657 553.139,409.51 553.487,412.378" />
	<path
		style="fill:none;stroke:#000000;stroke-width:1.29996px;stroke-opacity:1;stroke-linecap:round"
		d="M 530.333,413.91 C 525.745,423.492 521.738,433.442 515.954,442.352" />
	<path
		style="fill:none;stroke:#000000;stroke-width:1.52286px;stroke-opacity:1;stroke-linecap:round"
		d="M 554.426,413.33 C 554.052,425.707 554.102,438.197 551.993,450.399" />
	<path
		style="fill:none;stroke:#000000;stroke-width:1.43485px;stroke-opacity:1;stroke-linecap:round"
		d="M 515.698,441.72 C 516.46,442.903 517.113,444.163 517.984,445.269 521.976,450.334 527.633,454.508 533.79,456.424 537.377,457.54 541.395,458.294 545.023,457.32 546.334,456.968 547.352,455.927 548.517,455.23" />
	<path
		style="fill:none;stroke:#000000;stroke-width:1.07895px;stroke-opacity:1;stroke-linecap:round"
		d="M 553.786,417.002 C 556.868,423.107 559.912,429.251 562.439,435.606" />
	<path
		style="fill:none;stroke:#000000;stroke-width:2.07717px;stroke-opacity:1;stroke-linecap:round"
		d="M 561.707,435.431 C 559.487,439.397 556.303,443.053 555.359,447.5 555.224,448.137 555.444,448.8 555.487,449.45" />
	<path
		style="fill:none;stroke:#000000;stroke-width:1.92536px;stroke-opacity:1;stroke-linecap:round"
		d="M 551.847,451.101 C 553.06,450.598 554.378,450.295 555.487,449.59 555.948,449.298 556.085,448.677 556.384,448.22" />
	<path
		style="fill:none;stroke:#000000;stroke-width:1.4095px;stroke-opacity:1;stroke-linecap:round"
		d="M 656.149,270.197 C 646.329,285.797 637.339,301.924 627.116,317.262 625.357,319.9 623.469,322.45 621.646,325.044" />
	<path
		style="fill:none;stroke:#000000;stroke-width:1.19921px;stroke-opacity:1;stroke-linecap:round"
		d="M 652.234,277.962 C 647.622,285.256 643.002,292.546 638.221,299.729 633.549,306.748 628.476,313.515 624.189,320.775" />
	<path
		style="fill:none;stroke:#000000;stroke-width:1.20223px;stroke-opacity:1;stroke-linecap:round"
		d="M 660.375,266.069 C 658.814,268.581 657.266,271.102 655.691,273.605 648.645,284.809 641.275,295.806 633.867,306.774 629.523,313.205 625.494,319.862 620.805,326.046" />
	<path
		style="fill:none;stroke:#000000;stroke-width:1.38025px;stroke-opacity:1;stroke-linecap:round"
		d="M 691.566,286.658 C 677.356,306.365 663.172,326.434 645.648,343.262" />
	<path
		style="fill:none;stroke:#000000;stroke-width:1.5492px;stroke-opacity:1;stroke-linecap:round"
		d="M 680.041,301.415 C 671.769,312.281 663.111,322.852 654.319,333.301 650.827,337.451 647.663,342.083 643.233,345.212" />
	<path
		style="fill:none;stroke:#000000;stroke-width:1.00995px;stroke-opacity:1;stroke-linecap:round"
		d="M 620.64,318.017 C 618.312,323.431 615.377,328.585 612.225,333.565" />
	<path
		style="fill:none;stroke:#000000;stroke-width:1.22385px;stroke-opacity:1;stroke-linecap:round"
		d="M 625.396,316.471 C 621.347,321.468 617.507,326.651 614.018,332.054" />
	<path
		style="fill:none;stroke:#000000;stroke-width:1.47653px;stroke-opacity:1;stroke-linecap:round"
		d="M 618.189,328.453 C 615.139,331.312 611.203,334.058 610.194,338.115 609.563,340.65 610.445,343.424 611.383,345.862" />
	<path
		style="fill:none;stroke:#000000;stroke-width:1.31815px;stroke-opacity:1;stroke-linecap:round"
		d="M 610.011,339.046 C 610.203,341.405 610.363,343.787 610.908,346.091 610.429,343.56 609.953,341.029 609.462,338.501 609.725,339.573 609.987,340.645 610.249,341.716" />
	<path
		style="fill:none;stroke:#000000;stroke-width:1.78514px;stroke-opacity:1;stroke-linecap:round"
		d="M 611.649,338.489 C 610.205,349.999 610.512,361.673 610.57,373.273 610.623,383.896 610.794,394.533 611.613,405.124 611.88,408.585 612.009,412.128 613.058,415.436" />
	<path
		style="fill:none;stroke:#000000;stroke-width:1.10389px;stroke-opacity:1;stroke-linecap:round"
		d="M 611.179,340.053 C 610.856,341.629 610.382,343.18 610.209,344.779 609.264,353.532 609.302,362.383 609.551,371.184 609.946,385.126 611.078,399.049 612.496,412.925 613.118,419.008 613.859,425.078 614.637,431.143 615.194,435.491 615.813,439.832 616.503,444.161 616.965,447.064 617.322,450.057 618.497,452.751" />
	<path
		style="fill:none;stroke:#000000;stroke-width:1.18344px;stroke-opacity:1;stroke-linecap:round"
		d="M 608.892,384.658 C 610.806,396.406 612.885,408.126 614.856,419.864 616.135,427.48 616.754,435.275 619.045,442.65" />
	<path
		style="fill:none;stroke:#000000;stroke-width:1.18475px;stroke-opacity:1;stroke-linecap:round"
		d="M 643.267,346.079 C 641.113,368.154 640.395,390.376 640.395,412.556" />
	<path
		style="fill:none;stroke:#000000;stroke-width:1.33195px;stroke-opacity:1;stroke-linecap:round"
		d="M 641.145,370.376 C 640.445,392.302 639.996,414.319 641.767,436.185" />
	<path
		style="fill:none;stroke:#000000;stroke-width:0.835144px;stroke-opacity:1;stroke-linecap:round"
		d="M 640.175,410.553 C 640.292,420.362 641.571,430.156 643.248,439.822" />
	<path
		style="fill:none;stroke:#000000;stroke-width:0.752343px;stroke-opacity:1;stroke-linecap:round"
		d="M 639.754,416.913 C 639.266,407.794 639.169,398.656 639.169,389.525" />
	<path
		style="fill:none;stroke:#000000;stroke-width:1.43907px;stroke-opacity:1;stroke-linecap:round"
		d="M 644.127,337.348 C 642.196,345.111 641.493,353.154 640.943,361.135 640.292,370.594 640.044,380.08 639.882,389.56" />
	<path
		style="fill:none;stroke:#000000;stroke-width:1.3353px;stroke-opacity:1;stroke-linecap:round"
		d="M 566.084,476.855 C 566.981,475.637 567.749,474.313 568.773,473.201 570.883,470.909 573.571,468.858 576.585,468.071 577.98,467.706 579.526,467.377 580.902,467.807 582.452,468.291 583.835,469.389 584.854,470.653 587.91,474.446 588.96,479.683 589.427,484.532 590.265,493.224 588.702,502.624 584.451,510.251 583.579,511.816 582.244,513.074 581.14,514.485" />
	<path
		style="fill:none;stroke:#000000;stroke-width:1.19395px;stroke-opacity:1;stroke-linecap:round"
		d="M 569.926,478.506 C 569.041,483.974 568.18,489.463 566.798,494.827 564.211,504.861 560.533,514.669 555.931,523.954" />
	<path
		style="fill:none;stroke:#000000;stroke-width:1.33918px;stroke-opacity:1;stroke-linecap:round"
		d="M 594.678,454.262 C 597.132,440.495 600.011,426.803 603.13,413.171 604.607,406.714 606.292,400.293 607.374,393.758" />
	<path
		style="fill:none;stroke:#000000;stroke-width:1.48113px;stroke-opacity:1;stroke-linecap:round"
		d="M 591.312,437.907 C 591.799,428.778 592.272,419.645 593.05,410.536 593.822,401.49 595.16,392.492 595.684,383.429" />
	<path
		style="fill:none;stroke:#000000;stroke-width:1.13546px;stroke-opacity:1;stroke-linecap:round"
		d="M 468.979,351.929 C 469.362,371.504 469.9,391.08 469.857,410.659 469.834,421.302 470.076,432.069 468.193,442.545" />
	<path
		style="fill:none;stroke:#000000;stroke-width:1.27478px;stroke-opacity:1;stroke-linecap:round"
		d="M 498.451,348.117 C 497.906,363.462 498.018,378.835 497.097,394.163 496.203,409.049 494.247,423.883 491.682,438.574" />
	<path
		style="fill:none;stroke:#000000;stroke-width:1.22247px;stroke-opacity:1;stroke-linecap:round"
		d="M 454.015,355.566 C 454.429,356.831 454.905,358.077 455.259,359.36 458.337,370.538 459.564,382.271 459.631,393.864 459.676,401.595 459.06,409.423 457.216,416.931" />
	<path
		style="fill:none;stroke:#000000;stroke-width:1.67625px;stroke-opacity:1;stroke-linecap:round"
		d="M 449.899,402.138 C 452.162,407.367 454.864,412.406 457.692,417.352 458.71,415.707 460.028,414.212 460.747,412.416 461.609,410.263 461.872,407.916 462.375,405.652 463.504,400.574 464.344,395.432 465.064,390.28" />
	<path
		style="fill:none;stroke:#000000;stroke-width:1.71573px;stroke-opacity:1;stroke-linecap:round"
		d="M 665.128,341.195 C 665.227,353.007 666.643,364.818 668.677,376.454 670.403,386.326 672.236,396.505 676.91,405.371" />
	<path
		style="fill:none;stroke:#000000;stroke-width:1.60888px;stroke-opacity:1;stroke-linecap:round"
		d="M 664.707,391.914 C 668.632,397.223 671.992,402.929 675.775,408.34 676.355,406.87 677.159,405.47 677.513,403.93 678.369,400.206 678.143,396.311 678.318,392.494" />
	<path
		style="fill:none;stroke:#000000;stroke-width:1.19395px;stroke-opacity:1;stroke-linecap:round"
		d="M 642.151,434.604 C 646.982,445.682 652.407,456.501 658.012,467.21" />
	<path
		style="fill:none;stroke:#000000;stroke-width:1.86786px;stroke-opacity:1;stroke-linecap:round"
		d="M 643.084,437.011 C 649.583,447.798 655.261,459.06 661.305,470.109" />
	<path
		style="fill:none;stroke:#000000;stroke-width:0.985633px;stroke-opacity:1;stroke-linecap:round"
		d="M 617.051,445.461 C 618.678,452.883 620.571,460.248 622.631,467.561 624.513,474.239 626.579,480.864 628.54,487.518" />
	<path
		style="fill:none;stroke:#000000;stroke-width:1.40096px;stroke-opacity:1;stroke-linecap:round"
		d="M 620.18,453.12 C 623.587,464.572 626.861,476.207 632.254,486.868" />
	<path
		style="fill:none;stroke:#000000;stroke-width:1.44023px;stroke-opacity:1;stroke-linecap:round"
		d="M 634.449,487.676 C 635.632,488.397 636.683,489.402 637.998,489.837 640.569,490.689 643.48,490.28 646.121,489.679 649.082,489.006 652.133,487.867 654.371,485.814 655.655,484.637 656.493,483.05 657.554,481.668" />
	<path
		style="fill:none;stroke:#000000;stroke-width:1.18475px;stroke-opacity:1;stroke-linecap:round"
		d="M 635.913,491.752 C 637.553,491.67 639.209,491.745 640.834,491.506 649.533,490.227 657.829,485.245 664.104,479.086" />
	<path
		style="fill:none;stroke:#000000;stroke-width:1.27215px;stroke-opacity:1;stroke-linecap:round"
		d="M 660.39,481.229 C 660.738,480.48 661.085,479.73 661.433,478.98" />
	<path
		style="fill:none;stroke:#000000;stroke-width:1.06147px;stroke-opacity:1;stroke-linecap:round"
		d="M 633.132,488.344 C 635.089,488.25 637.072,488.39 639.004,488.063 642.938,487.396 646.654,485.674 650.219,483.882 654.545,481.707 658.578,478.863 662.146,475.59" />
	<path
		style="fill:none;stroke:#000000;stroke-width:0.214134px;stroke-opacity:1;stroke-linecap:round"
		d="M 662.018,472.533 C 662.183,471.783 662.347,471.034 662.512,470.284" />
	<path
		style="fill:none;stroke:#000000;stroke-width:0.683999px;stroke-opacity:1;stroke-linecap:round"
		d="M 661.396,466.964 C 662.383,469.965 663.45,473.083 663.335,476.24 663.306,477.057 662.738,477.762 662.439,478.524" />
	<path
		style="fill:none;stroke:#000000;stroke-width:1.04675px;stroke-opacity:1;stroke-linecap:round"
		d="M 645.261,438.012 C 648.513,440.865 651.816,443.695 654.701,446.919" />
	<path
		style="fill:none;stroke:#000000;stroke-width:1.47703px;stroke-opacity:1;stroke-linecap:round"
		d="M 645.883,437.819 C 648.332,440.809 651.108,443.535 654.005,446.093 656.085,447.929 658.893,449.105 660.372,451.451 661.099,452.606 661.118,454.096 661.213,455.457 661.358,457.532 661.061,459.627 660.701,461.676" />
	<path
		style="fill:none;stroke:#000000;stroke-width:1.37972px;stroke-opacity:1;stroke-linecap:round"
		d="M 661.012,458.127 C 660.501,460.324 660.039,462.54 659.329,464.68 659.634,462.144 660.071,459.622 660.61,457.126 660.47,459.51 660.354,461.908 659.933,464.258 660.187,461.703 660.444,459.148 660.756,456.599" />
	<path
		style="fill:none;stroke:#000000;stroke-width:0.858146px;stroke-opacity:1;stroke-linecap:round"
		d="M 660.683,455.492 C 660.286,457.507 659.89,459.521 659.494,461.535" />
	<path
		style="fill:none;stroke:#000000;stroke-width:1.52516px;stroke-opacity:1;stroke-linecap:round"
		d="M 647.731,437.257 C 652.433,441.897 657.494,446.163 662.476,450.503" />
	<path
		style="fill:none;stroke:#000000;stroke-width:0.998447px;stroke-opacity:1;stroke-linecap:round"
		d="M 662.567,455.756 C 662.246,457.76 661.913,459.771 661.817,461.799" />
	<path
		style="fill:none;stroke:#000000;stroke-width:1.64193px;stroke-opacity:1;stroke-linecap:round"
		d="M 649.414,441.35 C 652.774,444.352 656.225,447.251 659.658,450.169 660.906,451.23 662.808,451.835 663.39,453.366 664.023,455.032 663.278,456.949 662.896,458.689 662.246,461.654 660.954,464.453 660.317,467.421" />
	<path
		style="fill:none;stroke:#000000;stroke-width:0.908746px;stroke-opacity:1;stroke-linecap:round"
		d="M 661.378,460.376 C 661.11,461.899 660.841,463.421 660.573,464.944" />
	<path
		style="fill:none;stroke:#000000;stroke-width:0.514914px;stroke-opacity:1;stroke-linecap:round"
		d="M 663.72,471.883 C 663.079,470.196 662.439,468.51 661.799,466.823 662.39,468.328 662.987,469.831 663.573,471.338 664.03,472.513 665.329,473.675 664.927,474.869 664.174,477.109 662.108,478.672 660.518,480.421 659.416,481.633 658.122,482.657 656.878,483.724 650.53,489.165 643.724,494.282 636.187,497.901" />
	<path
		style="fill:none;stroke:#000000;stroke-width:1.89908px;stroke-opacity:1;stroke-linecap:round"
		d="M 636.974,495.266 C 645.018,492.942 653.152,489.763 659.677,484.514 662.638,482.132 665.612,479.038 666.427,475.326" />
	<path
		style="fill:none;stroke:#000000;stroke-width:1.48146px;stroke-opacity:1;stroke-linecap:round"
		d="M 619.631,453.524 C 621.811,465.411 625.067,477.13 629.107,488.52" />
	<path
		style="fill:none;stroke:#000000;stroke-width:1.53698px;stroke-opacity:1;stroke-linecap:round"
		d="M 619.43,448.658 C 620.263,457.528 622.02,466.303 623.985,474.992 625.454,481.491 626.879,488.058 629.345,494.247" />
	<path
		style="fill:none;stroke:#000000;stroke-width:1.52516px;stroke-opacity:1;stroke-linecap:round"
		d="M 619.283,455.58 C 620.201,468.927 625.103,481.88 630.534,494.106" />
	<path
		style="fill:none;stroke:#000000;stroke-width:1.21564px;stroke-opacity:1;stroke-linecap:round"
		d="M 624.515,475.274 C 623.308,470.903 622.087,466.519 621.351,462.045 620.441,456.516 620.158,450.897 619.85,445.303" />
	</g>
</g>
</svg>
