<?xml version="1.0" encoding="UTF-8" standalone="no"?>
<!-- Created with Cacani (http://www.cacani.org/) -->
<svg
	xmlns="http://www.w3.org/2000/svg"
	xmlns:cacani="http://www.cacani.org/namespaces/cacani"
	version="1.1"
	width="480"
	height="490">
<g cacani:groupmode="cel" id="Run">
	<g display="none" cacani:groupmode="layer" id="Ref 1">
	</g>
	<g display="none" cacani:groupmode="sketch_layer" id="Sketch 2">
	</g>
	<g cacani:groupmode="layer" id="leg_R">
	<path
		style="fill:none;stroke:#000000;stroke-width:4px;stroke-opacity:1;stroke-linecap:round"
		d="M 207.426,243.007 C 205.761,246.65 204.097,250.293 202.846,254.071 201.444,258.303 200.559,262.703 199.675,267.104" />
	<path
		style="fill:none;stroke:#000000;stroke-width:4px;stroke-opacity:1;stroke-linecap:round"
		d="M 199.675,267.104 C 196.58,279.541 193.485,291.977 190.517,304.444 188.425,313.23 186.396,322.032 184.367,330.833" />
	<path
		style="fill:none;stroke:#000000;stroke-width:4px;stroke-opacity:1;stroke-linecap:round"
		d="M 184.367,330.833 C 182.444,331.995 180.52,333.157 180.373,334.485 180.22,335.865 181.983,337.423 183.746,338.982" />
	<path
		style="fill:none;stroke:#000000;stroke-width:4px;stroke-opacity:1;stroke-linecap:round"
		d="M 183.746,338.982 C 188.204,342.048 192.662,345.114 197.553,346.997 203.461,349.27 210,349.817 216.54,350.364" />
	<path
		style="fill:none;stroke:#000000;stroke-width:4px;stroke-opacity:1;stroke-linecap:round"
		d="M 216.54,350.364 C 218.599,350.472 220.657,350.58 221.642,349.798 223.173,348.58 222.105,345.209 221.038,341.837" />
	<path
		style="fill:none;stroke:#000000;stroke-width:4px;stroke-opacity:1;stroke-linecap:round"
		d="M 221.038,341.837 C 225.012,330.883 228.986,319.93 233.968,309.457 239.02,298.835 245.11,288.707 251.199,278.579" />
	<path
		style="fill:none;stroke:#000000;stroke-width:4px;stroke-opacity:1;stroke-linecap:round"
		d="M 298.504,292.04 C 304.364,298.037 310.224,304.033 316.084,310.03" />
	<path
		style="fill:none;stroke:#000000;stroke-width:4px;stroke-opacity:1;stroke-linecap:round"
		d="M 316.084,310.03 C 316.629,309.826 317.174,309.622 317.753,309.635 319.286,309.672 321.054,311.241 321.106,312.705 321.132,313.414 320.754,314.098 320.377,314.782" />
	<path
		style="fill:none;stroke:#000000;stroke-width:4px;stroke-opacity:1;stroke-linecap:round"
		d="M 320.377,314.782 C 315.633,319.009 310.889,323.237 305.565,326.542 300.794,329.505 295.557,331.727 290.319,333.95" />
	<path
		style="fill:none;stroke:#000000;stroke-width:4px;stroke-opacity:1;stroke-linecap:round"
		d="M 290.319,333.95 C 287.263,334.771 284.207,335.592 283.334,334.437 282.576,333.433 283.468,330.936 284.36,328.439" />
	<path
		style="fill:none;stroke:#000000;stroke-width:4px;stroke-opacity:1;stroke-linecap:round"
		d="M 284.36,328.439 C 278.446,324.857 272.532,321.276 266.587,317.746 257.156,312.145 247.649,306.673 238.142,301.201" />
	<path
		style="fill:none;stroke:#000000;stroke-width:4px;stroke-opacity:1;stroke-linecap:round"
		d="M 211.881,349.948 C 210.435,353.97 208.916,357.91 205.657,359.937 204.881,360.419 204.007,360.794 203.132,361.168" />
	<path
		style="fill:none;stroke:#000000;stroke-width:4px;stroke-opacity:1;stroke-linecap:round"
		d="M 203.132,361.168 C 198.765,365.924 194.398,370.681 190.096,375.498 184.245,382.05 178.516,388.715 172.979,395.533 166.298,403.759 159.898,412.21 153.5,420.662" />
	<path
		style="fill:none;stroke:#000000;stroke-width:4px;stroke-opacity:1;stroke-linecap:round"
		d="M 189.034,342.503 C 188.334,345.039 187.588,347.549 186.4,349.822 184.875,352.741 182.623,355.269 180.37,357.797" />
	<path
		style="fill:none;stroke:#000000;stroke-width:4px;stroke-opacity:1;stroke-linecap:round"
		d="M 180.37,357.797 C 176.836,361.038 173.302,364.279 170.256,367.912 165.083,374.08 161.316,381.378 157.418,388.53 152.855,396.902 148.113,405.075 143.372,413.248" />
	<path
		style="fill:none;stroke:#000000;stroke-width:4px;stroke-opacity:1;stroke-linecap:round"
		d="M 316.401,318.226 C 320.025,323.332 323.648,328.438 325.577,334.772 326.343,337.287 326.842,339.995 325.928,342.276 325.635,343.006 325.197,343.693 324.759,344.379" />
	<path
		style="fill:none;stroke:#000000;stroke-width:4px;stroke-opacity:1;stroke-linecap:round"
		d="M 324.759,344.379 C 323.711,345.596 322.663,346.813 321.486,347.886 319.799,349.422 317.847,350.661 315.876,351.859 301.34,360.695 285.784,367.288 270.734,374.953 264.418,378.169 258.192,381.574 251.965,384.978" />
	<path
		style="fill:none;stroke:#000000;stroke-width:4px;stroke-opacity:1;stroke-linecap:round"
		d="M 294.069,332.302 C 295,333.204 295.931,334.105 296.376,335.226 296.682,336 296.757,336.879 296.831,337.758" />
	<path
		style="fill:none;stroke:#000000;stroke-width:4px;stroke-opacity:1;stroke-linecap:round"
		d="M 296.831,337.758 C 293.257,339.249 289.683,340.74 286.355,342.647 281.477,345.442 277.127,349.129 272.701,352.683 263.652,359.948 254.28,366.654 244.908,373.36" />
	<path
		style="fill:none;stroke:#000000;stroke-width:4px;stroke-opacity:1;stroke-linecap:round"
		d="M 136.729,409.37 C 141.635,412.149 146.541,414.927 150.914,418.419 152.591,419.758 154.189,421.202 155.787,422.646 155.827,422.682 155.888,422.736 155.908,422.754" />
	<path
		style="fill:none;stroke:#000000;stroke-width:4px;stroke-opacity:1;stroke-linecap:round"
		d="M 136.729,409.37 C 135.285,414.676 134.358,417.485 133.95,417.797" />
	<path
		style="fill:none;stroke:#000000;stroke-width:4px;stroke-opacity:1;stroke-linecap:round"
		d="M 133.95,417.797 C 133.789,417.856 133.305,418.033 132.982,418.151 130.425,419.081 127.868,420.011 125.417,421.166 122.794,422.402 120.293,423.897 117.792,425.391" />
	<path
		style="fill:none;stroke:#000000;stroke-width:4px;stroke-opacity:1;stroke-linecap:round"
		d="M 117.792,425.391 C 114.276,427.976 110.76,430.56 111.27,433.637 111.448,434.712 112.118,435.847 112.787,436.982" />
	<path
		style="fill:none;stroke:#000000;stroke-width:4px;stroke-opacity:1;stroke-linecap:round"
		d="M 112.787,436.982 C 122.99,450.318 133.192,463.655 143.395,476.992" />
	<path
		style="fill:none;stroke:#000000;stroke-width:4px;stroke-opacity:1;stroke-linecap:round"
		d="M 143.395,476.992 C 153.544,477.04 163.693,477.089 173.842,477.137" />
	<path
		style="fill:none;stroke:#000000;stroke-width:4px;stroke-opacity:1;stroke-linecap:round"
		d="M 173.842,477.137 C 173.914,476.673 173.986,476.21 174.035,475.74 174.35,472.683 173.675,469.336 172.107,466.779 169.535,462.581 164.558,460.513 159.582,458.445" />
	<path
		style="fill:none;stroke:#000000;stroke-width:4px;stroke-opacity:1;stroke-linecap:round"
		d="M 159.582,458.445 C 159.606,454.413 159.631,450.381 159.165,446.413 158.583,441.463 157.238,436.612 155.894,431.761" />
	<path
		style="fill:none;stroke:#000000;stroke-width:4px;stroke-opacity:1;stroke-linecap:round"
		d="M 149.797,429.583 C 153.892,424.55 157.988,419.517 165.054,417.118 167.082,416.43 169.353,415.959 170.707,417.118 171.093,417.45 171.405,417.914 171.716,418.378" />
	<path
		style="fill:none;stroke:#000000;stroke-width:4px;stroke-opacity:1;stroke-linecap:round"
		d="M 171.716,418.378 C 171.921,418.786 172.126,419.193 172.164,419.609 172.221,420.224 171.913,420.856 171.571,421.454 169.374,425.301 165.796,427.716 161.99,429.438 160,430.339 157.947,431.05 155.894,431.761" />
	<path
		style="fill:none;stroke:#000000;stroke-width:4px;stroke-opacity:1;stroke-linecap:round"
		d="M 298.504,292.04 C 294.846,288.119 291.188,284.199 287.397,280.416 278.921,271.962 269.777,264.198 260.632,256.435" />
	<path
		style="fill:none;stroke:#000000;stroke-width:4px;stroke-opacity:1;stroke-linecap:round"
		d="M 245.636,390.24 C 244.885,394.366 244.133,398.491 242.702,402.378 241.242,406.343 239.074,410.06 236.86,413.697 235.963,415.172 235.057,416.633 234.152,418.094" />
	<path
		style="fill:none;stroke:#000000;stroke-width:4px;stroke-opacity:1;stroke-linecap:round"
		d="M 241.045,368.588 C 243.004,370.912 244.964,373.236 246.692,375.728 248.036,377.666 249.24,379.706 250.333,381.8 251.163,383.392 251.929,385.015 252.792,386.587 253.095,387.142 253.411,387.689 253.727,388.237" />
	<path
		style="fill:none;stroke:#000000;stroke-width:4px;stroke-opacity:1;stroke-linecap:round"
		d="M 241.045,368.588 C 240.112,369.784 239.18,370.98 238.193,372.131 237.398,373.058 236.568,373.956 235.738,374.853" />
	<path
		style="fill:none;stroke:#000000;stroke-width:4px;stroke-opacity:1;stroke-linecap:round"
		d="M 235.738,374.853 C 233.29,374.244 230.843,373.634 228.366,373.295 223.909,372.684 219.359,372.947 214.808,373.211" />
	<path
		style="fill:none;stroke:#000000;stroke-width:4px;stroke-opacity:1;stroke-linecap:round"
		d="M 214.808,373.211 C 213.614,373.267 212.42,373.323 211.684,373.997 211.097,374.534 210.8,375.463 210.654,376.348 210.503,377.262 210.514,378.128 210.524,378.995" />
	<path
		style="fill:none;stroke:#000000;stroke-width:4px;stroke-opacity:1;stroke-linecap:round"
		d="M 210.524,378.995 C 211.297,393.648 212.772,405.786 214.951,415.407" />
	<path
		style="fill:none;stroke:#000000;stroke-width:4px;stroke-opacity:1;stroke-linecap:round"
		d="M 214.951,415.407 C 215.36,419.405 215.77,423.403 216.608,427.307 217.534,431.619 218.983,435.818 220.431,440.016" />
	<path
		style="fill:none;stroke:#000000;stroke-width:4px;stroke-opacity:1;stroke-linecap:round"
		d="M 220.431,440.016 C 224.253,438.822 228.074,437.628 230.683,435.258 234.321,431.954 235.603,426.363 236.885,420.772" />
	<path
		style="fill:none;stroke:#000000;stroke-width:4px;stroke-opacity:1;stroke-linecap:round"
		d="M 236.885,420.772 C 239.686,416.351 242.488,411.93 244.424,407.15 246.095,403.026 247.121,398.636 248.148,394.245" />
	<path
		style="fill:none;stroke:#000000;stroke-width:4px;stroke-opacity:1;stroke-linecap:round"
		d="M 245.636,390.24 C 248.099,389.491 250.563,388.741 253.727,388.237 259.328,387.345 267.125,387.223 268.042,391.797 268.136,392.269 268.158,392.791 268.179,393.313" />
	<path
		style="fill:none;stroke:#000000;stroke-width:4px;stroke-opacity:1;stroke-linecap:round"
		d="M 268.179,393.313 C 268.047,393.981 267.915,394.649 267.57,395.181 267.146,395.835 266.398,396.283 265.643,396.636 260.118,399.22 254.133,396.733 248.148,394.245" />
	<path
		style="fill:none;stroke:#000000;stroke-width:4px;stroke-opacity:1;stroke-linecap:round"
		d="M 234.152,418.094 C 233.804,419.511 233.455,420.927 233.313,422.363 233.209,423.416 233.216,424.48 233.775,425.521 233.978,425.9 234.254,426.276 234.501,426.427 235.312,426.921 235.819,425.008 236.327,423.095" />
	<path
		style="fill:none;stroke:#000000;stroke-width:4px;stroke-opacity:1;stroke-linecap:round"
		d="M 245.636,390.24 C 246.122,390.904 246.608,391.567 247.041,392.263 247.44,392.905 247.794,393.575 248.148,394.245" />
	<path
		style="fill:none;stroke:#000000;stroke-width:4px;stroke-opacity:1;stroke-linecap:round"
		d="M 149.797,429.583 C 150.803,429.799 151.809,430.015 152.773,430.349 153.848,430.722 154.871,431.241 155.894,431.761" />
	<path
		style="fill:none;stroke:#000000;stroke-width:4px;stroke-opacity:1;stroke-linecap:round"
		d="M 149.797,429.583 C 151.551,434.025 153.305,438.468 154.382,443.062 155.669,448.549 155.991,454.253 156.313,459.957" />
	<path
		style="fill:none;stroke:#000000;stroke-width:4px;stroke-opacity:1;stroke-linecap:round"
		d="M 156.313,459.957 C 157.652,460.709 158.991,461.46 161.301,462.371 163.341,463.176 166.138,464.106 166.129,463.176 166.124,462.734 165.488,461.875 164.841,461.245 163.9,460.328 162.935,459.899 161.97,459.469" />
	</g>
	<g cacani:groupmode="layer" id="arm_R">
	<path
		style="fill:none;stroke:#000000;stroke-width:4px;stroke-opacity:1;stroke-linecap:round"
		d="M 271.616,173.847 C 268.054,176.182 264.492,178.517 260.594,180.044 257.834,181.124 254.906,181.8 251.978,182.475" />
	<path
		style="fill:none;stroke:#000000;stroke-width:4px;stroke-opacity:1;stroke-linecap:round"
		d="M 251.978,182.475 C 246.514,183.336 241.049,184.198 235.585,185.059" />
	<path
		style="fill:none;stroke:#000000;stroke-width:4px;stroke-opacity:1;stroke-linecap:round"
		d="M 235.585,185.059 C 234.755,179.521 233.924,173.983 234.02,168.455 234.103,163.608 234.899,158.768 235.695,153.929" />
	<path
		style="fill:none;stroke:#000000;stroke-width:4px;stroke-opacity:1;stroke-linecap:round"
		d="M 235.695,153.929 C 240.42,152.108 245.145,150.288 250.058,149.488 253.516,148.925 257.066,148.867 260.616,148.81" />
	<path
		style="fill:none;stroke:#000000;stroke-width:4px;stroke-opacity:1;stroke-linecap:round"
		d="M 234.449,176.684 C 234.442,176.685 234.434,176.685 234.427,176.686 226.515,177.367 218.568,177.393 210.621,177.42" />
	<path
		style="fill:none;stroke:#000000;stroke-width:4px;stroke-opacity:1;stroke-linecap:round"
		d="M 210.621,177.42 C 208.293,180.711 205.964,184.003 203.916,187.45 199.793,194.39 196.805,201.963 193.817,209.536" />
	<path
		style="fill:none;stroke:#000000;stroke-width:4px;stroke-opacity:1;stroke-linecap:round"
		d="M 193.817,209.536 C 195.274,210.686 196.732,211.836 197.496,213.297 198.56,215.329 198.283,217.964 198.006,220.599" />
	<path
		style="fill:none;stroke:#000000;stroke-width:4px;stroke-opacity:1;stroke-linecap:round"
		d="M 198.006,220.599 C 197.933,223.613 197.86,226.628 195.968,227.731 195.163,228.2 194.029,228.323 192.894,228.446" />
	<path
		style="fill:none;stroke:#000000;stroke-width:4px;stroke-opacity:1;stroke-linecap:round"
		d="M 192.894,228.446 C 191.229,228.129 189.563,227.813 187.883,227.694 186.292,227.582 184.687,227.646 183.083,227.711" />
	<path
		style="fill:none;stroke:#000000;stroke-width:4px;stroke-opacity:1;stroke-linecap:round"
		d="M 192.894,228.446 C 193.201,231.402 193.508,234.359 192.063,235.712 190.897,236.802 188.593,236.851 186.289,236.9" />
	<path
		style="fill:none;stroke:#000000;stroke-width:4px;stroke-opacity:1;stroke-linecap:round"
		d="M 186.289,236.9 C 183.789,236.668 181.289,236.435 178.648,235.712 175.992,234.985 173.194,233.762 172.025,231.636 170.857,229.513 171.315,226.489 171.824,223.87 171.977,223.079 172.135,222.326 172.294,221.572" />
	<path
		style="fill:none;stroke:#000000;stroke-width:4px;stroke-opacity:1;stroke-linecap:round"
		d="M 172.294,221.572 C 173.781,217.388 175.269,213.203 178.138,210.07 179.094,209.026 180.204,208.099 181.314,207.172" />
	<path
		style="fill:none;stroke:#000000;stroke-width:4px;stroke-opacity:1;stroke-linecap:round"
		d="M 181.314,207.172 C 185.359,196.437 189.405,185.702 194.712,175.586 196.858,171.496 199.21,167.507 201.562,163.519" />
	<path
		style="fill:none;stroke:#000000;stroke-width:4px;stroke-opacity:1;stroke-linecap:round"
		d="M 201.562,163.519 C 201.639,163.498 201.869,163.436 202.023,163.394 203.905,162.887 205.787,162.38 207.679,161.92 216.689,159.729 225.916,158.606 235.15,157.513" />
	<path
		style="fill:none;stroke:#000000;stroke-width:4px;stroke-opacity:1;stroke-linecap:round"
		d="M 260.616,148.81 C 267.342,146.5 273.309,147.263 278.518,151.098" />
	<path
		style="fill:none;stroke:#000000;stroke-width:4px;stroke-opacity:1;stroke-linecap:round"
		d="M 278.518,151.098 C 279.902,152.821 281.286,154.544 281.908,156.286 283.952,162.007 277.784,167.927 271.616,173.847" />
	<path
		style="fill:none;stroke:#000000;stroke-width:4px;stroke-opacity:1;stroke-linecap:round"
		d="M 183.083,227.711 C 182.206,227.263 181.329,226.815 181.177,226.164 181.016,225.471 181.675,224.548 182.389,223.851 184.033,222.244 185.965,221.836 187.897,221.427" />
	</g>
	<g cacani:groupmode="layer" id="body">
	<path
		style="fill:none;stroke:#000000;stroke-width:4px;stroke-opacity:1;stroke-linecap:round"
		d="M 334.115,48.6603 C 329.793,45.4252 324.676,43.2974 319.579,41.5162 313.099,39.2517 306.231,37.5764 299.366,37.5806 292.821,37.5846 285.853,38.6384 280.232,41.9923" />
	<path
		style="fill:none;stroke:#000000;stroke-width:4px;stroke-opacity:1;stroke-linecap:round"
		d="M 280.232,41.9923 C 281.411,40.774 282.589,39.5557 283.317,38.035 283.845,36.9328 284.136,35.6717 284.031,34.4684 283.954,33.5872 283.664,32.7371 283.374,31.8869" />
	<path
		style="fill:none;stroke:#000000;stroke-width:4px;stroke-opacity:1;stroke-linecap:round"
		d="M 283.374,31.8869 C 282.748,33.5387 282.122,35.1905 281.177,36.6084 279.661,38.886 277.324,40.5603 274.987,42.2345" />
	<path
		style="fill:none;stroke:#000000;stroke-width:4px;stroke-opacity:1;stroke-linecap:round"
		d="M 274.987,42.2345 C 272.174,41.7161 269.362,41.1978 266.554,41.2449 264.018,41.2876 261.487,41.7918 258.956,42.2959" />
	<path
		style="fill:none;stroke:#000000;stroke-width:4px;stroke-opacity:1;stroke-linecap:round"
		d="M 267.025,46.9146 C 266.689,46.6562 266.353,46.3978 266.01,46.15 263.841,44.5823 261.399,43.4391 258.956,42.2959" />
	<path
		style="fill:none;stroke:#000000;stroke-width:4px;stroke-opacity:1;stroke-linecap:round"
		d="M 267.025,46.9146 C 265.507,47.3966 263.99,47.8785 262.657,48.6644 260.965,49.6618 259.571,51.1487 258.107,52.5332 253.451,56.9363 248.086,60.3033 242.721,63.6702" />
	<path
		style="fill:none;stroke:#000000;stroke-width:4px;stroke-opacity:1;stroke-linecap:round"
		d="M 242.721,63.6702 C 245.468,65.8445 248.214,68.0189 250.62,67.5075 252.481,67.1118 254.138,65.1086 255.795,63.1053" />
	<path
		style="fill:none;stroke:#000000;stroke-width:4px;stroke-opacity:1;stroke-linecap:round"
		d="M 255.795,63.1053 C 253.946,65.828 252.098,68.5507 250.815,71.5301 249.614,74.3191 248.909,77.333 248.379,80.3609 247.742,83.9972 247.357,87.6537 247.393,91.318 247.426,94.689 247.815,98.0667 248.45,101.384 249.531,107.032 251.324,112.503 253.116,117.975" />
	<path
		style="fill:none;stroke:#000000;stroke-width:4px;stroke-opacity:1;stroke-linecap:round"
		d="M 253.116,117.975 C 254.108,116.293 255.099,114.612 255.613,112.803 256.224,110.656 256.163,108.33 256.102,106.003" />
	<path
		style="fill:none;stroke:#000000;stroke-width:4px;stroke-opacity:1;stroke-linecap:round"
		d="M 256.102,106.003 C 259.06,114.744 260.3,116.609 261.525,118.465 263.028,120.742 264.609,123.014 266.568,124.915 268.619,126.906 270.999,128.556 273.439,130.045 275.947,131.576 278.506,133.197 281.352,133.928" />
	<path
		style="fill:none;stroke:#000000;stroke-width:4px;stroke-opacity:1;stroke-linecap:round"
		d="M 334.115,48.6603 C 337.043,49.6357 339.971,50.6111 342.956,50.7287 345.072,50.8121 347.217,50.4647 349.362,50.1172" />
	<path
		style="fill:none;stroke:#000000;stroke-width:4px;stroke-opacity:1;stroke-linecap:round"
		d="M 349.362,50.1172 C 349.031,53.1546 348.699,56.192 346.866,57.607 345.548,58.6236 343.456,58.8027 341.363,58.9819" />
	<path
		style="fill:none;stroke:#000000;stroke-width:4px;stroke-opacity:1;stroke-linecap:round"
		d="M 341.363,58.9819 C 345.444,63.3681 349.524,67.7544 351.119,72.8342 353.561,80.611 350.177,90.0134 348.581,98.6492 348.274,100.307 348.034,101.936 347.794,103.565" />
	<path
		style="fill:none;stroke:#000000;stroke-width:4px;stroke-opacity:1;stroke-linecap:round"
		d="M 347.794,103.565 C 346.523,102.344 345.252,101.123 344.762,99.6416 344.279,98.1807 344.555,96.4667 344.832,94.7527" />
	<path
		style="fill:none;stroke:#000000;stroke-width:4px;stroke-opacity:1;stroke-linecap:round"
		d="M 344.832,94.7527 C 340.436,101.617 338.928,103.548 337.089,105.094 335.54,106.397 333.793,107.447 332.086,108.535" />
	<path
		style="fill:none;stroke:#000000;stroke-width:4px;stroke-opacity:1;stroke-linecap:round"
		d="M 333.771,85.3928 C 334.556,88.3964 334.536,91.5812 334.423,94.6838 334.182,101.321 332.388,107.852 330.481,114.214" />
	<path
		style="fill:none;stroke:#000000;stroke-width:4px;stroke-opacity:1;stroke-linecap:round"
		d="M 330.481,114.214 C 331.878,117.351 332.759,117.918 333.425,118.68 334.017,119.358 334.484,120.254 334.506,121.154 334.528,122.06 333.435,122.731 332.607,123.1 331.517,123.587 330.404,124.036 329.257,124.366" />
	<path
		style="fill:none;stroke:#000000;stroke-width:4px;stroke-opacity:1;stroke-linecap:round"
		d="M 329.257,124.366 C 329.154,127.194 330.012,128.359 329.836,129.594 329.652,130.878 328.386,131.949 327.187,132.446" />
	<path
		style="fill:none;stroke:#000000;stroke-width:4px;stroke-opacity:1;stroke-linecap:round"
		d="M 327.187,132.446 C 323.531,132.439 319.875,132.432 316.319,131.807 313.562,131.322 310.865,130.465 308.168,129.608" />
	<path
		style="fill:none;stroke:#000000;stroke-width:4px;stroke-opacity:1;stroke-linecap:round"
		d="M 323.294,132.384 C 324.063,133.863 324.832,135.343 324.22,136.477 323.95,136.977 323.412,137.409 322.853,137.722 322.187,138.093 321.491,138.295 320.795,138.497" />
	<path
		style="fill:none;stroke:#000000;stroke-width:4px;stroke-opacity:1;stroke-linecap:round"
		d="M 320.795,138.497 C 320.671,139.445 320.547,140.394 320.459,141.436 320.3,143.313 320.257,145.495 319.172,146.608 318.189,147.615 316.352,147.746 314.515,147.876" />
	<path
		style="fill:none;stroke:#000000;stroke-width:4px;stroke-opacity:1;stroke-linecap:round"
		d="M 314.515,147.876 C 312.681,147.855 310.847,147.833 309.042,147.614 306.148,147.263 303.326,146.406 300.505,145.548" />
	<path
		style="fill:none;stroke:#000000;stroke-width:4px;stroke-opacity:1;stroke-linecap:round"
		d="M 300.505,145.548 C 300.194,147.241 299.883,148.935 299.349,150.544 298.315,153.661 296.445,156.459 294.575,159.257" />
	<path
		style="fill:none;stroke:#000000;stroke-width:4px;stroke-opacity:1;stroke-linecap:round"
		d="M 333.771,85.3928 C 332.771,83.8297 331.772,82.2666 330.576,80.8635 329.098,79.1296 327.322,77.6401 325.446,76.3245 320.782,73.0526 315.507,70.8569 310.232,68.6612" />
	<path
		style="fill:none;stroke:#000000;stroke-width:4px;stroke-opacity:1;stroke-linecap:round"
		d="M 310.232,68.6612 C 313.453,73.1985 316.044,78.193 318.268,83.294" />
	<path
		style="fill:none;stroke:#000000;stroke-width:4px;stroke-opacity:1;stroke-linecap:round"
		d="M 318.268,83.294 C 304.193,76.9403 300.389,75.3761 296.394,74.8317" />
	<path
		style="fill:none;stroke:#000000;stroke-width:4px;stroke-opacity:1;stroke-linecap:round"
		d="M 300.768,75.9224 C 300.57,76.0635 299.973,76.487 299.973,76.487 299.072,77.1267 298.403,78.0589 297.775,78.9682 296.259,81.1649 295.419,83.7777 294.587,86.3142" />
	<path
		style="fill:none;stroke:#000000;stroke-width:4px;stroke-opacity:1;stroke-linecap:round"
		d="M 294.587,86.3142 C 293.652,89.7328 293.349,91.1869 293.168,92.6538 292.604,97.2183 292.931,101.853 293.029,106.451" />
	<path
		style="fill:none;stroke:#000000;stroke-width:4px;stroke-opacity:1;stroke-linecap:round"
		d="M 293.029,106.451 C 291.488,103.532 289.948,100.613 287.299,98.0821 286.332,97.1582 285.217,96.2858 284.104,96.2114 282.557,96.108 281.014,97.5434 279.838,99.0819 276.336,103.661 276.089,109.153 278.355,114.315 279.415,116.728 281.024,119.069 283.221,119.559 284.261,119.792 285.434,119.609 286.606,119.426" />
	<path
		style="fill:none;stroke:#000000;stroke-width:4px;stroke-opacity:1;stroke-linecap:round"
		d="M 325.386,94.8457 C 324.981,93.6837 323.941,92.8174 322.988,92.0384 321.474,90.8009 319.514,89.7334 317.561,89.8141 315.241,89.9099 313.156,92.0201 312.031,94.0515" />
	<path
		style="fill:none;stroke:#000000;stroke-width:4px;stroke-opacity:1;stroke-linecap:round"
		d="M 320.55,106.281 C 320.539,105.555 320.529,104.83 320.358,103.937 320.124,102.708 319.587,101.161 318.798,101.102 318.121,101.051 317.258,102.098 316.812,103.047 316.467,103.782 316.372,104.459 316.278,105.135" />
	<path
		style="fill:none;stroke:#000000;stroke-width:4px;stroke-opacity:1;stroke-linecap:round"
		d="M 320.55,106.281 C 320.425,107.826 320.301,109.371 319.144,110.739 318.679,111.288 318.049,111.808 317.549,111.726 316.991,111.635 316.596,110.793 316.352,110.008 315.783,108.18 316.031,106.658 316.278,105.135" />
	<path
		style="fill:none;stroke:#000000;stroke-width:4px;stroke-opacity:1;stroke-linecap:round"
		d="M 283.663,119.616 C 283.734,119.975 283.949,121.053 283.949,121.053 284.18,122.215 284.423,123.391 284.888,124.48 285.784,126.582 287.082,128.489 288.229,130.464" />
	<path
		style="fill:none;stroke:#000000;stroke-width:4px;stroke-opacity:1;stroke-linecap:round"
		d="M 288.229,130.464 C 288.186,130.426 288.058,130.31 288.058,130.31 286.245,129.81 284.876,128.302 283.336,127.222" />
	<path
		style="fill:none;stroke:#000000;stroke-width:4px;stroke-opacity:1;stroke-linecap:round"
		d="M 283.336,127.222 C 281.357,132.415 281.494,133.188 281.352,133.928" />
	<path
		style="fill:none;stroke:#000000;stroke-width:4px;stroke-opacity:1;stroke-linecap:round"
		d="M 281.352,133.928 C 281.01,135.74 280.668,137.552 280.164,139.319 279.799,140.601 279.348,141.86 278.897,143.119" />
	<path
		style="fill:none;stroke:#000000;stroke-width:4px;stroke-opacity:1;stroke-linecap:round"
		d="M 294.575,159.257 C 294.843,161.722 295.111,164.186 294.673,166.595 294.555,167.243 294.386,167.887 294.13,168.493 294.017,168.761 293.886,169.023 293.756,169.284" />
	<path
		style="fill:none;stroke:#000000;stroke-width:4px;stroke-opacity:1;stroke-linecap:round"
		d="M 294.558,167.099 C 292.197,163.356 289.835,159.612 287.038,156.235 283.764,152.281 279.893,148.829 276.022,145.378" />
	<path
		style="fill:none;stroke:#000000;stroke-width:4px;stroke-opacity:1;stroke-linecap:round"
		d="M 293.756,169.284 C 285.838,182.718 277.92,196.152 271.635,210.328 266.905,220.995 263.1,232.082 259.295,243.17" />
	<path
		style="fill:none;stroke:#000000;stroke-width:4px;stroke-opacity:1;stroke-linecap:round"
		d="M 259.295,243.17 C 258.984,243.912 258.672,244.655 258.45,245.424 258.263,246.07 258.14,246.736 258.016,247.401" />
	<path
		style="fill:none;stroke:#000000;stroke-width:4px;stroke-opacity:1;stroke-linecap:round"
		d="M 258.016,247.401 C 260.12,249.747 262.223,252.093 262.014,254.096 261.665,257.445 254.851,259.833 250.239,259.695 249.323,259.667 248.495,259.54 247.666,259.413" />
	<path
		style="fill:none;stroke:#000000;stroke-width:4px;stroke-opacity:1;stroke-linecap:round"
		d="M 247.666,259.413 C 244.289,258.875 240.912,258.338 237.577,257.555 225.911,254.816 214.764,249.074 205.478,241.505 204.565,240.761 203.67,239.999 202.775,239.237" />
	<path
		style="fill:none;stroke:#000000;stroke-width:4px;stroke-opacity:1;stroke-linecap:round"
		d="M 202.775,239.237 C 200.94,237.23 199.105,235.223 199.567,233.45 199.937,232.033 201.774,230.766 203.512,229.928 205.219,229.105 206.831,228.696 208.442,228.288" />
	<path
		style="fill:none;stroke:#000000;stroke-width:4px;stroke-opacity:1;stroke-linecap:round"
		d="M 208.442,228.288 C 209.911,226.435 211.379,224.581 212.824,222.71 221.718,211.197 229.722,199.025 237.725,186.854" />
	<path
		style="fill:none;stroke:#000000;stroke-width:4px;stroke-opacity:1;stroke-linecap:round"
		d="M 278.897,143.119 C 273.874,147.007 268.85,150.896 264.219,155.18 254.153,164.492 245.939,175.673 237.725,186.854" />
	<path
		style="fill:none;stroke:#000000;stroke-width:4px;stroke-opacity:1;stroke-linecap:round"
		d="M 294.885,163.778 C 294.729,163.339 294.574,162.9 294.416,162.461 294.172,161.782 293.922,161.104 293.645,160.437 292.459,157.574 290.796,154.9 288.853,152.472 287.185,150.388 285.311,148.485 283.312,146.73 281.883,145.476 280.39,144.297 278.897,143.119" />
	<path
		style="fill:none;stroke:#000000;stroke-width:4px;stroke-opacity:1;stroke-linecap:round"
		d="M 323.294,132.384 C 322.141,132.399 320.96,132.353 319.753,132.245 318.483,132.132 317.182,131.95 315.853,131.7 314.585,131.461 313.291,131.161 311.97,130.798 310.726,130.456 309.459,130.06 308.168,129.608" />
	</g>
	<g cacani:groupmode="layer" id="arm_L top">
	<path
		style="fill:none;stroke:#000000;stroke-width:4px;stroke-opacity:1;stroke-linecap:round"
		d="M 264.608,162.369 C 264.249,163.527 263.891,164.685 263.714,165.811 262.502,173.558 269.898,179.848 277.295,186.139" />
	<path
		style="fill:none;stroke:#000000;stroke-width:4px;stroke-opacity:1;stroke-linecap:round"
		d="M 277.295,186.139 C 279.618,188.209 281.941,190.279 284.364,192.224 287.465,194.715 290.729,197 293.993,199.286" />
	<path
		style="fill:none;stroke:#000000;stroke-width:4px;stroke-opacity:1;stroke-linecap:round"
		d="M 293.993,199.286 C 297.828,196.805 301.663,194.325 304.833,191.18 308.175,187.864 310.779,183.809 313.383,179.755" />
	<path
		style="fill:none;stroke:#000000;stroke-width:4px;stroke-opacity:1;stroke-linecap:round"
		d="M 313.383,179.755 C 310.246,176.55 307.11,173.346 303.609,170.605 300.214,167.946 296.477,165.724 292.739,163.502" />
	<path
		style="fill:none;stroke:#000000;stroke-width:4px;stroke-opacity:1;stroke-linecap:round"
		d="M 292.739,163.502 C 287.782,160.79 282.825,158.078 276.911,157.484 273.204,157.111 269.121,157.57 266.584,159.939 265.835,160.638 265.222,161.504 264.608,162.369" />
	<path
		style="fill:none;stroke:#000000;stroke-width:4px;stroke-opacity:1;stroke-linecap:round"
		d="M 299.029,195.907 C 302.489,199.357 306.036,202.707 309.774,205.832 313.611,209.038 317.65,212.008 321.688,214.978" />
	<path
		style="fill:none;stroke:#000000;stroke-width:4px;stroke-opacity:1;stroke-linecap:round"
		d="M 321.688,214.978 C 323.87,213.189 326.052,211.401 328.205,209.581 340.766,198.969 352.378,187.289 363.991,175.609" />
	<path
		style="fill:none;stroke:#000000;stroke-width:4px;stroke-opacity:1;stroke-linecap:round"
		d="M 363.991,175.609 C 365.471,176.526 366.95,177.444 368.426,177.591 370.793,177.828 373.15,176.083 375.507,174.338" />
	<path
		style="fill:none;stroke:#000000;stroke-width:4px;stroke-opacity:1;stroke-linecap:round"
		d="M 375.507,174.338 C 378.423,172.333 381.339,170.329 382.971,167.448 383.73,166.107 384.212,164.577 384.693,163.046" />
	<path
		style="fill:none;stroke:#000000;stroke-width:4px;stroke-opacity:1;stroke-linecap:round"
		d="M 384.693,163.046 C 384.302,161.811 383.91,160.576 383.353,159.41 381.583,155.704 378.138,152.704 374.359,150.989 372.985,150.366 371.566,149.912 370.148,149.458" />
	<path
		style="fill:none;stroke:#000000;stroke-width:4px;stroke-opacity:1;stroke-linecap:round"
		d="M 370.148,149.458 C 368.335,150.548 366.522,151.639 365.079,153.08 363.165,154.992 361.903,157.523 360.641,160.054" />
	<path
		style="fill:none;stroke:#000000;stroke-width:4px;stroke-opacity:1;stroke-linecap:round"
		d="M 360.641,160.054 C 359.754,161.751 358.867,163.448 357.946,165.126 357.423,166.081 356.889,167.029 356.355,167.978" />
	<path
		style="fill:none;stroke:#000000;stroke-width:4px;stroke-opacity:1;stroke-linecap:round"
		d="M 356.355,167.978 C 351.669,171.755 346.983,175.533 342.027,178.906 335.365,183.441 328.215,187.244 321.065,191.048" />
	<path
		style="fill:none;stroke:#000000;stroke-width:4px;stroke-opacity:1;stroke-linecap:round"
		d="M 321.065,191.048 C 318.957,189.311 316.85,187.573 314.751,185.825 313.589,184.858 312.43,183.887 311.278,182.907" />
	</g>
	<g display="none" cacani:groupmode="sketch_layer" id="Sketch 1">
	</g>
</g>
</svg>
