<?xml version="1.0" encoding="UTF-8" standalone="no"?>
<!-- Created with Cacani (http://www.cacani.org/) -->
<svg
	xmlns="http://www.w3.org/2000/svg"
	xmlns:cacani="http://www.cacani.org/namespaces/cacani"
	version="1.1"
	width="480"
	height="490">
<g cacani:groupmode="cel" id="Run">
	<g display="none" cacani:groupmode="layer" id="Ref 1">
	</g>
	<g display="none" cacani:groupmode="sketch_layer" id="Sketch 2">
	</g>
	<g cacani:groupmode="layer" id="leg_R">
	<path
		style="fill:none;stroke:#000000;stroke-width:4px;stroke-opacity:1;stroke-linecap:round"
		d="M 225.335,255.539 C 224.861,257.391 224.388,259.244 223.918,261.098 222.912,265.067 221.922,269.042 221.08,273.047 220.123,277.597 219.357,282.186 218.665,286.785 218.111,290.467 217.604,294.156 216.979,297.825 216.215,302.302 215.274,306.75 214.27,311.182 212.834,317.523 211.269,323.83 209.704,330.138" />
	<path
		style="fill:none;stroke:#000000;stroke-width:4px;stroke-opacity:1;stroke-linecap:round"
		d="M 209.704,330.138 C 208.748,331.365 207.792,332.591 207.573,334.024 207.358,335.43 207.853,337.034 208.738,338.213 209.369,339.053 210.198,339.677 211.027,340.3" />
	<path
		style="fill:none;stroke:#000000;stroke-width:4px;stroke-opacity:1;stroke-linecap:round"
		d="M 211.027,340.3 C 215.487,341.984 219.947,343.668 224.556,344.506 229.549,345.413 234.717,345.328 239.886,345.243" />
	<path
		style="fill:none;stroke:#000000;stroke-width:4px;stroke-opacity:1;stroke-linecap:round"
		d="M 239.886,345.243 C 241.5,344.814 243.115,344.386 243.556,343.53 244.128,342.424 242.734,340.602 241.341,338.78" />
	<path
		style="fill:none;stroke:#000000;stroke-width:4px;stroke-opacity:1;stroke-linecap:round"
		d="M 241.341,338.78 C 245.585,326.315 249.829,313.85 253.237,301.156 255.89,291.272 258.035,281.249 260.18,271.226" />
	<path
		style="fill:none;stroke:#000000;stroke-width:4px;stroke-opacity:1;stroke-linecap:round"
		d="M 263.441,304.287 C 264.518,316.206 265.596,328.125 266.673,340.044" />
	<path
		style="fill:none;stroke:#000000;stroke-width:4px;stroke-opacity:1;stroke-linecap:round"
		d="M 266.673,340.044 C 268.223,341.566 269.773,343.088 269.683,344.191 269.562,345.655 266.55,346.381 263.538,347.107" />
	<path
		style="fill:none;stroke:#000000;stroke-width:4px;stroke-opacity:1;stroke-linecap:round"
		d="M 263.538,347.107 C 259.262,347.828 254.986,348.549 250.645,348.705 247.234,348.828 243.783,348.602 240.473,347.827 238.396,347.342 236.374,346.64 234.353,345.938" />
	<path
		style="fill:none;stroke:#000000;stroke-width:4px;stroke-opacity:1;stroke-linecap:round"
		d="M 234.353,345.938 C 231.457,344.403 228.561,342.868 228.996,341.244 229.244,340.32 230.573,339.366 231.902,338.413" />
	<path
		style="fill:none;stroke:#000000;stroke-width:4px;stroke-opacity:1;stroke-linecap:round"
		d="M 231.902,338.413 C 230.899,328.642 229.897,318.872 228.516,309.177 227.108,299.285 225.306,289.473 224.121,279.47 223.298,272.532 222.772,265.502 223.765,258.645 224.028,256.825 224.398,255.017 224.769,253.209" />
	<path
		style="fill:none;stroke:#000000;stroke-width:4px;stroke-opacity:1;stroke-linecap:round"
		d="M 239.886,345.243 C 239.624,346.464 239.362,347.685 238.935,348.841 238.289,350.587 237.266,352.182 236.242,353.778" />
	<path
		style="fill:none;stroke:#000000;stroke-width:4px;stroke-opacity:1;stroke-linecap:round"
		d="M 236.242,353.778 C 234.822,355.01 233.402,356.242 231.868,357.311 230.423,358.316 228.877,359.177 227.331,360.037" />
	<path
		style="fill:none;stroke:#000000;stroke-width:4px;stroke-opacity:1;stroke-linecap:round"
		d="M 227.331,360.037 C 224.761,363.231 222.19,366.424 220.086,369.897 217.718,373.806 215.94,378.069 214.163,382.333" />
	<path
		style="fill:none;stroke:#000000;stroke-width:4px;stroke-opacity:1;stroke-linecap:round"
		d="M 214.163,382.333 C 211.429,389.055 208.694,395.776 206.401,402.647 204.341,408.821 202.638,415.116 200.934,421.41" />
	<path
		style="fill:none;stroke:#000000;stroke-width:4px;stroke-opacity:1;stroke-linecap:round"
		d="M 211.027,340.3 C 210.692,342.083 210.358,343.865 209.747,345.552 209.267,346.878 208.616,348.145 207.965,349.412" />
	<path
		style="fill:none;stroke:#000000;stroke-width:4px;stroke-opacity:1;stroke-linecap:round"
		d="M 207.965,349.412 C 205.428,354.732 202.891,360.053 200.754,365.504 193.354,384.388 190.768,404.837 188.182,425.286" />
	<path
		style="fill:none;stroke:#000000;stroke-width:4px;stroke-opacity:1;stroke-linecap:round"
		d="M 263.538,347.107 C 262.173,355.068 260.808,363.03 255.784,366.169 252.095,368.474 246.433,368.179 240.771,367.884" />
	<path
		style="fill:none;stroke:#000000;stroke-width:4px;stroke-opacity:1;stroke-linecap:round"
		d="M 240.771,367.884 C 230.329,368.522 219.888,369.16 209.495,370.226 191.91,372.03 174.466,375.061 157.038,378.232" />
	<path
		style="fill:none;stroke:#000000;stroke-width:4px;stroke-opacity:1;stroke-linecap:round"
		d="M 231.457,344.287 C 229.972,344.86 228.487,345.432 226.954,345.792 225.167,346.211 223.316,346.34 221.464,346.47" />
	<path
		style="fill:none;stroke:#000000;stroke-width:4px;stroke-opacity:1;stroke-linecap:round"
		d="M 221.464,346.47 C 214.374,347.322 207.283,348.174 200.346,349.626 183.159,353.225 166.91,360.508 150.661,367.791" />
	<path
		style="fill:none;stroke:#000000;stroke-width:4px;stroke-opacity:1;stroke-linecap:round"
		d="M 263.441,304.287 C 263.661,291.058 263.881,277.829 264.1,264.6" />
	<path
		style="fill:none;stroke:#000000;stroke-width:4px;stroke-opacity:1;stroke-linecap:round"
		d="M 197.242,432.943 C 200.289,435.456 203.335,437.969 205.949,440.904 207.713,442.884 209.281,445.057 210.627,447.346 211.357,448.587 212.021,449.862 212.686,451.137" />
	<path
		style="fill:none;stroke:#000000;stroke-width:4px;stroke-opacity:1;stroke-linecap:round"
		d="M 177.231,426.873 C 180.048,426.31 182.864,425.748 185.714,425.454 187.931,425.225 190.168,425.159 192.399,425.209 194.094,425.248 195.787,425.354 197.481,425.357 198.078,425.358 198.675,425.346 199.272,425.334" />
	<path
		style="fill:none;stroke:#000000;stroke-width:4px;stroke-opacity:1;stroke-linecap:round"
		d="M 177.231,426.873 C 177.796,428.19 178.361,429.507 178.864,430.847 179.269,431.928 179.633,433.024 179.998,434.12" />
	<path
		style="fill:none;stroke:#000000;stroke-width:4px;stroke-opacity:1;stroke-linecap:round"
		d="M 179.998,434.12 C 178.377,435.868 176.757,437.615 175.347,439.51 172.81,442.919 170.954,446.805 169.098,450.691" />
	<path
		style="fill:none;stroke:#000000;stroke-width:4px;stroke-opacity:1;stroke-linecap:round"
		d="M 169.098,450.691 C 168.6,451.705 168.102,452.718 168.324,453.635 168.501,454.365 169.135,455.035 169.801,455.559 170.488,456.1 171.21,456.486 171.931,456.873" />
	<path
		style="fill:none;stroke:#000000;stroke-width:4px;stroke-opacity:1;stroke-linecap:round"
		d="M 171.931,456.873 C 178.282,460.594 184.632,464.315 191.498,466.999 193.587,467.815 195.724,468.535 197.917,468.927 199.648,469.236 201.415,469.341 203.181,469.445" />
	<path
		style="fill:none;stroke:#000000;stroke-width:4px;stroke-opacity:1;stroke-linecap:round"
		d="M 203.181,469.445 C 207.9,469.84 212.618,470.234 217.338,470.239 221.701,470.244 226.064,469.917 230.427,469.59" />
	<path
		style="fill:none;stroke:#000000;stroke-width:4px;stroke-opacity:1;stroke-linecap:round"
		d="M 230.427,469.59 C 230.193,465.623 229.958,461.657 228.308,458.577 226.007,454.283 220.955,451.713 215.902,449.143" />
	<path
		style="fill:none;stroke:#000000;stroke-width:4px;stroke-opacity:1;stroke-linecap:round"
		d="M 215.902,449.143 C 214.249,446.574 212.596,444.005 210.683,441.654 208.024,438.385 204.862,435.537 201.701,432.69" />
	<path
		style="fill:none;stroke:#000000;stroke-width:4px;stroke-opacity:1;stroke-linecap:round"
		d="M 197.242,432.943 C 197.745,430.563 198.247,428.183 199.272,425.334 201.087,420.293 204.541,413.785 208.743,415.112 209.177,415.249 209.619,415.469 210.06,415.689" />
	<path
		style="fill:none;stroke:#000000;stroke-width:4px;stroke-opacity:1;stroke-linecap:round"
		d="M 210.06,415.689 C 210.553,416.103 211.045,416.516 211.328,417.044 211.676,417.694 211.706,418.516 211.654,419.303 211.274,425.052 206.488,428.871 201.701,432.69" />
	<path
		style="fill:none;stroke:#000000;stroke-width:4px;stroke-opacity:1;stroke-linecap:round"
		d="M 212.686,451.137 C 213.848,451.573 215.01,452.01 216.116,452.385 217.089,452.714 218.019,452.996 219.262,453.008 219.847,453.014 220.5,452.961 220.753,452.79 221.335,452.398 219.802,451.388 218.27,450.378" />
	<path
		style="fill:none;stroke:#000000;stroke-width:4px;stroke-opacity:1;stroke-linecap:round"
		d="M 197.242,432.943 C 198.013,432.843 198.783,432.743 199.556,432.702 200.269,432.665 200.985,432.677 201.701,432.69" />
	<path
		style="fill:none;stroke:#000000;stroke-width:4px;stroke-opacity:1;stroke-linecap:round"
		d="M 149.681,381.47 C 149.103,385.586 148.525,389.702 147.264,393.61 145.978,397.596 143.981,401.365 141.934,405.056 141.105,406.553 140.267,408.037 139.429,409.521" />
	<path
		style="fill:none;stroke:#000000;stroke-width:4px;stroke-opacity:1;stroke-linecap:round"
		d="M 144.26,360.208 C 146.295,362.431 148.33,364.654 150.142,367.053 151.551,368.918 152.826,370.89 153.993,372.92 154.879,374.464 155.703,376.04 156.621,377.563 156.944,378.099 157.279,378.629 157.614,379.159" />
	<path
		style="fill:none;stroke:#000000;stroke-width:4px;stroke-opacity:1;stroke-linecap:round"
		d="M 144.26,360.208 C 143.385,361.431 142.51,362.653 141.579,363.832 140.829,364.783 140.043,365.706 139.257,366.628" />
	<path
		style="fill:none;stroke:#000000;stroke-width:4px;stroke-opacity:1;stroke-linecap:round"
		d="M 139.257,366.628 C 136.808,366.123 134.359,365.618 131.892,365.381 127.453,364.956 122.957,365.4 118.46,365.845" />
	<path
		style="fill:none;stroke:#000000;stroke-width:4px;stroke-opacity:1;stroke-linecap:round"
		d="M 118.46,365.845 C 117.28,365.949 116.1,366.052 115.397,366.749 114.837,367.305 114.581,368.237 114.472,369.12 114.36,370.031 114.405,370.889 114.45,371.747" />
	<path
		style="fill:none;stroke:#000000;stroke-width:4px;stroke-opacity:1;stroke-linecap:round"
		d="M 114.45,371.747 C 115.806,386.229 117.757,398.191 120.302,407.634" />
	<path
		style="fill:none;stroke:#000000;stroke-width:4px;stroke-opacity:1;stroke-linecap:round"
		d="M 120.302,407.634 C 120.869,411.577 121.436,415.52 122.423,419.353 123.514,423.587 125.119,427.687 126.723,431.787" />
	<path
		style="fill:none;stroke:#000000;stroke-width:4px;stroke-opacity:1;stroke-linecap:round"
		d="M 126.723,431.787 C 130.46,430.45 134.196,429.114 136.685,426.661 140.155,423.242 141.2,417.652 142.244,412.063" />
	<path
		style="fill:none;stroke:#000000;stroke-width:4px;stroke-opacity:1;stroke-linecap:round"
		d="M 142.244,412.063 C 144.84,407.571 147.437,403.079 149.162,398.267 150.651,394.115 151.49,389.725 152.33,385.335" />
	<path
		style="fill:none;stroke:#000000;stroke-width:4px;stroke-opacity:1;stroke-linecap:round"
		d="M 149.681,381.47 C 152.091,380.628 154.5,379.786 157.614,379.159 163.125,378.05 170.844,377.615 171.936,382.108 172.049,382.572 172.091,383.088 172.133,383.604" />
	<path
		style="fill:none;stroke:#000000;stroke-width:4px;stroke-opacity:1;stroke-linecap:round"
		d="M 172.133,383.604 C 172.029,384.271 171.926,384.938 171.605,385.478 171.211,386.143 170.489,386.618 169.755,386.998 164.387,389.78 158.358,387.557 152.33,385.335" />
	<path
		style="fill:none;stroke:#000000;stroke-width:4px;stroke-opacity:1;stroke-linecap:round"
		d="M 139.429,409.521 C 139.141,410.938 138.853,412.355 138.771,413.783 138.71,414.83 138.76,415.884 139.355,416.892 139.571,417.259 139.859,417.62 140.111,417.76 140.934,418.217 141.359,416.301 141.785,414.386" />
	<path
		style="fill:none;stroke:#000000;stroke-width:4px;stroke-opacity:1;stroke-linecap:round"
		d="M 149.681,381.47 C 150.189,382.107 150.697,382.744 151.154,383.416 151.575,384.036 151.953,384.685 152.33,385.335" />
	</g>
	<g cacani:groupmode="layer" id="arm_R">
	<path
		style="fill:none;stroke:#000000;stroke-width:4px;stroke-opacity:1;stroke-linecap:round"
		d="M 276.689,172.08 C 274.388,174.756 272.087,177.432 269.786,180.108 267.482,182.787 265.178,185.466 262.874,188.145" />
	<path
		style="fill:none;stroke:#000000;stroke-width:4px;stroke-opacity:1;stroke-linecap:round"
		d="M 262.874,188.145 C 260.279,190.957 257.684,193.769 255.089,196.581" />
	<path
		style="fill:none;stroke:#000000;stroke-width:4px;stroke-opacity:1;stroke-linecap:round"
		d="M 255.089,196.581 C 251.86,193.341 248.632,190.101 245.67,186.637 241.674,181.964 238.164,176.884 234.653,171.805" />
	<path
		style="fill:none;stroke:#000000;stroke-width:4px;stroke-opacity:1;stroke-linecap:round"
		d="M 234.653,171.805 C 236.215,169.548 237.776,167.292 239.504,165.189 244.451,159.168 250.767,154.396 257.082,149.624" />
	<path
		style="fill:none;stroke:#000000;stroke-width:4px;stroke-opacity:1;stroke-linecap:round"
		d="M 249.85,191.222 C 248.481,192.681 247.112,194.14 245.819,195.661 242.821,199.187 240.232,203.046 237.642,206.904" />
	<path
		style="fill:none;stroke:#000000;stroke-width:4px;stroke-opacity:1;stroke-linecap:round"
		d="M 237.642,206.904 C 237.664,212.398 237.685,217.891 238.212,223.327 239.013,231.585 240.982,239.71 242.951,247.835" />
	<path
		style="fill:none;stroke:#000000;stroke-width:4px;stroke-opacity:1;stroke-linecap:round"
		d="M 242.951,247.835 C 243.746,247.522 244.541,247.21 245.345,247.214 246.167,247.218 246.998,247.554 247.76,247.965 249.519,248.913 250.916,250.264 252.312,251.615" />
	<path
		style="fill:none;stroke:#000000;stroke-width:4px;stroke-opacity:1;stroke-linecap:round"
		d="M 252.312,251.615 C 253.573,253.021 254.834,254.428 255.048,255.96 255.279,257.618 254.285,259.423 253.292,261.228" />
	<path
		style="fill:none;stroke:#000000;stroke-width:4px;stroke-opacity:1;stroke-linecap:round"
		d="M 253.292,261.228 C 252.832,262.057 252.371,262.887 251.774,263.606 250.557,265.072 248.77,266.081 246.947,266.733 246.298,266.965 245.644,267.152 244.991,267.339" />
	<path
		style="fill:none;stroke:#000000;stroke-width:4px;stroke-opacity:1;stroke-linecap:round"
		d="M 244.991,267.339 C 244.09,267.347 243.189,267.356 242.597,266.993 241.199,266.137 241.522,263.213 242.469,261.284 243.191,259.815 244.275,258.924 245.36,258.033" />
	<path
		style="fill:none;stroke:#000000;stroke-width:4px;stroke-opacity:1;stroke-linecap:round"
		d="M 254.208,259.386 C 254.244,259.438 254.354,259.593 254.456,259.738 256.759,263.001 259.062,266.264 257.678,268.88 257.069,270.03 255.748,271.055 254.394,271.595 253.792,271.835 253.185,271.98 252.577,272.124" />
	<path
		style="fill:none;stroke:#000000;stroke-width:4px;stroke-opacity:1;stroke-linecap:round"
		d="M 252.577,272.124 C 251.763,272.732 250.949,273.34 250.001,273.953 246.051,276.51 239.77,279.17 237.009,276.068 236.608,275.618 236.282,275.046 235.955,274.475" />
	<path
		style="fill:none;stroke:#000000;stroke-width:4px;stroke-opacity:1;stroke-linecap:round"
		d="M 235.955,274.475 C 234.812,272.218 233.669,269.961 232.935,267.606 231.446,262.829 231.638,257.65 231.956,252.441" />
	<path
		style="fill:none;stroke:#000000;stroke-width:4px;stroke-opacity:1;stroke-linecap:round"
		d="M 231.956,252.441 C 231.919,252.322 231.807,251.965 231.732,251.726 228.231,240.522 224.73,229.317 222.765,217.816 221.762,211.946 221.16,205.998 220.557,200.05" />
	<path
		style="fill:none;stroke:#000000;stroke-width:4px;stroke-opacity:1;stroke-linecap:round"
		d="M 220.557,200.05 C 222.756,196.617 224.955,193.183 227.192,189.774 230.413,184.868 233.714,180.014 237.015,175.161" />
	<path
		style="fill:none;stroke:#000000;stroke-width:4px;stroke-opacity:1;stroke-linecap:round"
		d="M 257.082,149.624 C 259.607,148.008 262.131,146.391 264.767,145.977 268.511,145.389 272.48,147.226 276.448,149.062" />
	<path
		style="fill:none;stroke:#000000;stroke-width:4px;stroke-opacity:1;stroke-linecap:round"
		d="M 276.448,149.062 C 277.886,152.714 279.324,156.365 279.438,160.044 279.561,164.034 278.125,168.057 276.689,172.08" />
	</g>
	<g cacani:groupmode="layer" id="body">
	<path
		style="fill:none;stroke:#000000;stroke-width:4px;stroke-opacity:1;stroke-linecap:round"
		d="M 310.863,33.957 C 306.386,31.2427 301.245,29.6723 296.158,28.4346 289.689,26.861 282.901,25.8928 276.276,26.5454 269.958,27.1676 263.332,28.843 258.223,32.6114" />
	<path
		style="fill:none;stroke:#000000;stroke-width:4px;stroke-opacity:1;stroke-linecap:round"
		d="M 258.223,32.6114 C 258.978,31.1599 259.733,29.7084 260.828,28.5001 261.595,27.6527 262.53,26.9249 263.559,26.4528 264.912,25.8317 266.427,25.6531 267.941,25.4744" />
	<path
		style="fill:none;stroke:#000000;stroke-width:4px;stroke-opacity:1;stroke-linecap:round"
		d="M 267.941,25.4744 C 264.572,25.6248 261.203,25.7753 258.627,27.3253 256.427,28.6494 254.805,30.995 253.184,33.3406" />
	<path
		style="fill:none;stroke:#000000;stroke-width:4px;stroke-opacity:1;stroke-linecap:round"
		d="M 253.184,33.3406 C 250.25,32.823 247.316,32.3055 244.951,33.1821 242.204,34.2001 240.223,37.098 238.242,39.9959" />
	<path
		style="fill:none;stroke:#000000;stroke-width:4px;stroke-opacity:1;stroke-linecap:round"
		d="M 245.94,38.6102 C 245.593,38.371 245.246,38.1318 244.889,37.968 242.876,37.0445 240.559,38.5202 238.242,39.9959" />
	<path
		style="fill:none;stroke:#000000;stroke-width:4px;stroke-opacity:1;stroke-linecap:round"
		d="M 245.94,38.6102 C 244.53,39.2265 243.12,39.8428 241.89,40.7118 240.328,41.8147 239.056,43.3248 237.864,44.8759 233.799,50.164 230.66,55.9304 227.521,61.6968" />
	<path
		style="fill:none;stroke:#000000;stroke-width:4px;stroke-opacity:1;stroke-linecap:round"
		d="M 227.521,61.6968 C 229.114,61.271 230.707,60.8451 232.051,60.037 233.887,58.9332 235.258,57.1161 236.63,55.299" />
	<path
		style="fill:none;stroke:#000000;stroke-width:4px;stroke-opacity:1;stroke-linecap:round"
		d="M 236.63,55.299 C 235.103,58.1017 233.576,60.9043 232.62,63.9014 231.724,66.7068 231.328,69.6826 231.102,72.6553 230.831,76.2254 230.805,79.7911 231.186,83.3246 231.536,86.5754 232.231,89.7989 233.157,92.9404 234.734,98.2901 236.981,103.402 239.229,108.514" />
	<path
		style="fill:none;stroke:#000000;stroke-width:4px;stroke-opacity:1;stroke-linecap:round"
		d="M 239.229,108.514 C 240.026,106.797 240.824,105.081 241.15,103.286 241.537,101.156 241.258,98.9163 240.979,96.6766" />
	<path
		style="fill:none;stroke:#000000;stroke-width:4px;stroke-opacity:1;stroke-linecap:round"
		d="M 240.979,96.6766 C 244.66,104.834 246.033,106.517 247.391,108.193 249.057,110.249 250.798,112.292 252.868,113.942 255.036,115.67 257.489,117.038 259.985,118.245 262.55,119.486 265.174,120.808 267.989,121.245" />
	<path
		style="fill:none;stroke:#000000;stroke-width:4px;stroke-opacity:1;stroke-linecap:round"
		d="M 310.863,33.957 C 315.408,34.6097 319.953,35.2624 323.055,37.7702 325.862,40.0401 327.486,43.8298 329.11,47.6195" />
	<path
		style="fill:none;stroke:#000000;stroke-width:4px;stroke-opacity:1;stroke-linecap:round"
		d="M 329.11,47.6195 C 327.798,46.0553 326.485,44.491 324.814,43.7529 323.078,42.9865 320.956,43.1108 318.834,43.2352" />
	<path
		style="fill:none;stroke:#000000;stroke-width:4px;stroke-opacity:1;stroke-linecap:round"
		d="M 318.834,43.2352 C 322.906,46.9779 326.978,50.7207 329.56,55.6841 333.513,63.2829 333.972,73.7428 329.548,80.8416 328.328,82.7996 326.736,84.502 325.145,86.2044" />
	<path
		style="fill:none;stroke:#000000;stroke-width:4px;stroke-opacity:1;stroke-linecap:round"
		d="M 325.145,86.2044 C 325.505,84.8614 325.865,83.5185 325.956,82.1602 326.061,80.5986 325.812,79.0166 325.562,77.4346" />
	<path
		style="fill:none;stroke:#000000;stroke-width:4px;stroke-opacity:1;stroke-linecap:round"
		d="M 325.562,77.4346 C 321.968,84.4758 320.694,86.4816 319.065,88.1483 317.693,89.5521 316.106,90.7304 314.561,91.9416" />
	<path
		style="fill:none;stroke:#000000;stroke-width:4px;stroke-opacity:1;stroke-linecap:round"
		d="M 314.001,69.4451 C 315.043,72.2701 315.324,75.3461 315.509,78.3515 315.903,84.7806 314.788,91.2545 313.549,97.5754" />
	<path
		style="fill:none;stroke:#000000;stroke-width:4px;stroke-opacity:1;stroke-linecap:round"
		d="M 313.549,97.5754 C 315.194,100.471 316.097,100.935 316.812,101.608 317.447,102.206 317.983,103.027 318.089,103.894 318.196,104.766 317.204,105.517 316.44,105.951 315.434,106.524 314.402,107.063 313.326,107.49" />
	<path
		style="fill:none;stroke:#000000;stroke-width:4px;stroke-opacity:1;stroke-linecap:round"
		d="M 313.326,107.49 C 313.494,110.229 314.432,111.273 314.379,112.482 314.323,113.739 313.201,114.891 312.092,115.484" />
	<path
		style="fill:none;stroke:#000000;stroke-width:4px;stroke-opacity:1;stroke-linecap:round"
		d="M 312.092,115.484 C 308.562,115.823 305.032,116.162 301.541,115.894 298.833,115.687 296.149,115.115 293.465,114.542" />
	<path
		style="fill:none;stroke:#000000;stroke-width:4px;stroke-opacity:1;stroke-linecap:round"
		d="M 308.328,115.792 C 309.21,117.148 310.092,118.504 309.608,119.656 309.395,120.164 308.916,120.632 308.406,120.987 307.799,121.408 307.146,121.669 306.493,121.929" />
	<path
		style="fill:none;stroke:#000000;stroke-width:4px;stroke-opacity:1;stroke-linecap:round"
		d="M 306.493,121.929 C 306.463,122.856 306.433,123.783 306.447,124.797 306.471,126.625 306.635,128.735 305.693,129.911 304.839,130.976 303.079,131.276 301.318,131.576" />
	<path
		style="fill:none;stroke:#000000;stroke-width:4px;stroke-opacity:1;stroke-linecap:round"
		d="M 301.318,131.576 C 299.546,131.728 297.773,131.88 296.01,131.839 293.183,131.774 290.379,131.213 287.575,130.652" />
	<path
		style="fill:none;stroke:#000000;stroke-width:4px;stroke-opacity:1;stroke-linecap:round"
		d="M 287.575,130.652 C 287.444,132.32 287.314,133.988 286.931,135.583 286.204,138.612 284.568,141.375 282.932,144.139" />
	<path
		style="fill:none;stroke:#000000;stroke-width:4px;stroke-opacity:1;stroke-linecap:round"
		d="M 314.001,69.4451 C 312.889,68.0308 311.776,66.6165 310.489,65.3751 308.899,63.8411 307.044,62.5712 305.109,61.4786 300.298,58.7611 294.999,57.14 289.7,55.519" />
	<path
		style="fill:none;stroke:#000000;stroke-width:4px;stroke-opacity:1;stroke-linecap:round"
		d="M 289.7,55.519 C 293.238,59.5941 296.21,64.1703 298.839,68.8839" />
	<path
		style="fill:none;stroke:#000000;stroke-width:4px;stroke-opacity:1;stroke-linecap:round"
		d="M 298.839,68.8839 C 284.653,64.0808 280.834,62.9303 276.926,62.7823" />
	<path
		style="fill:none;stroke:#000000;stroke-width:4px;stroke-opacity:1;stroke-linecap:round"
		d="M 281.251,63.4217 C 281.073,63.5768 280.537,64.0418 280.537,64.0418 279.728,64.7444 279.17,65.7074 278.65,66.6445 277.394,68.9081 276.83,71.5094 276.267,74.0363" />
	<path
		style="fill:none;stroke:#000000;stroke-width:4px;stroke-opacity:1;stroke-linecap:round"
		d="M 276.267,74.0363 C 275.687,77.4243 275.532,78.8565 275.496,80.2895 275.382,84.7487 276.136,89.191 276.665,93.6202" />
	<path
		style="fill:none;stroke:#000000;stroke-width:4px;stroke-opacity:1;stroke-linecap:round"
		d="M 276.665,93.6202 C 274.902,90.9484 273.139,88.2766 270.343,86.0837 269.323,85.2832 268.164,84.5465 267.083,84.5798 265.58,84.626 264.226,86.1574 263.236,87.7535 260.289,92.5043 260.569,97.8284 263.244,102.597 264.495,104.826 266.269,106.934 268.436,107.2 269.463,107.325 270.577,107.038 271.691,106.751" />
	<path
		style="fill:none;stroke:#000000;stroke-width:4px;stroke-opacity:1;stroke-linecap:round"
		d="M 306.801,79.3615 C 306.3,78.2782 305.214,77.5402 304.221,76.8784 302.643,75.8269 300.65,74.9817 298.772,75.2441 296.542,75.5558 294.729,77.7895 293.835,79.8566" />
	<path
		style="fill:none;stroke:#000000;stroke-width:4px;stroke-opacity:1;stroke-linecap:round"
		d="M 303.213,90.8559 C 303.134,90.1567 303.056,89.4575 302.807,88.6114 302.464,87.4474 301.8,86.0054 301.033,86.0229 300.374,86.0379 299.64,87.1298 299.3,88.0872 299.036,88.8299 299.009,89.4918 298.982,90.1537" />
	<path
		style="fill:none;stroke:#000000;stroke-width:4px;stroke-opacity:1;stroke-linecap:round"
		d="M 303.213,90.8559 C 303.239,92.3592 303.265,93.8626 302.277,95.2919 301.881,95.8654 301.321,96.4269 300.831,96.3952 300.284,96.3599 299.823,95.585 299.513,94.8501 298.791,93.14 298.886,91.6468 298.982,90.1537" />
	<path
		style="fill:none;stroke:#000000;stroke-width:4px;stroke-opacity:1;stroke-linecap:round"
		d="M 268.868,107.212 C 268.971,107.552 269.28,108.572 269.28,108.572 269.613,109.672 269.959,110.784 270.51,111.792 271.574,113.736 273.007,115.454 274.3,117.252" />
	<path
		style="fill:none;stroke:#000000;stroke-width:4px;stroke-opacity:1;stroke-linecap:round"
		d="M 274.3,117.252 C 274.255,117.219 274.12,117.119 274.12,117.119 272.323,116.808 270.859,115.482 269.271,114.585" />
	<path
		style="fill:none;stroke:#000000;stroke-width:4px;stroke-opacity:1;stroke-linecap:round"
		d="M 269.271,114.585 C 267.851,119.784 268.057,120.517 267.989,121.245" />
	<path
		style="fill:none;stroke:#000000;stroke-width:4px;stroke-opacity:1;stroke-linecap:round"
		d="M 267.989,121.245 C 268.153,123.546 268.317,125.846 267.61,127.928 267.328,128.758 266.908,129.553 266.488,130.348" />
	<path
		style="fill:none;stroke:#000000;stroke-width:4px;stroke-opacity:1;stroke-linecap:round"
		d="M 282.932,144.139 C 283.753,146.601 284.575,149.063 284.403,151.548 284.351,152.307 284.206,153.069 284.06,153.831" />
	<path
		style="fill:none;stroke:#000000;stroke-width:4px;stroke-opacity:1;stroke-linecap:round"
		d="M 284.06,153.831 C 283.466,151.618 282.871,149.406 281.819,147.414 280.762,145.412 279.242,143.634 277.556,142.076 275.227,139.924 272.58,138.194 269.84,136.644 267.926,135.56 265.966,134.564 264.006,133.568" />
	<path
		style="fill:none;stroke:#000000;stroke-width:4px;stroke-opacity:1;stroke-linecap:round"
		d="M 284.06,153.831 C 281.647,163.799 279.234,173.767 277.238,183.814 273.993,200.146 271.85,216.687 269.707,233.229" />
	<path
		style="fill:none;stroke:#000000;stroke-width:4px;stroke-opacity:1;stroke-linecap:round"
		d="M 269.707,233.229 C 268.797,240.629 267.888,248.03 266.979,255.431" />
	<path
		style="fill:none;stroke:#000000;stroke-width:4px;stroke-opacity:1;stroke-linecap:round"
		d="M 266.979,255.431 C 269.088,257.93 271.198,260.429 270.59,261.966 270.02,263.409 267.06,264.004 264.1,264.6" />
	<path
		style="fill:none;stroke:#000000;stroke-width:4px;stroke-opacity:1;stroke-linecap:round"
		d="M 264.1,264.6 C 257.641,264.45 251.181,264.3 245.089,262.729 238.918,261.138 233.124,258.089 227.33,255.04" />
	<path
		style="fill:none;stroke:#000000;stroke-width:4px;stroke-opacity:1;stroke-linecap:round"
		d="M 227.33,255.04 C 225.17,253.613 223.01,252.185 222.65,250.413 222.277,248.58 223.834,246.378 225.391,244.176" />
	<path
		style="fill:none;stroke:#000000;stroke-width:4px;stroke-opacity:1;stroke-linecap:round"
		d="M 225.391,244.176 C 227.644,235.684 229.898,227.192 231.997,218.663 234.757,207.451 237.249,196.175 239.742,184.899" />
	<path
		style="fill:none;stroke:#000000;stroke-width:4px;stroke-opacity:1;stroke-linecap:round"
		d="M 266.488,130.348 C 261.561,136.702 256.633,143.055 252.757,149.961 246.72,160.714 243.231,172.807 239.742,184.899" />
	<path
		style="fill:none;stroke:#000000;stroke-width:4px;stroke-opacity:1;stroke-linecap:round"
		d="M 282.932,144.139 C 282.533,143.379 282.135,142.618 281.674,141.896 281.03,140.884 280.264,139.946 279.432,139.076 278.217,137.805 276.859,136.681 275.439,135.646 274.181,134.73 272.875,133.884 271.536,133.094 269.886,132.121 268.187,131.235 266.488,130.348" />
	<path
		style="fill:none;stroke:#000000;stroke-width:4px;stroke-opacity:1;stroke-linecap:round"
		d="M 308.328,115.792 C 307.216,115.916 306.072,115.983 304.897,115.993 303.66,116.004 302.388,115.951 301.08,115.835 299.835,115.724 298.557,115.557 297.247,115.331 296.015,115.119 294.754,114.856 293.465,114.542" />
	</g>
	<g cacani:groupmode="layer" id="arm_L top">
	<path
		style="fill:none;stroke:#000000;stroke-width:4px;stroke-opacity:1;stroke-linecap:round"
		d="M 268.234,144.267 C 267.515,144.127 266.795,143.987 266.086,143.971 263.024,143.9 260.163,146.127 257.948,148.606 253.475,153.613 251.639,159.646 249.804,165.68" />
	<path
		style="fill:none;stroke:#000000;stroke-width:4px;stroke-opacity:1;stroke-linecap:round"
		d="M 249.804,165.68 C 249.137,169.245 248.471,172.811 248.037,176.404 247.601,180.012 247.399,183.648 247.198,187.284" />
	<path
		style="fill:none;stroke:#000000;stroke-width:4px;stroke-opacity:1;stroke-linecap:round"
		d="M 247.198,187.284 C 253.118,189.49 259.038,191.696 265.145,192.277 269.912,192.73 274.793,192.194 279.674,191.657" />
	<path
		style="fill:none;stroke:#000000;stroke-width:4px;stroke-opacity:1;stroke-linecap:round"
		d="M 279.674,191.657 C 279.563,187.501 279.453,183.345 279.374,179.188 279.285,174.421 279.237,169.654 279.19,164.887" />
	<path
		style="fill:none;stroke:#000000;stroke-width:4px;stroke-opacity:1;stroke-linecap:round"
		d="M 279.19,164.887 C 279.152,161.236 279.114,157.585 278.104,154.074 277.534,152.095 276.656,150.159 275.314,148.62 274.249,147.398 272.892,146.425 271.448,145.671 270.407,145.127 269.321,144.697 268.234,144.267" />
	<path
		style="fill:none;stroke:#000000;stroke-width:4px;stroke-opacity:1;stroke-linecap:round"
		d="M 255.195,190.09 C 254.629,195.525 254.063,200.96 253.94,206.406 253.819,211.764 254.126,217.131 254.433,222.498" />
	<path
		style="fill:none;stroke:#000000;stroke-width:4px;stroke-opacity:1;stroke-linecap:round"
		d="M 254.433,222.498 C 258.522,224.189 262.612,225.88 266.743,227.458 278.875,232.09 291.361,235.741 303.847,239.393" />
	<path
		style="fill:none;stroke:#000000;stroke-width:4px;stroke-opacity:1;stroke-linecap:round"
		d="M 303.847,239.393 C 304.989,241.079 306.131,242.764 307.682,243.767 309.613,245.016 312.179,245.206 314.744,245.395" />
	<path
		style="fill:none;stroke:#000000;stroke-width:4px;stroke-opacity:1;stroke-linecap:round"
		d="M 314.744,245.395 C 318.293,245.269 321.841,245.143 324.227,243.274 325.823,242.025 326.898,239.996 327.974,237.967" />
	<path
		style="fill:none;stroke:#000000;stroke-width:4px;stroke-opacity:1;stroke-linecap:round"
		d="M 327.974,237.967 C 328.237,236.682 328.501,235.397 328.63,234.1 328.807,232.322 328.733,230.523 328.658,228.723" />
	<path
		style="fill:none;stroke:#000000;stroke-width:4px;stroke-opacity:1;stroke-linecap:round"
		d="M 328.658,228.723 C 328.197,225.276 327.737,221.83 325.775,220.727 324.087,219.778 321.288,220.564 318.489,221.349" />
	<path
		style="fill:none;stroke:#000000;stroke-width:4px;stroke-opacity:1;stroke-linecap:round"
		d="M 318.489,221.349 C 316.62,221.777 314.751,222.206 312.917,222.755 310.848,223.376 308.823,224.151 306.829,224.988 306.034,225.322 305.243,225.666 304.452,226.01" />
	<path
		style="fill:none;stroke:#000000;stroke-width:4px;stroke-opacity:1;stroke-linecap:round"
		d="M 304.452,226.01 C 301.905,225.144 299.359,224.277 296.877,223.27 288.45,219.851 280.773,214.806 273.095,209.76" />
	<path
		style="fill:none;stroke:#000000;stroke-width:4px;stroke-opacity:1;stroke-linecap:round"
		d="M 273.095,209.76 C 273.182,207.888 273.269,206.015 273.289,204.142 273.333,200.193 273.084,196.244 272.835,192.295" />
	</g>
	<g display="none" cacani:groupmode="sketch_layer" id="Sketch 1">
	</g>
</g>
</svg>
