<?xml version="1.0" encoding="UTF-8" standalone="no"?>
<!-- Created with Cacani (http://www.cacani.org/) -->
<svg
	xmlns="http://www.w3.org/2000/svg"
	xmlns:cacani="http://www.cacani.org/namespaces/cacani"
	version="1.1"
	width="480"
	height="490">
<g cacani:groupmode="cel" id="Run">
	<g display="none" cacani:groupmode="layer" id="Ref 1">
	</g>
	<g display="none" cacani:groupmode="sketch_layer" id="Sketch 2">
	</g>
	<g cacani:groupmode="layer" id="leg_R">
	<path
		style="fill:none;stroke:#000000;stroke-width:4px;stroke-opacity:1;stroke-linecap:round"
		d="M 205.646,246.056 C 200.743,263.773 195.839,281.49 190.695,299.137 188.161,307.83 185.569,316.507 182.977,325.184" />
	<path
		style="fill:none;stroke:#000000;stroke-width:4px;stroke-opacity:1;stroke-linecap:round"
		d="M 182.977,325.184 C 181.257,326.119 179.538,327.055 179.204,328.116 178.699,329.72 181.362,331.61 184.025,333.499" />
	<path
		style="fill:none;stroke:#000000;stroke-width:4px;stroke-opacity:1;stroke-linecap:round"
		d="M 184.025,333.499 C 188.673,336.056 193.321,338.612 198.309,339.984 202.62,341.171 207.185,341.472 211.75,341.773" />
	<path
		style="fill:none;stroke:#000000;stroke-width:4px;stroke-opacity:1;stroke-linecap:round"
		d="M 211.75,341.773 C 214.66,341.996 217.57,342.22 218.137,340.998 218.606,339.987 217.474,337.99 216.342,335.993" />
	<path
		style="fill:none;stroke:#000000;stroke-width:4px;stroke-opacity:1;stroke-linecap:round"
		d="M 216.342,335.993 C 220.645,326.052 224.948,316.112 228.591,305.933 231.738,297.138 234.393,288.164 237.047,279.191" />
	<path
		style="fill:none;stroke:#000000;stroke-width:4px;stroke-opacity:1;stroke-linecap:round"
		d="M 278.56,287.561 C 284.08,296.799 289.599,306.037 295.119,315.275" />
	<path
		style="fill:none;stroke:#000000;stroke-width:4px;stroke-opacity:1;stroke-linecap:round"
		d="M 295.119,315.275 C 297.921,316.955 300.723,318.635 300.764,320.47 300.801,322.181 298.44,324.026 296.078,325.871" />
	<path
		style="fill:none;stroke:#000000;stroke-width:4px;stroke-opacity:1;stroke-linecap:round"
		d="M 296.078,325.871 C 291.265,329.743 286.452,333.615 280.983,336.09 276.399,338.164 271.355,339.257 266.31,340.35" />
	<path
		style="fill:none;stroke:#000000;stroke-width:4px;stroke-opacity:1;stroke-linecap:round"
		d="M 266.31,340.35 C 262.288,340.559 258.265,340.768 257.658,338.781 257.304,337.622 258.112,335.715 258.921,333.808" />
	<path
		style="fill:none;stroke:#000000;stroke-width:4px;stroke-opacity:1;stroke-linecap:round"
		d="M 258.921,333.808 C 255.074,327.594 251.228,321.379 247.639,315.077 243.09,307.09 238.953,298.961 233.37,291.412" />
	<path
		style="fill:none;stroke:#000000;stroke-width:4px;stroke-opacity:1;stroke-linecap:round"
		d="M 214.521,341.921 C 211.695,346.651 208.868,351.382 204.407,353.175 202.348,354.002 199.942,354.204 197.535,354.405" />
	<path
		style="fill:none;stroke:#000000;stroke-width:4px;stroke-opacity:1;stroke-linecap:round"
		d="M 197.535,354.405 C 196.184,354.524 194.834,354.643 193.552,354.382 191.474,353.958 189.577,352.536 187.68,351.114" />
	<path
		style="fill:none;stroke:#000000;stroke-width:4px;stroke-opacity:1;stroke-linecap:round"
		d="M 187.68,351.114 C 175.057,349.507 162.434,347.9 149.811,346.293" />
	<path
		style="fill:none;stroke:#000000;stroke-width:4px;stroke-opacity:1;stroke-linecap:round"
		d="M 149.811,346.293 C 133.416,345.741 120.2,345.941 110.197,346.902" />
	<path
		style="fill:none;stroke:#000000;stroke-width:4px;stroke-opacity:1;stroke-linecap:round"
		d="M 179.223,328.93 C 176.949,328.686 174.675,328.441 172.401,328.261 152.128,326.654 131.863,330.157 111.598,334.045" />
	<path
		style="fill:none;stroke:#000000;stroke-width:4px;stroke-opacity:1;stroke-linecap:round"
		d="M 296.078,325.871 C 299.98,329.568 303.882,333.264 305.555,337.829 307.023,341.833 306.775,346.505 306.527,351.177" />
	<path
		style="fill:none;stroke:#000000;stroke-width:4px;stroke-opacity:1;stroke-linecap:round"
		d="M 306.527,351.177 C 311.026,360.685 315.524,370.192 320.775,379.253 327.404,390.693 335.234,401.42 343.164,412.088" />
	<path
		style="fill:none;stroke:#000000;stroke-width:4px;stroke-opacity:1;stroke-linecap:round"
		d="M 269.36,339.634 C 272.417,341.865 275.474,344.096 277.711,347 279.214,348.951 280.347,351.206 281.48,353.461" />
	<path
		style="fill:none;stroke:#000000;stroke-width:4px;stroke-opacity:1;stroke-linecap:round"
		d="M 281.48,353.461 C 282.595,356.533 283.71,359.604 284.979,362.613 290.803,376.412 299.878,388.873 310.282,399.76 318.503,408.362 327.553,415.983 336.603,423.603" />
	<path
		style="fill:none;stroke:#000000;stroke-width:4px;stroke-opacity:1;stroke-linecap:round"
		d="M 278.56,287.561 C 272.432,277.141 266.305,266.72 260.178,256.3" />
	<path
		style="fill:none;stroke:#000000;stroke-width:4px;stroke-opacity:1;stroke-linecap:round"
		d="M 349.823,416.468 C 353.723,415.031 357.624,413.594 361.663,412.857 365.784,412.106 370.049,412.084 374.269,412.141 375.98,412.164 377.684,412.201 379.388,412.237" />
	<path
		style="fill:none;stroke:#000000;stroke-width:4px;stroke-opacity:1;stroke-linecap:round"
		d="M 333.652,431.298 C 334.648,428.454 335.645,425.61 336.902,422.879 337.879,420.755 339.014,418.7 340.251,416.712 341.192,415.201 342.191,413.729 343.099,412.201 343.419,411.662 343.727,411.116 344.036,410.571" />
	<path
		style="fill:none;stroke:#000000;stroke-width:4px;stroke-opacity:1;stroke-linecap:round"
		d="M 333.652,431.298 C 335.143,431.492 336.634,431.685 338.113,431.947 339.306,432.159 340.49,432.415 341.675,432.671" />
	<path
		style="fill:none;stroke:#000000;stroke-width:4px;stroke-opacity:1;stroke-linecap:round"
		d="M 341.675,432.671 C 342.388,435.068 343.101,437.465 344.059,439.751 345.783,443.863 348.301,447.615 350.819,451.367" />
	<path
		style="fill:none;stroke:#000000;stroke-width:4px;stroke-opacity:1;stroke-linecap:round"
		d="M 350.819,451.367 C 351.468,452.358 352.117,453.349 353.064,453.638 353.818,453.868 354.761,453.653 355.59,453.332 356.446,453 357.181,452.555 357.915,452.109" />
	<path
		style="fill:none;stroke:#000000;stroke-width:4px;stroke-opacity:1;stroke-linecap:round"
		d="M 357.915,452.109 C 370.035,444.066 379.653,436.691 386.769,429.983" />
	<path
		style="fill:none;stroke:#000000;stroke-width:4px;stroke-opacity:1;stroke-linecap:round"
		d="M 386.769,429.983 C 389.976,427.619 393.182,425.255 396.093,422.573 399.308,419.609 402.161,416.257 405.015,412.905" />
	<path
		style="fill:none;stroke:#000000;stroke-width:4px;stroke-opacity:1;stroke-linecap:round"
		d="M 405.015,412.905 C 402.071,410.244 399.126,407.584 395.788,406.55 391.134,405.11 385.716,406.832 380.297,408.555" />
	<path
		style="fill:none;stroke:#000000;stroke-width:4px;stroke-opacity:1;stroke-linecap:round"
		d="M 380.297,408.555 C 375.111,408.391 369.925,408.227 364.869,408.983 360.507,409.634 356.242,410.97 351.976,412.306" />
	<path
		style="fill:none;stroke:#000000;stroke-width:4px;stroke-opacity:1;stroke-linecap:round"
		d="M 349.823,416.468 C 347.942,414.743 346.061,413.018 344.036,410.571 340.453,406.239 336.42,399.644 339.862,396.557 340.218,396.238 340.653,395.957 341.087,395.676" />
	<path
		style="fill:none;stroke:#000000;stroke-width:4px;stroke-opacity:1;stroke-linecap:round"
		d="M 341.087,395.676 C 341.724,395.452 342.36,395.228 342.988,395.255 343.761,395.288 344.52,395.7 345.202,396.167 350.192,399.581 351.084,405.944 351.976,412.306" />
	<path
		style="fill:none;stroke:#000000;stroke-width:4px;stroke-opacity:1;stroke-linecap:round"
		d="M 379.388,412.237 C 380.773,411.821 382.157,411.405 383.454,410.802 384.406,410.36 385.311,409.818 385.918,408.817 386.139,408.453 386.321,408.028 386.325,407.741 386.339,406.8 384.45,407.331 382.561,407.861" />
	<path
		style="fill:none;stroke:#000000;stroke-width:4px;stroke-opacity:1;stroke-linecap:round"
		d="M 349.823,416.468 C 350.144,415.719 350.465,414.97 350.842,414.25 351.188,413.586 351.582,412.946 351.976,412.306" />
	<path
		style="fill:none;stroke:#000000;stroke-width:4px;stroke-opacity:1;stroke-linecap:round"
		d="M 101.47,349.576 C 98.298,352.263 95.1262,354.95 91.5836,357.026 87.9703,359.144 83.971,360.627 79.9868,362.019 78.3712,362.584 76.7581,363.134 75.145,363.683" />
	<path
		style="fill:none;stroke:#000000;stroke-width:4px;stroke-opacity:1;stroke-linecap:round"
		d="M 111.579,330.102 C 111.617,333.115 111.656,336.129 111.411,339.125 111.221,341.455 110.859,343.775 110.378,346.067 110.012,347.809 109.578,349.534 109.249,351.281 109.133,351.897 109.03,352.515 108.927,353.133" />
	<path
		style="fill:none;stroke:#000000;stroke-width:4px;stroke-opacity:1;stroke-linecap:round"
		d="M 111.579,330.102 C 110.112,330.431 108.645,330.761 107.165,331.021 105.973,331.231 104.772,331.397 103.571,331.562" />
	<path
		style="fill:none;stroke:#000000;stroke-width:4px;stroke-opacity:1;stroke-linecap:round"
		d="M 103.571,331.562 C 102.08,329.554 100.589,327.547 98.9057,325.728 95.8768,322.456 92.2254,319.794 88.574,317.132" />
	<path
		style="fill:none;stroke:#000000;stroke-width:4px;stroke-opacity:1;stroke-linecap:round"
		d="M 88.574,317.132 C 87.6244,316.424 86.6748,315.716 85.6864,315.768 84.8989,315.81 84.0867,316.335 83.418,316.921 82.7278,317.526 82.1904,318.196 81.6529,318.867" />
	<path
		style="fill:none;stroke:#000000;stroke-width:4px;stroke-opacity:1;stroke-linecap:round"
		d="M 81.6529,318.867 C 73.0237,330.576 66.5158,340.801 62.1293,349.542" />
	<path
		style="fill:none;stroke:#000000;stroke-width:4px;stroke-opacity:1;stroke-linecap:round"
		d="M 62.1293,349.542 C 59.9271,352.861 57.7249,356.181 55.91,359.698 53.9052,363.584 52.3731,367.712 50.8409,371.839" />
	<path
		style="fill:none;stroke:#000000;stroke-width:4px;stroke-opacity:1;stroke-linecap:round"
		d="M 50.8409,371.839 C 54.5189,373.329 58.1969,374.819 61.6868,374.646 66.5527,374.405 71.0529,370.929 75.5531,367.454" />
	<path
		style="fill:none;stroke:#000000;stroke-width:4px;stroke-opacity:1;stroke-linecap:round"
		d="M 75.5531,367.454 C 80.481,365.83 85.4089,364.207 89.9,361.765 93.7745,359.658 97.3238,356.941 100.873,354.224" />
	<path
		style="fill:none;stroke:#000000;stroke-width:4px;stroke-opacity:1;stroke-linecap:round"
		d="M 101.47,349.576 C 103.828,350.552 106.186,351.528 108.927,353.133 113.778,355.974 119.827,360.788 117.651,364.868 117.426,365.289 117.114,365.702 116.802,366.116" />
	<path
		style="fill:none;stroke:#000000;stroke-width:4px;stroke-opacity:1;stroke-linecap:round"
		d="M 116.802,366.116 C 116.281,366.544 115.759,366.973 115.16,367.163 114.424,367.397 113.569,367.27 112.768,367.065 106.91,365.567 103.892,359.895 100.873,354.224" />
	<path
		style="fill:none;stroke:#000000;stroke-width:4px;stroke-opacity:1;stroke-linecap:round"
		d="M 75.145,363.683 C 73.9869,364.549 72.8287,365.414 71.8165,366.425 71.0739,367.166 70.4098,367.985 70.1822,369.134 70.0994,369.552 70.0743,370.013 70.1689,370.285 70.4787,371.173 72.0715,370.027 73.6642,368.882" />
	<path
		style="fill:none;stroke:#000000;stroke-width:4px;stroke-opacity:1;stroke-linecap:round"
		d="M 101.47,349.576 C 101.425,350.39 101.38,351.203 101.273,352.009 101.175,352.752 101.024,353.488 100.873,354.224" />
	</g>
	<g cacani:groupmode="layer" id="arm_R">
	<path
		style="fill:none;stroke:#000000;stroke-width:4px;stroke-opacity:1;stroke-linecap:round"
		d="M 272.186,177.198 C 268.801,178.445 265.416,179.692 262.032,180.938 258.643,182.187 255.254,183.435 251.865,184.683" />
	<path
		style="fill:none;stroke:#000000;stroke-width:4px;stroke-opacity:1;stroke-linecap:round"
		d="M 251.865,184.683 C 248.15,185.906 244.434,187.129 240.719,188.351" />
	<path
		style="fill:none;stroke:#000000;stroke-width:4px;stroke-opacity:1;stroke-linecap:round"
		d="M 240.719,188.351 C 239.445,183.853 238.171,179.355 237.247,174.789 235.999,168.63 235.388,162.348 234.776,156.067" />
	<path
		style="fill:none;stroke:#000000;stroke-width:4px;stroke-opacity:1;stroke-linecap:round"
		d="M 234.776,156.067 C 237.444,155.067 240.113,154.067 242.814,153.175 250.318,150.696 258.074,149.047 265.83,147.398" />
	<path
		style="fill:none;stroke:#000000;stroke-width:4px;stroke-opacity:1;stroke-linecap:round"
		d="M 237.361,175.276 C 234.455,175.858 231.548,176.44 228.712,177.247 223.469,178.74 218.464,181.003 213.459,183.266" />
	<path
		style="fill:none;stroke:#000000;stroke-width:4px;stroke-opacity:1;stroke-linecap:round"
		d="M 213.459,183.266 C 209.96,187.658 206.461,192.049 203.402,196.719 198.756,203.812 195.125,211.548 191.495,219.283" />
	<path
		style="fill:none;stroke:#000000;stroke-width:4px;stroke-opacity:1;stroke-linecap:round"
		d="M 191.495,219.283 C 192.635,221.357 193.776,223.43 194.917,225.504" />
	<path
		style="fill:none;stroke:#000000;stroke-width:4px;stroke-opacity:1;stroke-linecap:round"
		d="M 194.917,225.504 C 196.117,227.622 197.316,229.739 197.029,232.082 196.85,233.539 196.096,235.083 194.935,235.833 193.895,236.504 192.529,236.54 191.163,236.575" />
	<path
		style="fill:none;stroke:#000000;stroke-width:4px;stroke-opacity:1;stroke-linecap:round"
		d="M 191.163,236.575 C 189.424,236.52 187.685,236.465 185.965,236.25 184.459,236.06 182.968,235.748 181.477,235.436" />
	<path
		style="fill:none;stroke:#000000;stroke-width:4px;stroke-opacity:1;stroke-linecap:round"
		d="M 181.477,235.436 C 180.788,234.983 180.1,234.53 179.887,233.891 179.643,233.158 180.026,232.18 180.55,231.436 182.053,229.302 184.719,229.096 187.385,228.89" />
	<path
		style="fill:none;stroke:#000000;stroke-width:4px;stroke-opacity:1;stroke-linecap:round"
		d="M 192.707,236.473 C 192.327,240.936 191.947,245.4 189.215,246.508 187.805,247.08 185.768,246.759 183.731,246.437" />
	<path
		style="fill:none;stroke:#000000;stroke-width:4px;stroke-opacity:1;stroke-linecap:round"
		d="M 183.731,246.437 C 179.038,245.097 174.346,243.757 170.638,240.422 169.974,239.825 169.341,239.163 169.059,238.379 168.802,237.666 168.836,236.851 168.869,236.036" />
	<path
		style="fill:none;stroke:#000000;stroke-width:4px;stroke-opacity:1;stroke-linecap:round"
		d="M 168.869,236.036 C 169.403,233.506 169.937,230.976 170.859,228.629 172.729,223.87 176.197,219.865 179.784,215.917" />
	<path
		style="fill:none;stroke:#000000;stroke-width:4px;stroke-opacity:1;stroke-linecap:round"
		d="M 179.784,215.917 C 179.83,215.798 179.97,215.443 180.063,215.204 184.444,204.034 188.824,192.865 194.619,182.441 197.577,177.121 200.904,171.996 204.23,166.87" />
	<path
		style="fill:none;stroke:#000000;stroke-width:4px;stroke-opacity:1;stroke-linecap:round"
		d="M 204.106,167.063 C 204.38,166.969 204.653,166.876 204.927,166.782 206.974,166.081 209.025,165.391 211.084,164.723 217.318,162.697 223.62,160.872 229.971,159.247 231.639,158.821 233.309,158.408 234.98,157.995" />
	<path
		style="fill:none;stroke:#000000;stroke-width:4px;stroke-opacity:1;stroke-linecap:round"
		d="M 265.83,147.398 C 268.888,147.209 271.946,147.019 274.506,147.959 278.143,149.293 280.775,152.906 283.407,156.518" />
	<path
		style="fill:none;stroke:#000000;stroke-width:4px;stroke-opacity:1;stroke-linecap:round"
		d="M 283.407,156.518 C 282.878,160.494 282.348,164.47 280.622,167.812 278.749,171.438 275.467,174.318 272.186,177.198" />
	</g>
	<g cacani:groupmode="layer" id="body">
	<path
		style="fill:none;stroke:#000000;stroke-width:4px;stroke-opacity:1;stroke-linecap:round"
		d="M 307.954,33.6868 C 303.226,31.1792 297.889,29.8776 292.624,28.9125 285.932,27.6854 278.948,27.0949 272.226,28.1486 265.815,29.1533 259.152,31.2509 254.159,35.3953" />
	<path
		style="fill:none;stroke:#000000;stroke-width:4px;stroke-opacity:1;stroke-linecap:round"
		d="M 254.159,35.3953 C 254.845,33.87 255.53,32.3447 256.576,31.0477 257.31,30.1379 258.222,29.3405 259.244,28.7986 260.588,28.0856 262.123,27.8146 263.658,27.5436" />
	<path
		style="fill:none;stroke:#000000;stroke-width:4px;stroke-opacity:1;stroke-linecap:round"
		d="M 263.658,27.5436 C 260.229,27.8944 256.8,28.2452 254.262,29.9776 252.094,31.4576 250.577,33.946 249.06,36.4345" />
	<path
		style="fill:none;stroke:#000000;stroke-width:4px;stroke-opacity:1;stroke-linecap:round"
		d="M 249.06,36.4345 C 246.036,36.0781 243.012,35.7218 240.649,36.7548 237.905,37.9544 236.054,41.0275 234.202,44.1006" />
	<path
		style="fill:none;stroke:#000000;stroke-width:4px;stroke-opacity:1;stroke-linecap:round"
		d="M 241.977,42.2359 C 241.608,42.0121 241.24,41.7883 240.866,41.6421 238.758,40.8175 236.48,42.4591 234.202,44.1006" />
	<path
		style="fill:none;stroke:#000000;stroke-width:4px;stroke-opacity:1;stroke-linecap:round"
		d="M 241.977,42.2359 C 240.555,42.9391 239.134,43.6423 237.966,44.6175 235.463,46.7091 234.129,50.0521 232.152,52.758 229.307,56.6521 225.129,59.2268 220.951,61.8014" />
	<path
		style="fill:none;stroke:#000000;stroke-width:4px;stroke-opacity:1;stroke-linecap:round"
		d="M 220.951,61.8014 C 223.833,62.6328 226.715,63.4641 229.186,62.6297 230.713,62.1141 232.083,60.9624 233.453,59.8107" />
	<path
		style="fill:none;stroke:#000000;stroke-width:4px;stroke-opacity:1;stroke-linecap:round"
		d="M 233.453,59.8107 C 232.059,62.76 230.665,65.7093 229.864,68.8236 229.115,71.7388 228.885,74.7986 228.829,77.8453 228.761,81.5042 228.943,85.1443 229.538,88.7277 230.086,92.0244 230.984,95.2731 232.113,98.4245 234.035,103.791 236.628,108.876 239.22,113.961" />
	<path
		style="fill:none;stroke:#000000;stroke-width:4px;stroke-opacity:1;stroke-linecap:round"
		d="M 239.22,113.961 C 239.934,112.162 240.647,110.364 240.875,108.514 241.145,106.318 240.729,104.048 240.313,101.779" />
	<path
		style="fill:none;stroke:#000000;stroke-width:4px;stroke-opacity:1;stroke-linecap:round"
		d="M 240.313,101.779 C 244.548,109.888 246.047,111.525 247.53,113.155 249.351,115.156 251.247,117.139 253.456,118.702 255.769,120.338 258.353,121.59 260.97,122.675 263.66,123.791 266.415,124.987 269.314,125.269" />
	<path
		style="fill:none;stroke:#000000;stroke-width:4px;stroke-opacity:1;stroke-linecap:round"
		d="M 307.954,33.6868 C 311.474,35.0997 314.993,36.5127 317.411,35.1343 318.876,34.2988 319.936,32.4378 320.996,30.5768" />
	<path
		style="fill:none;stroke:#000000;stroke-width:4px;stroke-opacity:1;stroke-linecap:round"
		d="M 320.996,30.5768 C 321.464,33.689 321.931,36.8011 320.597,39.0675 319.755,40.4994 318.193,41.5937 316.631,42.6879" />
	<path
		style="fill:none;stroke:#000000;stroke-width:4px;stroke-opacity:1;stroke-linecap:round"
		d="M 316.631,42.6879 C 321.005,46.2688 325.38,49.8496 328.305,54.7633 332.783,62.286 333.864,72.9327 329.766,80.4355 328.635,82.505 327.11,84.3353 325.586,86.1657" />
	<path
		style="fill:none;stroke:#000000;stroke-width:4px;stroke-opacity:1;stroke-linecap:round"
		d="M 325.586,86.1657 C 325.874,84.7742 326.163,83.3828 326.177,81.9914 326.193,80.3917 325.845,78.792 325.498,77.1923" />
	<path
		style="fill:none;stroke:#000000;stroke-width:4px;stroke-opacity:1;stroke-linecap:round"
		d="M 325.498,77.1923 C 322.242,84.5878 321.06,86.7092 319.496,88.5052 318.178,90.0181 316.627,91.3133 315.122,92.6397" />
	<path
		style="fill:none;stroke:#000000;stroke-width:4px;stroke-opacity:1;stroke-linecap:round"
		d="M 313.233,69.7163 C 314.462,72.5381 314.929,75.6605 315.293,78.7165 316.072,85.2539 315.313,91.9253 314.419,98.4479" />
	<path
		style="fill:none;stroke:#000000;stroke-width:4px;stroke-opacity:1;stroke-linecap:round"
		d="M 314.419,98.4479 C 316.266,101.306 317.216,101.727 317.984,102.372 318.668,102.945 319.263,103.752 319.422,104.63 319.582,105.514 318.614,106.337 317.86,106.826 316.866,107.469 315.845,108.08 314.771,108.578" />
	<path
		style="fill:none;stroke:#000000;stroke-width:4px;stroke-opacity:1;stroke-linecap:round"
		d="M 314.771,108.578 C 315.103,111.363 316.122,112.374 316.138,113.61 316.155,114.896 315.078,116.138 313.98,116.808" />
	<path
		style="fill:none;stroke:#000000;stroke-width:4px;stroke-opacity:1;stroke-linecap:round"
		d="M 313.98,116.808 C 310.398,117.361 306.816,117.913 303.238,117.844 300.463,117.791 297.69,117.364 294.918,116.937" />
	<path
		style="fill:none;stroke:#000000;stroke-width:4px;stroke-opacity:1;stroke-linecap:round"
		d="M 310.157,117.342 C 311.137,118.674 312.116,120.006 311.69,121.211 311.502,121.741 311.041,122.247 310.541,122.638 309.946,123.104 309.295,123.408 308.645,123.712" />
	<path
		style="fill:none;stroke:#000000;stroke-width:4px;stroke-opacity:1;stroke-linecap:round"
		d="M 308.645,123.712 C 308.668,124.66 308.692,125.608 308.765,126.642 308.896,128.505 309.188,130.649 308.295,131.904 307.486,133.041 305.707,133.45 303.928,133.859" />
	<path
		style="fill:none;stroke:#000000;stroke-width:4px;stroke-opacity:1;stroke-linecap:round"
		d="M 303.928,133.859 C 302.129,134.118 300.329,134.377 298.527,134.439 295.639,134.538 292.744,134.129 289.85,133.721" />
	<path
		style="fill:none;stroke:#000000;stroke-width:4px;stroke-opacity:1;stroke-linecap:round"
		d="M 289.85,133.721 C 289.467,135.698 289.084,137.675 288.608,139.629 287.915,142.47 287.027,145.262 286.139,148.055" />
	<path
		style="fill:none;stroke:#000000;stroke-width:4px;stroke-opacity:1;stroke-linecap:round"
		d="M 313.233,69.7163 C 312.015,68.3382 310.797,66.9602 309.411,65.7688 307.699,64.2965 305.731,63.1093 303.693,62.1076 298.624,59.6162 293.122,58.2723 287.62,56.9283" />
	<path
		style="fill:none;stroke:#000000;stroke-width:4px;stroke-opacity:1;stroke-linecap:round"
		d="M 287.62,56.9283 C 291.469,60.8796 294.77,65.3753 297.729,70.0313" />
	<path
		style="fill:none;stroke:#000000;stroke-width:4px;stroke-opacity:1;stroke-linecap:round"
		d="M 297.729,70.0313 C 282.972,65.9605 279.007,65.0101 275.01,65.0879" />
	<path
		style="fill:none;stroke:#000000;stroke-width:4px;stroke-opacity:1;stroke-linecap:round"
		d="M 279.462,65.4872 C 279.288,65.6558 278.769,66.1617 278.769,66.1617 277.985,66.926 277.471,67.9414 276.996,68.928 275.846,71.3114 275.423,73.9989 274.997,76.6104" />
	<path
		style="fill:none;stroke:#000000;stroke-width:4px;stroke-opacity:1;stroke-linecap:round"
		d="M 274.997,76.6104 C 274.604,80.1016 274.529,81.5721 274.576,83.0365 274.721,87.5935 275.75,92.0825 276.549,96.5712" />
	<path
		style="fill:none;stroke:#000000;stroke-width:4px;stroke-opacity:1;stroke-linecap:round"
		d="M 276.549,96.5712 C 274.594,93.948 272.639,91.3248 269.657,89.2507 268.569,88.4936 267.344,87.8097 266.242,87.907 264.712,88.0421 263.42,89.6841 262.503,91.3707 259.774,96.3912 260.371,101.808 263.38,106.517 264.787,108.719 266.721,110.765 268.948,110.91 270.002,110.978 271.122,110.62 272.243,110.262" />
	<path
		style="fill:none;stroke:#000000;stroke-width:4px;stroke-opacity:1;stroke-linecap:round"
		d="M 306.467,80.2568 C 305.892,79.1808 304.741,78.4913 303.689,77.874 302.017,76.8934 299.934,76.1477 298.033,76.5254 295.775,76.974 294.056,79.3595 293.265,81.5211" />
	<path
		style="fill:none;stroke:#000000;stroke-width:4px;stroke-opacity:1;stroke-linecap:round"
		d="M 303.478,92.1962 C 303.357,91.4873 303.236,90.7784 302.932,89.9296 302.515,88.7618 301.752,87.3293 300.971,87.3921 300.299,87.446 299.614,88.6031 299.323,89.6 299.097,90.3734 299.108,91.0504 299.119,91.7273" />
	<path
		style="fill:none;stroke:#000000;stroke-width:4px;stroke-opacity:1;stroke-linecap:round"
		d="M 303.478,92.1962 C 303.593,93.7287 303.707,95.2613 302.783,96.7776 302.412,97.386 301.874,97.9918 301.372,97.9882 300.811,97.9841 300.296,97.2203 299.936,96.4886 299.1,94.7858 299.11,93.2566 299.119,91.7273" />
	<path
		style="fill:none;stroke:#000000;stroke-width:4px;stroke-opacity:1;stroke-linecap:round"
		d="M 269.389,110.898 C 269.514,111.238 269.889,112.261 269.889,112.261 270.293,113.364 270.711,114.478 271.333,115.474 272.532,117.396 274.095,119.065 275.52,120.825" />
	<path
		style="fill:none;stroke:#000000;stroke-width:4px;stroke-opacity:1;stroke-linecap:round"
		d="M 275.52,120.825 C 275.472,120.793 275.329,120.699 275.329,120.699 273.477,120.487 271.905,119.219 270.232,118.397" />
	<path
		style="fill:none;stroke:#000000;stroke-width:4px;stroke-opacity:1;stroke-linecap:round"
		d="M 270.232,118.397 C 269.088,123.786 269.34,124.522 269.314,125.269" />
	<path
		style="fill:none;stroke:#000000;stroke-width:4px;stroke-opacity:1;stroke-linecap:round"
		d="M 269.314,125.269 C 269.44,127.263 269.567,129.257 269.24,131.189 269.042,132.356 268.679,133.501 268.315,134.645" />
	<path
		style="fill:none;stroke:#000000;stroke-width:4px;stroke-opacity:1;stroke-linecap:round"
		d="M 286.139,148.055 C 286.244,149.084 286.349,150.113 286.47,151.142 286.618,152.406 286.789,153.669 286.853,154.937 286.905,155.956 286.887,156.978 286.869,158.001" />
	<path
		style="fill:none;stroke:#000000;stroke-width:4px;stroke-opacity:1;stroke-linecap:round"
		d="M 286.869,158.001 C 286.308,155.638 285.747,153.276 284.624,151.212 283.289,148.757 281.16,146.724 278.962,144.864 276.835,143.065 274.645,141.427 272.278,140.064 270.547,139.067 268.721,138.216 266.896,137.366" />
	<path
		style="fill:none;stroke:#000000;stroke-width:4px;stroke-opacity:1;stroke-linecap:round"
		d="M 286.869,158.001 C 286.022,168.443 285.174,178.886 282.997,189.003 279.441,205.526 272.338,221.181 265.236,236.836" />
	<path
		style="fill:none;stroke:#000000;stroke-width:4px;stroke-opacity:1;stroke-linecap:round"
		d="M 265.236,236.836 C 264.436,238.789 263.636,240.743 262.752,242.658 262.014,244.257 261.217,245.829 260.42,247.402" />
	<path
		style="fill:none;stroke:#000000;stroke-width:4px;stroke-opacity:1;stroke-linecap:round"
		d="M 260.42,247.402 C 262.641,250.011 264.862,252.62 263.834,254.236 263.27,255.124 261.724,255.712 260.178,256.3" />
	<path
		style="fill:none;stroke:#000000;stroke-width:4px;stroke-opacity:1;stroke-linecap:round"
		d="M 260.178,256.3 C 258.418,256.524 256.658,256.749 254.896,256.887 251.445,257.156 247.983,257.092 244.491,256.918 232.849,256.335 220.867,254.522 210.706,249.067 208.659,247.968 206.685,246.721 204.712,245.474" />
	<path
		style="fill:none;stroke:#000000;stroke-width:4px;stroke-opacity:1;stroke-linecap:round"
		d="M 204.712,245.474 C 202.966,243.769 201.219,242.065 201.612,240.547 201.975,239.142 204.168,237.897 206.092,237.56 207.518,237.31 208.796,237.56 210.074,237.809" />
	<path
		style="fill:none;stroke:#000000;stroke-width:4px;stroke-opacity:1;stroke-linecap:round"
		d="M 210.074,237.809 C 211.66,235.303 213.246,232.798 214.827,230.29 221.647,219.473 228.383,208.605 235.119,197.736" />
	<path
		style="fill:none;stroke:#000000;stroke-width:4px;stroke-opacity:1;stroke-linecap:round"
		d="M 268.315,134.645 C 263.953,143.03 259.591,151.414 255.2,159.784 248.551,172.458 241.835,185.097 235.119,197.736" />
	<path
		style="fill:none;stroke:#000000;stroke-width:4px;stroke-opacity:1;stroke-linecap:round"
		d="M 286.139,148.055 C 285.734,147.405 285.33,146.755 284.885,146.133 284.007,144.909 282.968,143.796 281.852,142.778 280.602,141.636 279.255,140.613 277.858,139.66 276.613,138.811 275.329,138.019 274.003,137.306 272.16,136.316 270.238,135.481 268.315,134.645" />
	<path
		style="fill:none;stroke:#000000;stroke-width:4px;stroke-opacity:1;stroke-linecap:round"
		d="M 310.157,117.342 C 309.03,117.534 307.867,117.67 306.668,117.749 305.407,117.832 304.105,117.852 302.764,117.811 301.487,117.771 300.173,117.674 298.824,117.521 297.553,117.377 296.251,117.182 294.918,116.937" />
	</g>
	<g cacani:groupmode="layer" id="arm_L top">
	<path
		style="fill:none;stroke:#000000;stroke-width:4px;stroke-opacity:1;stroke-linecap:round"
		d="M 258.427,166.386 C 258.322,167.921 258.216,169.457 258.594,170.794 259.414,173.687 262.5,175.652 265.303,177.583 269.008,180.135 272.217,182.626 275.425,185.117" />
	<path
		style="fill:none;stroke:#000000;stroke-width:4px;stroke-opacity:1;stroke-linecap:round"
		d="M 275.425,185.117 C 277.722,186.904 280.02,188.69 282.466,190.236 285.622,192.23 289.026,193.824 292.431,195.418" />
	<path
		style="fill:none;stroke:#000000;stroke-width:4px;stroke-opacity:1;stroke-linecap:round"
		d="M 292.431,195.418 C 296.373,190.696 300.316,185.973 302.826,180.554 304.786,176.323 305.874,171.668 306.961,167.012" />
	<path
		style="fill:none;stroke:#000000;stroke-width:4px;stroke-opacity:1;stroke-linecap:round"
		d="M 306.961,167.012 C 303.008,165.12 299.054,163.229 294.995,161.597 291.355,160.134 287.63,158.88 283.904,157.626" />
	<path
		style="fill:none;stroke:#000000;stroke-width:4px;stroke-opacity:1;stroke-linecap:round"
		d="M 283.904,157.626 C 280.062,156.105 276.22,154.583 272.05,154.811 267.313,155.07 262.154,157.585 259.993,161.604 259.207,163.065 258.817,164.725 258.427,166.386" />
	<path
		style="fill:none;stroke:#000000;stroke-width:4px;stroke-opacity:1;stroke-linecap:round"
		d="M 296.739,190.09 C 306.089,193.182 315.438,196.275 324.788,199.367" />
	<path
		style="fill:none;stroke:#000000;stroke-width:4px;stroke-opacity:1;stroke-linecap:round"
		d="M 324.788,199.367 C 327.563,196.066 330.339,192.765 332.945,189.345 341.641,177.933 348.448,165.19 355.256,152.448" />
	<path
		style="fill:none;stroke:#000000;stroke-width:4px;stroke-opacity:1;stroke-linecap:round"
		d="M 355.256,152.448 C 357.766,151.92 360.276,151.391 361.97,149.917 363.626,148.475 364.503,146.13 365.379,143.785" />
	<path
		style="fill:none;stroke:#000000;stroke-width:4px;stroke-opacity:1;stroke-linecap:round"
		d="M 365.379,143.785 C 365.74,141.145 366.101,138.505 365.789,135.937 365.53,133.793 364.802,131.7 364.073,129.606" />
	<path
		style="fill:none;stroke:#000000;stroke-width:4px;stroke-opacity:1;stroke-linecap:round"
		d="M 364.073,129.606 C 363.41,128.91 362.747,128.215 362.009,127.579 360.441,126.227 358.537,125.145 356.549,124.755 354.448,124.343 352.255,124.706 350.061,125.068" />
	<path
		style="fill:none;stroke:#000000;stroke-width:4px;stroke-opacity:1;stroke-linecap:round"
		d="M 350.061,125.068 C 347.255,125.666 344.449,126.264 343.775,128.349 343.583,128.944 343.565,129.661 343.576,130.364 343.62,132.988 344.084,135.423 344.549,137.858" />
	<path
		style="fill:none;stroke:#000000;stroke-width:4px;stroke-opacity:1;stroke-linecap:round"
		d="M 344.549,137.858 C 344.61,139.014 344.671,140.17 344.58,141.314 344.443,143.05 343.958,144.757 343.459,146.437 343.301,146.97 343.141,147.501 342.982,148.031" />
	<path
		style="fill:none;stroke:#000000;stroke-width:4px;stroke-opacity:1;stroke-linecap:round"
		d="M 342.982,148.031 C 340.2,152.366 337.418,156.701 334.325,160.796 330.003,166.517 325.073,171.769 320.143,177.021" />
	<path
		style="fill:none;stroke:#000000;stroke-width:4px;stroke-opacity:1;stroke-linecap:round"
		d="M 320.143,177.021 C 315.234,175.746 310.324,174.471 305.462,173.037 305.457,173.036 305.453,173.034 305.449,173.033" />
	</g>
	<g display="none" cacani:groupmode="sketch_layer" id="Sketch 1">
	</g>
</g>
</svg>
