<?xml version="1.0" encoding="UTF-8" standalone="no"?>
<!-- Created with Cacani (http://www.cacani.org/) -->
<svg
	xmlns="http://www.w3.org/2000/svg"
	xmlns:cacani="http://www.cacani.org/namespaces/cacani"
	version="1.1"
	width="480"
	height="490">
<g cacani:groupmode="cel" id="Run">
	<g display="none" cacani:groupmode="layer" id="Ref 1">
	</g>
	<g display="none" cacani:groupmode="sketch_layer" id="Sketch 2">
	</g>
	<g cacani:groupmode="layer" id="leg_R">
	<path
		style="fill:none;stroke:#252525;stroke-width:4px;stroke-opacity:1;stroke-linecap:round"
		d="M 199.458,261.634 C 199.336,269.873 199.213,278.111 199.137,286.346 199.059,294.724 199.029,303.097 199.119,311.488 199.17,316.264 199.259,321.045 198.922,325.797 198.71,328.784 198.329,331.76 197.949,334.737 197.929,334.89 197.793,335.084 197.748,335.149" />
	<path
		style="fill:none;stroke:#252525;stroke-width:4px;stroke-opacity:1;stroke-linecap:round"
		d="M 197.748,335.149 C 196.931,335.78 196.113,336.412 195.492,337.299 194.848,338.219 194.415,339.416 194.573,340.398 194.894,342.406 197.683,343.522 200.013,344.149 201.508,344.552 202.813,344.753 204.17,344.985 205.518,345.214 206.915,345.474 208.313,345.733" />
	<path
		style="fill:none;stroke:#252525;stroke-width:4px;stroke-opacity:1;stroke-linecap:round"
		d="M 208.313,345.733 C 209.248,345.862 210.184,345.991 211.125,346.113 216.388,346.796 221.858,347.272 226.981,346.113 229.385,345.569 231.712,344.664 234.039,343.76" />
	<path
		style="fill:none;stroke:#252525;stroke-width:4px;stroke-opacity:1;stroke-linecap:round"
		d="M 234.039,343.76 C 235.057,343.014 236.381,342.593 237.077,341.496 237.546,340.757 237.695,339.713 237.499,338.833 237.17,337.359 235.218,337.055 234.124,336.101" />
	<path
		style="fill:none;stroke:#252525;stroke-width:4px;stroke-opacity:1;stroke-linecap:round"
		d="M 234.124,336.101 C 233.655,334.492 233.807,332.796 233.709,331.141 233.493,327.491 233.469,323.837 233.337,320.185 233.029,311.724 233.195,303.257 233.469,294.804 233.562,291.92 234.044,289.056 234.077,286.171 234.103,283.884 233.815,281.598 233.795,279.311" />
	<path
		style="fill:none;stroke:#252525;stroke-width:4px;stroke-opacity:1;stroke-linecap:round"
		d="M 247.34,290.169 C 247.22,297.556 247.1,304.942 247.314,312.319 247.524,319.567 248.056,326.807 248.589,334.046" />
	<path
		style="fill:none;stroke:#252525;stroke-width:4px;stroke-opacity:1;stroke-linecap:round"
		d="M 248.589,334.046 C 249.682,334.591 250.939,334.892 251.84,335.738 252.597,336.448 252.86,337.762 252.705,338.843 252.525,340.111 251.137,340.932 250.059,341.531 248.789,342.238 247.5,342.903 246.217,343.582" />
	<path
		style="fill:none;stroke:#252525;stroke-width:4px;stroke-opacity:1;stroke-linecap:round"
		d="M 246.217,343.582 C 244.042,344.435 241.75,344.982 239.477,345.541 236.666,346.232 233.84,346.954 230.958,347.238 225.94,347.732 220.88,347.546 215.841,347.567" />
	<path
		style="fill:none;stroke:#252525;stroke-width:4px;stroke-opacity:1;stroke-linecap:round"
		d="M 215.841,347.567 C 214.708,347.605 213.441,347.256 212.567,346.424 212.186,346.06 211.953,345.473 211.908,344.924 211.86,344.338 212.046,343.694 212.395,343.265 213.076,342.428 214.127,342.078 214.982,341.465" />
	<path
		style="fill:none;stroke:#252525;stroke-width:4px;stroke-opacity:1;stroke-linecap:round"
		d="M 214.982,341.465 C 213.161,327.957 209.444,314.777 206.745,301.419 205.882,297.146 205.322,292.816 204.694,288.502 204.31,285.872 203.781,283.264 203.43,280.629 203.172,278.689 203.083,276.727 202.815,274.788 202.58,273.097 202.179,271.433 201.913,269.747 201.727,268.575 201.733,267.376 201.56,266.202 201.357,264.832 200.768,263.526 200.676,262.143" />
	<path
		style="fill:none;stroke:#252525;stroke-width:4px;stroke-opacity:1;stroke-linecap:round"
		d="M 231.6,344.674 C 231.694,347.153 231.789,349.633 231.648,352.226 231.519,354.607 231.193,357.084 229.956,358.95 228.96,360.454 227.372,361.56 225.785,362.667" />
	<path
		style="fill:none;stroke:#252525;stroke-width:4px;stroke-opacity:1;stroke-linecap:round"
		d="M 225.785,362.667 C 222.122,365.175 218.565,367.862 214.958,370.465" />
	<path
		style="fill:none;stroke:#252525;stroke-width:4px;stroke-opacity:1;stroke-linecap:round"
		d="M 214.958,370.465 C 211.495,373.301 208.422,376.621 205.332,379.881 202.846,382.502 200.313,385.079 197.911,387.78" />
	<path
		style="fill:none;stroke:#252525;stroke-width:4px;stroke-opacity:1;stroke-linecap:round"
		d="M 197.911,387.78 C 190.491,396.896 183.07,406.013 175.649,415.129" />
	<path
		style="fill:none;stroke:#252525;stroke-width:4px;stroke-opacity:1;stroke-linecap:round"
		d="M 203.867,344.924 C 203.813,345.81 203.759,346.689 203.497,347.502 203.247,348.282 202.805,349 202.364,349.719" />
	<path
		style="fill:none;stroke:#252525;stroke-width:4px;stroke-opacity:1;stroke-linecap:round"
		d="M 202.364,349.719 C 200.898,351.724 199.432,353.729 197.737,355.516 194.812,358.602 191.205,361.04 188.2,364.06 185.597,366.677 183.445,369.73 181.442,372.858 176.618,380.391 172.655,388.362 168.759,396.371 166.576,400.86 164.414,405.362 162.436,409.943 161.588,411.907 160.774,413.885 159.96,415.863" />
	<path
		style="fill:none;stroke:#252525;stroke-width:4px;stroke-opacity:1;stroke-linecap:round"
		d="M 246.217,343.582 C 246.231,346.097 247.304,348.495 247.718,350.977 248.098,353.254 247.876,355.623 247.515,357.9" />
	<path
		style="fill:none;stroke:#252525;stroke-width:4px;stroke-opacity:1;stroke-linecap:round"
		d="M 247.515,357.9 C 246.915,360.627 246.953,363.46 246.745,366.246 246.344,371.621 245.951,376.996 245.585,382.374 244.515,398.099 243.553,413.835 242.957,429.585 242.857,432.228 242.712,436.057 242.657,437.514" />
	<path
		style="fill:none;stroke:#252525;stroke-width:4px;stroke-opacity:1;stroke-linecap:round"
		d="M 223.936,347.568 C 224.433,350.444 225.128,353.304 225.329,356.212" />
	<path
		style="fill:none;stroke:#252525;stroke-width:4px;stroke-opacity:1;stroke-linecap:round"
		d="M 225.329,356.212 C 224.997,357.801 225,359.45 224.69,361.044 223.965,364.77 223.015,368.521 223.068,372.32 223.132,376.86 223.965,381.361 224.67,385.846 225.733,392.616 226.947,399.364 227.843,406.158 228.773,413.217 228.863,420.367 229.055,427.484 229.173,431.873 229.35,438.456 229.409,440.65 229.413,440.792 229.428,441.325 229.432,441.503" />
	<path
		style="fill:none;stroke:#252525;stroke-width:4px;stroke-opacity:1;stroke-linecap:round"
		d="M 247.34,290.169 C 247.349,288.031 247.357,285.892 247.34,283.754 247.313,280.511 247.225,277.269 247.133,274.027 247.001,269.372 246.86,264.718 246.719,260.063" />
	<path
		style="fill:none;stroke:#252525;stroke-width:4px;stroke-opacity:1;stroke-linecap:round"
		d="M 161.464,428.984 C 162.712,430.919 163.255,433.18 163.679,435.359 164.124,437.644 164.553,439.959 164.511,442.248 164.474,444.226 164.058,446.156 163.851,448.113" />
	<path
		style="fill:none;stroke:#252525;stroke-width:4px;stroke-opacity:1;stroke-linecap:round"
		d="M 151.989,413.377 C 154.484,413.641 156.863,414.746 159.25,415.595 162.097,416.606 164.925,417.725 167.664,419.018" />
	<path
		style="fill:none;stroke:#252525;stroke-width:4px;stroke-opacity:1;stroke-linecap:round"
		d="M 151.989,413.377 C 151.118,415.931 150.715,418.638 149.954,421.231" />
	<path
		style="fill:none;stroke:#252525;stroke-width:4px;stroke-opacity:1;stroke-linecap:round"
		d="M 149.954,421.231 C 144.281,422.07 139.126,424.803 134.384,427.65" />
	<path
		style="fill:none;stroke:#252525;stroke-width:4px;stroke-opacity:1;stroke-linecap:round"
		d="M 134.384,427.65 C 133.116,428.351 131.537,428.832 130.763,430.036 129.809,431.52 130.167,433.552 130.367,435.31" />
	<path
		style="fill:none;stroke:#252525;stroke-width:4px;stroke-opacity:1;stroke-linecap:round"
		d="M 130.367,435.31 C 133.353,441.309 135.175,447.912 139.467,453.257 140.499,454.542 141.902,455.532 143.237,456.526 145.467,458.187 147.81,459.692 150.006,461.395" />
	<path
		style="fill:none;stroke:#252525;stroke-width:4px;stroke-opacity:1;stroke-linecap:round"
		d="M 150.006,461.395 C 153.117,463.785 157.04,465.02 160.652,466.632 166.19,469.103 171.763,471.557 177.511,473.464" />
	<path
		style="fill:none;stroke:#252525;stroke-width:4px;stroke-opacity:1;stroke-linecap:round"
		d="M 177.511,473.464 C 178.686,472.386 179.836,471.209 180.514,469.797 182.314,466.046 182.237,461.058 180.225,457.157 179.014,454.81 177.138,452.607 174.845,451.079 173.796,450.379 172.676,449.78 171.569,449.166 171.017,448.86 170.357,448.624 169.987,448.135" />
	<path
		style="fill:none;stroke:#252525;stroke-width:4px;stroke-opacity:1;stroke-linecap:round"
		d="M 169.987,448.135 C 169.823,446.018 170.329,443.942 170.261,441.827 170.136,437.976 169.328,433.99 167.624,430.373" />
	<path
		style="fill:none;stroke:#252525;stroke-width:4px;stroke-opacity:1;stroke-linecap:round"
		d="M 161.464,428.984 C 161.731,427.132 162.63,425.403 163.648,423.831 165.07,421.636 166.851,419.628 168.88,417.911 170.278,416.728 171.891,415.582 173.765,415.208 175.036,414.954 176.515,415.102 177.702,415.694" />
	<path
		style="fill:none;stroke:#252525;stroke-width:4px;stroke-opacity:1;stroke-linecap:round"
		d="M 177.702,415.694 C 178.171,416.507 178.016,417.544 177.79,418.413 177.436,419.769 176.816,421.055 176.089,422.256 174.996,424.062 173.505,425.635 171.947,427.095 170.636,428.324 169.263,429.553 167.624,430.373" />
	<path
		style="fill:none;stroke:#252525;stroke-width:4px;stroke-opacity:1;stroke-linecap:round"
		d="M 163.851,448.113 C 164.587,448.919 165.525,449.445 166.415,450.006 167.728,450.832 169.107,451.552 170.542,452.03 171.368,452.306 172.212,452.512 173.06,452.674 173.602,452.778 174.313,453.083 174.706,452.645 174.979,452.341 174.592,451.723 174.332,451.402 173.805,450.749 173.205,450.148 172.524,449.724" />
	<path
		style="fill:none;stroke:#252525;stroke-width:4px;stroke-opacity:1;stroke-linecap:round"
		d="M 161.464,428.984 C 162.628,428.834 163.936,428.963 165.154,429.264 166.04,429.484 167.026,429.803 167.624,430.373" />
	<path
		style="fill:none;stroke:#252525;stroke-width:4px;stroke-opacity:1;stroke-linecap:round"
		d="M 244.356,444.401 C 246.831,445.153 248.706,447.227 250.688,448.89 254.595,452.169 258.174,455.984 260.865,460.317" />
	<path
		style="fill:none;stroke:#252525;stroke-width:4px;stroke-opacity:1;stroke-linecap:round"
		d="M 221.675,444.405 C 225.462,442.768 229.397,441.489 233.315,440.196 236.789,439.05 240.277,437.828 243.892,437.27 244.138,437.232 244.506,437.175 244.629,437.156" />
	<path
		style="fill:none;stroke:#252525;stroke-width:4px;stroke-opacity:1;stroke-linecap:round"
		d="M 221.675,444.405 C 222.688,446.705 224.411,448.692 226.103,450.566" />
	<path
		style="fill:none;stroke:#252525;stroke-width:4px;stroke-opacity:1;stroke-linecap:round"
		d="M 226.103,450.566 C 225.576,451.467 225.286,452.498 224.949,453.491 224.347,455.266 223.808,457.066 223.365,458.889 222.132,463.961 221.442,469.23 221.534,474.437" />
	<path
		style="fill:none;stroke:#252525;stroke-width:4px;stroke-opacity:1;stroke-linecap:round"
		d="M 221.534,474.437 C 221.556,475.075 221.457,475.837 221.896,476.33 222.744,477.281 224.347,477.239 225.63,477.385 227.788,477.63 229.976,477.747 232.131,477.586" />
	<path
		style="fill:none;stroke:#252525;stroke-width:4px;stroke-opacity:1;stroke-linecap:round"
		d="M 232.131,477.586 C 235.745,477.512 239.356,477.842 242.97,477.882 250.237,477.964 257.536,477.788 264.753,476.96" />
	<path
		style="fill:none;stroke:#252525;stroke-width:4px;stroke-opacity:1;stroke-linecap:round"
		d="M 264.753,476.96 C 266.448,477.016 268.149,476.81 269.846,476.705 272.647,476.531 275.455,476.305 278.226,475.835 280.015,475.53 281.82,475.149 283.494,474.459 284.549,474.025 285.709,473.404 286.2,472.423" />
	<path
		style="fill:none;stroke:#252525;stroke-width:4px;stroke-opacity:1;stroke-linecap:round"
		d="M 286.2,472.423 C 286.159,471.512 286.268,470.547 285.926,469.7 284.917,467.195 282.758,465.247 280.691,463.503 277.546,460.848 273.891,458.668 270.006,457.319 268.879,456.928 267.661,456.876 266.514,456.551" />
	<path
		style="fill:none;stroke:#252525;stroke-width:4px;stroke-opacity:1;stroke-linecap:round"
		d="M 266.514,456.551 C 265.669,454.641 264.181,453.038 262.703,451.548 260.592,449.42 258.207,447.533 255.66,445.954 254.18,445.037 252.473,444.53 251.011,443.583" />
	<path
		style="fill:none;stroke:#252525;stroke-width:4px;stroke-opacity:1;stroke-linecap:round"
		d="M 244.356,444.401 C 243.744,442.787 244.017,440.92 244.262,439.202 244.665,436.371 245.505,433.604 246.451,430.904 247.042,429.217 247.745,427.536 248.755,426.063 249.329,425.224 250.302,424.119 251.274,424.368" />
	<path
		style="fill:none;stroke:#252525;stroke-width:4px;stroke-opacity:1;stroke-linecap:round"
		d="M 251.274,424.368 C 252.354,424.18 253.44,425.236 254.031,426.16 254.98,427.644 255.603,429.417 255.697,431.177 255.845,433.923 255.03,436.748 253.798,439.205 253.022,440.752 251.979,442.15 251.011,443.583" />
	<path
		style="fill:none;stroke:#252525;stroke-width:4px;stroke-opacity:1;stroke-linecap:round"
		d="M 260.865,460.317 C 263.583,461.201 266.569,461.095 269.447,461.192 270.518,461.228 271.602,461.194 272.662,461.022 273.324,460.915 274.294,460.856 274.514,460.246 274.772,459.531 273.627,458.97 272.986,458.541" />
	<path
		style="fill:none;stroke:#252525;stroke-width:4px;stroke-opacity:1;stroke-linecap:round"
		d="M 244.259,444.005 C 246.308,443.128 248.86,442.992 251.011,443.583" />
	</g>
	<g cacani:groupmode="layer" id="arm_R">
	<path
		style="fill:none;stroke:#000000;stroke-width:5px;stroke-opacity:1;stroke-linecap:round"
		d="M 233.246,163.859 C 232.728,172.254 233.499,180.894 232.077,189.098" />
	<path
		style="fill:none;stroke:#000000;stroke-width:5px;stroke-opacity:1;stroke-linecap:round"
		d="M 232.077,189.098 C 231.687,190.099 231.712,191.29 231.603,192.401 231.427,194.199 231.239,195.995 231.067,197.793" />
	<path
		style="fill:none;stroke:#000000;stroke-width:5px;stroke-opacity:1;stroke-linecap:round"
		d="M 231.067,197.793 C 229.949,197.802 228.831,197.812 227.72,197.768 223.174,197.587 218.752,196.517 214.157,195.831 211.813,195.481 209.423,195.23 207.355,194.22 206.396,193.752 205.506,193.12 204.616,192.489" />
	<path
		style="fill:none;stroke:#000000;stroke-width:5px;stroke-opacity:1;stroke-linecap:round"
		d="M 204.616,192.489 C 204.474,191.412 204.706,190.341 204.747,189.266 204.816,187.465 204.78,185.652 204.794,183.845 204.836,178.596 204.862,173.328 205.389,168.147 205.622,165.862 206.089,163.631 206.432,161.371" />
	<path
		style="fill:none;stroke:#000000;stroke-width:4px;stroke-opacity:1;stroke-linecap:round"
		d="M 227.338,197.694 C 227.179,200.573 227.021,203.452 226.837,206.343 226.751,207.704 226.659,209.067 226.756,210.418 226.827,211.415 227.001,212.405 227.175,213.395" />
	<path
		style="fill:none;stroke:#000000;stroke-width:4px;stroke-opacity:1;stroke-linecap:round"
		d="M 227.175,213.395 C 227.564,214.335 227.953,215.275 228.343,216.214 228.787,217.286 229.233,218.357 229.674,219.431 230.608,221.705 231.52,223.99 232.348,226.302 235.497,235.085 237.452,244.247 239.408,253.41" />
	<path
		style="fill:none;stroke:#000000;stroke-width:4px;stroke-opacity:1;stroke-linecap:round"
		d="M 239.408,253.41 C 241.71,253.747 244.314,253.333 246.29,254.647 248.743,256.278 250.01,259.277 251.369,261.875" />
	<path
		style="fill:none;stroke:#000000;stroke-width:4px;stroke-opacity:1;stroke-linecap:round"
		d="M 251.369,261.875 C 251.821,263.134 252.588,264.318 252.66,265.687 252.786,268.072 251.666,270.305 250.951,272.518" />
	<path
		style="fill:none;stroke:#000000;stroke-width:4px;stroke-opacity:1;stroke-linecap:round"
		d="M 250.951,272.518 C 250.53,273.169 250.108,273.821 249.556,274.34 249.145,274.725 248.663,275.037 248.18,275.348" />
	<path
		style="fill:none;stroke:#000000;stroke-width:4px;stroke-opacity:1;stroke-linecap:round"
		d="M 248.18,275.348 C 246.926,276.072 245.672,276.795 244.521,276.34 243.989,276.13 243.48,275.668 243.22,275.167 242.498,273.775 243.701,272.082 244.328,270.429 245.151,268.258 244.98,266.156 244.809,264.055" />
	<path
		style="fill:none;stroke:#000000;stroke-width:4px;stroke-opacity:1;stroke-linecap:round"
		d="M 252.256,268.623 C 252.69,269.321 253.124,270.018 253.542,270.744 253.92,271.402 254.284,272.083 254.492,272.781 255.17,275.056 254.185,277.516 254.034,280.091 253.899,282.376 254.421,284.751 253.565,286.571 252.962,287.853 251.676,288.86 250.39,289.866" />
	<path
		style="fill:none;stroke:#000000;stroke-width:4px;stroke-opacity:1;stroke-linecap:round"
		d="M 250.39,289.866 C 249.303,290.473 248.216,291.081 247.033,291.252 245.812,291.428 244.49,291.139 243.344,290.584 242.255,290.058 241.326,289.292 240.509,288.431 239.207,287.058 238.193,285.443 237.043,283.935 235.769,282.264 234.327,280.723 233.128,279.007 232.473,278.069 231.891,277.079 231.308,276.089" />
	<path
		style="fill:none;stroke:#000000;stroke-width:4px;stroke-opacity:1;stroke-linecap:round"
		d="M 231.308,276.089 C 230.506,274.755 230.132,273.174 229.822,271.643 229.455,269.836 229.134,267.97 229.288,266.149 229.38,265.06 229.749,264.028 230.025,262.982" />
	<path
		style="fill:none;stroke:#000000;stroke-width:4px;stroke-opacity:1;stroke-linecap:round"
		d="M 230.025,262.982 C 229.534,261.932 229.043,260.883 228.511,259.854 227.608,258.106 226.589,256.417 225.689,254.67 224.035,251.46 222.784,248.055 221.46,244.684 218.117,236.169 214.316,227.869 211.14,219.31 210.77,218.311 210.407,217.308 210.045,216.305" />
	<path
		style="fill:none;stroke:#000000;stroke-width:4px;stroke-opacity:1;stroke-linecap:round"
		d="M 210.045,216.305 C 209.394,213.726 208.743,211.147 208.335,208.535 207.607,203.877 207.654,199.116 207.701,194.356" />
	<path
		style="fill:none;stroke:#000000;stroke-width:4px;stroke-opacity:1;stroke-linecap:round"
		d="M 206.432,161.371 C 206.558,159.936 206.901,158.542 207.286,157.18 207.983,154.718 209.095,152.278 210.823,150.545 212.768,148.592 215.57,147.175 218.334,147.354" />
	<path
		style="fill:none;stroke:#000000;stroke-width:4px;stroke-opacity:1;stroke-linecap:round"
		d="M 218.334,147.354 C 219.229,147.189 220.227,147.573 221.139,147.93 222.074,148.295 223.008,148.68 223.914,149.149 226.73,150.606 229.647,152.63 231.397,155.452 232.937,157.934 233.229,161.065 233.246,163.859" />
	</g>
	<g cacani:groupmode="layer" id="body">
	<path
		style="fill:none;stroke:#000000;stroke-width:5px;stroke-opacity:1;stroke-linecap:round"
		d="M 259.373,30.0047 C 254.6,27.0218 249.318,24.6866 243.846,23.3708 236.647,21.6401 228.935,21.5892 221.64,22.8543 216.738,23.7044 211.584,24.6682 207.42,27.3911" />
	<path
		style="fill:none;stroke:#000000;stroke-width:4px;stroke-opacity:1;stroke-linecap:round"
		d="M 207.42,27.3911 C 207.37,26.9116 207.496,26.4209 207.603,25.9463 207.81,25.0262 208.138,24.1265 208.546,23.2731 209.206,21.8928 209.988,20.5388 211,19.394 211.574,18.7439 212.272,18.2144 212.963,17.6954" />
	<path
		style="fill:none;stroke:#000000;stroke-width:4px;stroke-opacity:1;stroke-linecap:round"
		d="M 212.963,17.6954 C 211.557,18.0677 210.267,18.9007 209.033,19.7153 206.189,21.593 203.731,24.2979 202.133,27.2857" />
	<path
		style="fill:none;stroke:#000000;stroke-width:4px;stroke-opacity:1;stroke-linecap:round"
		d="M 202.133,27.2857 C 198.677,28.5209 194.96,29.1696 191.295,29.4092" />
	<path
		style="fill:none;stroke:#000000;stroke-width:4px;stroke-opacity:1;stroke-linecap:round"
		d="M 199.984,31.9469 C 198.829,31.2204 197.475,30.8294 196.169,30.4078 194.59,29.898 192.944,29.3988 191.295,29.4092" />
	<path
		style="fill:none;stroke:#000000;stroke-width:4px;stroke-opacity:1;stroke-linecap:round"
		d="M 199.916,31.9144 C 198.042,32.2513 196.152,32.6333 194.366,33.3318 192.732,33.9704 191.16,34.8766 189.816,36.024 188.163,37.435 186.796,39.1788 185.556,40.9612 184.055,43.1195 182.733,45.4148 181.653,47.7999 180.928,49.3988 180.328,51.0471 179.696,52.6814" />
	<path
		style="fill:none;stroke:#000000;stroke-width:4px;stroke-opacity:1;stroke-linecap:round"
		d="M 179.696,52.6814 C 180.191,51.7792 180.989,51.0314 181.78,50.3495 182.966,49.3272 184.267,48.4367 185.595,47.615" />
	<path
		style="fill:none;stroke:#000000;stroke-width:4px;stroke-opacity:1;stroke-linecap:round"
		d="M 185.595,47.615 C 184.787,48.109 184.173,48.8851 183.549,49.6051 182.149,51.2185 181.094,53.1383 180.177,55.0805 177.558,60.6261 176.73,67.18 177.261,73.3188 177.544,76.5878 178.416,79.7981 179.429,82.9139 180.428,85.9893 181.589,89.0165 182.921,91.9577 184.672,95.8227 186.812,99.5629 187.927,103.666" />
	<path
		style="fill:none;stroke:#000000;stroke-width:4px;stroke-opacity:1;stroke-linecap:round"
		d="M 187.927,103.666 C 187.979,102.623 188.081,101.575 187.988,100.535 187.831,98.7627 187.393,97.0259 187.015,95.2882" />
	<path
		style="fill:none;stroke:#000000;stroke-width:4px;stroke-opacity:1;stroke-linecap:round"
		d="M 187.015,95.2882 C 188.861,99.534 192.013,103.229 195.363,106.463 198.128,109.131 201.275,111.431 204.574,113.399 207.676,115.25 211.008,116.831 214.49,117.733 214.872,117.832 215.449,117.982 215.641,118.031" />
	<path
		style="fill:none;stroke:#000000;stroke-width:4px;stroke-opacity:1;stroke-linecap:round"
		d="M 259.373,30.0047 C 260.242,30.3252 261.052,30.7879 261.91,31.1359 263.082,31.6115 264.286,32.0055 265.491,32.3918 268.637,33.4008 271.9,34.2295 274.787,35.8387 276.213,36.6337 277.502,37.6865 278.65,38.8412" />
	<path
		style="fill:none;stroke:#000000;stroke-width:4px;stroke-opacity:1;stroke-linecap:round"
		d="M 278.65,38.8412 C 278.176,38.594 277.67,38.3719 277.133,38.2642 276.236,38.0841 275.292,38.1209 274.374,38.1813 272.806,38.2843 271.247,38.5666 269.739,38.9648" />
	<path
		style="fill:none;stroke:#000000;stroke-width:4px;stroke-opacity:1;stroke-linecap:round"
		d="M 269.739,38.9648 C 270.526,39.113 271.197,39.6753 271.833,40.1753 272.636,40.8065 273.428,41.456 274.178,42.1518 276.529,44.3319 278.556,46.9793 279.964,49.8868 280.827,51.6676 281.478,53.5704 281.894,55.5089 282.455,58.1208 282.594,60.8352 282.473,63.5011 282.286,67.6343 281.395,71.8566 279.566,75.5321 278.72,77.2297 277.835,78.9344 276.661,80.4118" />
	<path
		style="fill:none;stroke:#000000;stroke-width:4px;stroke-opacity:1;stroke-linecap:round"
		d="M 276.661,80.4118 C 277.256,79.0539 277.086,77.4075 276.954,75.9057 276.762,73.7025 276.348,71.5125 275.781,69.3804" />
	<path
		style="fill:none;stroke:#000000;stroke-width:4px;stroke-opacity:1;stroke-linecap:round"
		d="M 275.781,69.3804 C 275.618,70.1455 275.544,70.927 275.345,71.6847 274.779,73.8403 273.964,75.9378 273.072,77.9899 272.089,80.2534 270.915,82.5223 269.235,84.3414 267.302,86.4337 264.736,87.9754 262.01,88.9739" />
	<path
		style="fill:none;stroke:#000000;stroke-width:4px;stroke-opacity:1;stroke-linecap:round"
		d="M 261.352,66.332 C 262.409,69.1516 262.706,72.226 262.906,75.2304 263.335,81.6573 262.254,88.1371 261.048,94.4643" />
	<path
		style="fill:none;stroke:#000000;stroke-width:4px;stroke-opacity:1;stroke-linecap:round"
		d="M 261.048,94.4643 C 262.708,97.3511 263.615,97.8105 264.333,98.4795 264.971,99.0745 265.512,99.8928 265.622,100.759 265.733,101.63 264.746,102.386 263.984,102.825 262.981,103.403 261.952,103.948 260.878,104.38" />
	<path
		style="fill:none;stroke:#000000;stroke-width:4px;stroke-opacity:1;stroke-linecap:round"
		d="M 260.878,104.38 C 261.06,107.118 262.004,108.157 261.957,109.366 261.908,110.623 260.792,111.782 259.686,112.381" />
	<path
		style="fill:none;stroke:#000000;stroke-width:4px;stroke-opacity:1;stroke-linecap:round"
		d="M 259.686,112.381 C 256.158,112.738 252.63,113.096 249.137,112.847 246.429,112.653 243.742,112.095 241.055,111.537" />
	<path
		style="fill:none;stroke:#000000;stroke-width:4px;stroke-opacity:1;stroke-linecap:round"
		d="M 255.924,112.708 C 256.813,114.06 257.702,115.411 257.224,116.566 257.014,117.074 256.538,117.545 256.029,117.902 255.425,118.327 254.773,118.591 254.122,118.855" />
	<path
		style="fill:none;stroke:#000000;stroke-width:4px;stroke-opacity:1;stroke-linecap:round"
		d="M 254.122,118.855 C 254.097,119.782 254.072,120.709 254.09,121.723 254.124,123.551 254.299,125.66 253.363,126.841 252.516,127.911 250.757,128.22 248.998,128.529" />
	<path
		style="fill:none;stroke:#000000;stroke-width:4px;stroke-opacity:1;stroke-linecap:round"
		d="M 248.998,128.529 C 247.226,128.69 245.455,128.852 243.691,128.821 240.864,128.77 238.057,128.224 235.25,127.678" />
	<path
		style="fill:none;stroke:#000000;stroke-width:4px;stroke-opacity:1;stroke-linecap:round"
		d="M 235.25,127.678 C 234.755,129.854 234.261,132.03 233.62,134.163 233.047,136.067 232.358,137.936 231.669,139.806" />
	<path
		style="fill:none;stroke:#000000;stroke-width:4px;stroke-opacity:1;stroke-linecap:round"
		d="M 261.352,66.332 C 260.232,64.9237 259.112,63.5153 257.819,62.2807 256.22,60.7552 254.358,59.4951 252.418,58.4127 247.592,55.7207 242.284,54.1277 236.977,52.5347" />
	<path
		style="fill:none;stroke:#000000;stroke-width:4px;stroke-opacity:1;stroke-linecap:round"
		d="M 236.977,52.5347 C 240.537,56.5911 243.533,61.1515 246.187,65.8511" />
	<path
		style="fill:none;stroke:#000000;stroke-width:4px;stroke-opacity:1;stroke-linecap:round"
		d="M 246.187,65.8511 C 231.976,61.1231 228.15,59.9928 224.242,59.8655" />
	<path
		style="fill:none;stroke:#000000;stroke-width:4px;stroke-opacity:1;stroke-linecap:round"
		d="M 228.571,60.4821 C 228.393,60.638 227.86,61.1059 227.86,61.1059 227.054,61.8128 226.501,62.7787 225.986,63.7185 224.742,65.9887 224.192,68.593 223.642,71.1228" />
	<path
		style="fill:none;stroke:#000000;stroke-width:4px;stroke-opacity:1;stroke-linecap:round"
		d="M 223.642,71.1228 C 223.081,74.5139 222.933,75.9469 222.904,77.38 222.815,81.8398 223.592,86.2781 224.144,90.7044" />
	<path
		style="fill:none;stroke:#000000;stroke-width:4px;stroke-opacity:1;stroke-linecap:round"
		d="M 224.144,90.7044 C 222.367,88.0419 220.59,85.3795 217.783,83.2014 216.758,82.4063 215.595,81.6757 214.514,81.7147 213.012,81.769 211.666,83.3075 210.684,84.9087 207.763,89.6751 208.07,94.9976 210.771,99.7521 212.034,101.975 213.819,104.073 215.988,104.327 217.014,104.447 218.127,104.154 219.24,103.861" />
	<path
		style="fill:none;stroke:#000000;stroke-width:4px;stroke-opacity:1;stroke-linecap:round"
		d="M 254.204,76.2864 C 253.697,75.2058 252.608,74.4736 251.611,73.817 250.028,72.7738 248.03,71.9392 246.154,72.2116 243.925,72.535 242.124,74.7783 241.241,76.8501" />
	<path
		style="fill:none;stroke:#000000;stroke-width:4px;stroke-opacity:1;stroke-linecap:round"
		d="M 250.677,87.7996 C 250.595,87.1008 250.512,86.4021 250.259,85.5573 249.911,84.3951 249.238,82.9567 248.472,82.9783 247.813,82.9968 247.085,84.0925 246.749,85.0517 246.489,85.7958 246.466,86.4578 246.442,87.1198" />
	<path
		style="fill:none;stroke:#000000;stroke-width:4px;stroke-opacity:1;stroke-linecap:round"
		d="M 250.677,87.7996 C 250.711,89.3028 250.745,90.806 249.765,92.2405 249.371,92.8161 248.815,93.3806 248.324,93.3515 247.777,93.319 247.312,92.5466 246.998,91.8134 246.268,90.1071 246.355,88.6134 246.442,87.1198" />
	<path
		style="fill:none;stroke:#000000;stroke-width:4px;stroke-opacity:1;stroke-linecap:round"
		d="M 216.419,104.338 C 216.524,104.677 216.838,105.695 216.838,105.695 217.177,106.793 217.529,107.903 218.086,108.908 219.159,110.846 220.601,112.557 221.904,114.349" />
	<path
		style="fill:none;stroke:#000000;stroke-width:4px;stroke-opacity:1;stroke-linecap:round"
		d="M 221.904,114.349 C 221.859,114.316 221.724,114.217 221.724,114.217 219.925,113.915 218.454,112.596 216.861,111.708" />
	<path
		style="fill:none;stroke:#000000;stroke-width:4px;stroke-opacity:1;stroke-linecap:round"
		d="M 216.861,111.708 C 215.469,116.915 215.678,117.647 215.615,118.375" />
	<path
		style="fill:none;stroke:#000000;stroke-width:4px;stroke-opacity:1;stroke-linecap:round"
		d="M 215.615,118.375 C 215.465,120.258 215.316,122.14 214.972,123.989 214.754,125.164 214.458,126.325 214.162,127.486" />
	<path
		style="fill:none;stroke:#000000;stroke-width:4px;stroke-opacity:1;stroke-linecap:round"
		d="M 231.669,139.806 C 231.607,140.611 231.546,141.416 231.401,142.205 231.203,143.28 230.851,144.324 230.499,145.368" />
	<path
		style="fill:none;stroke:#000000;stroke-width:4px;stroke-opacity:1;stroke-linecap:round"
		d="M 230.499,145.368 C 230.351,145.834 230.203,146.299 229.967,146.734 229.83,146.986 229.664,147.229 229.445,147.405 229.115,147.673 228.666,147.791 228.231,147.825 226.51,147.961 224.988,146.796 223.701,145.541 221.041,142.945 219.383,139.96 217.856,136.838 217.017,135.123 216.217,133.366 215.514,131.578 215.27,130.959 215.039,130.335 214.829,129.705 214.586,128.972 214.374,128.229 214.162,127.486" />
	<path
		style="fill:none;stroke:#000000;stroke-width:4px;stroke-opacity:1;stroke-linecap:round"
		d="M 230.499,145.368 C 231.723,158.583 232.947,171.797 234.327,184.996 235.312,194.414 236.377,203.824 237.44,213.234 237.959,217.829 238.478,222.424 238.996,227.02" />
	<path
		style="fill:none;stroke:#000000;stroke-width:4px;stroke-opacity:1;stroke-linecap:round"
		d="M 238.996,227.02 C 239.822,231.576 240.648,236.132 241.773,240.615 242.652,244.118 243.715,247.575 244.777,251.033" />
	<path
		style="fill:none;stroke:#000000;stroke-width:4px;stroke-opacity:1;stroke-linecap:round"
		d="M 244.777,251.033 C 246.397,251.041 248.017,251.049 249.619,251.875 251.21,252.696 252.782,254.325 252.525,255.798 252.382,256.613 251.678,257.38 250.926,257.977 249.62,259.015 248.17,259.539 246.719,260.063" />
	<path
		style="fill:none;stroke:#000000;stroke-width:4px;stroke-opacity:1;stroke-linecap:round"
		d="M 246.719,260.063 C 246.205,260.2 245.69,260.337 245.173,260.466 241.524,261.376 237.778,261.867 234.024,262.224 226.445,262.943 218.835,263.112 211.244,262.851 208.272,262.749 205.303,262.581 202.334,262.414" />
	<path
		style="fill:none;stroke:#000000;stroke-width:4px;stroke-opacity:1;stroke-linecap:round"
		d="M 202.334,262.414 C 201.326,262.272 200.319,262.129 199.327,261.922 197.904,261.624 196.512,261.191 195.173,260.555 194.135,260.062 193.128,259.447 192.495,258.478 191.934,257.62 191.666,256.484 191.948,255.526 192.213,254.623 192.967,253.878 193.801,253.388 194.665,252.88 195.615,252.646 196.565,252.412" />
	<path
		style="fill:none;stroke:#000000;stroke-width:4px;stroke-opacity:1;stroke-linecap:round"
		d="M 196.565,252.412 C 196.729,249.919 196.893,247.426 197.053,244.933 198.014,229.969 198.843,214.992 200.142,200.056 200.902,191.32 201.823,182.599 202.744,173.877" />
	<path
		style="fill:none;stroke:#000000;stroke-width:4px;stroke-opacity:1;stroke-linecap:round"
		d="M 214.162,127.486 C 211.91,133.58 209.659,139.675 207.947,145.91 205.443,155.032 204.093,164.455 202.744,173.877" />
	<path
		style="fill:none;stroke:#000000;stroke-width:4px;stroke-opacity:1;stroke-linecap:round"
		d="M 231.669,139.806 C 231.354,140.854 230.614,141.756 229.813,142.493 229.244,143.017 228.624,143.608 227.854,143.748 227.019,143.899 226.116,143.409 225.414,142.905 222.883,141.086 221.411,138.077 219.9,135.359 217.895,131.754 216.056,127.992 214.962,124.036" />
	<path
		style="fill:none;stroke:#000000;stroke-width:4px;stroke-opacity:1;stroke-linecap:round"
		d="M 255.924,112.708 C 254.813,112.838 253.669,112.911 252.494,112.928 251.257,112.945 249.985,112.899 248.677,112.79 247.43,112.686 246.152,112.525 244.841,112.306 243.607,112.101 242.345,111.844 241.055,111.537" />
	</g>
	<g cacani:groupmode="layer" id="arm_L top">
	<path
		style="fill:none;stroke:#000000;stroke-width:4px;stroke-opacity:1;stroke-linecap:round"
		d="M 220.904,148.842 C 219.626,148.732 218.348,148.621 217.09,148.796 215.463,149.021 213.87,149.723 212.539,150.705 210.363,152.311 208.891,154.665 207.512,157.021 205.742,160.045 204.124,163.071 202.754,166.224 201.473,169.174 200.409,172.235 199.345,175.295" />
	<path
		style="fill:none;stroke:#000000;stroke-width:4px;stroke-opacity:1;stroke-linecap:round"
		d="M 199.345,175.295 C 198.528,176.654 198.176,178.251 197.62,179.74 196.179,183.599 195.052,187.576 194.031,191.566" />
	<path
		style="fill:none;stroke:#000000;stroke-width:4px;stroke-opacity:1;stroke-linecap:round"
		d="M 194.031,191.566 C 195.588,192.288 197.063,193.173 198.603,193.929 201.943,195.568 205.375,197.021 208.824,198.417 212.551,199.926 216.38,201.334 220.339,202.003" />
	<path
		style="fill:none;stroke:#000000;stroke-width:4px;stroke-opacity:1;stroke-linecap:round"
		d="M 220.339,202.003 C 220.12,201.022 220.859,200.026 221.199,199.063 221.718,197.591 222.135,196.084 222.564,194.583 224.269,188.616 226.517,182.814 228.319,176.874" />
	<path
		style="fill:none;stroke:#000000;stroke-width:4px;stroke-opacity:1;stroke-linecap:round"
		d="M 228.319,176.874 C 228.395,176.392 228.471,175.909 228.559,175.429 228.703,174.64 228.879,173.857 229.005,173.064 229.236,171.604 229.295,170.109 229.417,168.651 229.54,167.17 229.729,165.728 229.77,164.164 229.915,158.659 228.241,151.652 223.52,149.605 222.708,149.253 221.806,149.047 220.904,148.842" />
	<path
		style="fill:none;stroke:#000000;stroke-width:4px;stroke-opacity:1;stroke-linecap:round"
		d="M 196.277,192.727 C 195.851,194.403 195.424,196.078 194.86,197.707 193.929,200.396 192.621,202.957 191.675,205.639 190.832,208.027 190.274,210.512 189.717,212.996" />
	<path
		style="fill:none;stroke:#000000;stroke-width:4px;stroke-opacity:1;stroke-linecap:round"
		d="M 189.717,212.996 C 188.722,217.442 187.727,221.888 187.526,226.371 187.305,231.289 188.04,236.252 188.511,241.207 189.088,247.268 189.272,253.318 189.456,259.369" />
	<path
		style="fill:none;stroke:#000000;stroke-width:4px;stroke-opacity:1;stroke-linecap:round"
		d="M 189.456,259.369 C 188.913,260.303 188.37,261.237 187.933,262.217 186.96,264.4 186.511,266.812 186.177,269.189 186.087,269.823 186.006,270.455 185.915,271.09 185.691,272.667 185.41,274.264 185.512,275.839 185.582,276.922 185.834,277.994 186.085,279.066" />
	<path
		style="fill:none;stroke:#000000;stroke-width:4px;stroke-opacity:1;stroke-linecap:round"
		d="M 186.085,279.066 C 186.845,281.526 187.604,283.987 188.478,286.406 189.124,288.194 189.832,289.959 190.541,291.725" />
	<path
		style="fill:none;stroke:#000000;stroke-width:4px;stroke-opacity:1;stroke-linecap:round"
		d="M 190.541,291.725 C 191.476,293.199 192.412,294.674 193.456,296.229 194.175,297.3 194.945,298.409 195.973,298.931 197.174,299.541 198.726,299.352 200.278,299.163" />
	<path
		style="fill:none;stroke:#000000;stroke-width:4px;stroke-opacity:1;stroke-linecap:round"
		d="M 200.278,299.163 C 201.595,298.341 202.911,297.518 204.038,296.447 204.786,295.735 205.449,294.913 205.895,293.989 206.244,293.266 206.459,292.482 206.62,291.691 207.243,288.633 207.048,285.488 206.869,282.373 206.75,280.304 206.638,278.248 206.526,276.192" />
	<path
		style="fill:none;stroke:#000000;stroke-width:4px;stroke-opacity:1;stroke-linecap:round"
		d="M 206.869,282.373 C 207.634,281.699 208.399,281.025 208.997,280.199 209.475,279.539 209.846,278.783 210.039,278.005 210.311,276.911 210.229,275.774 210.261,274.596 210.33,271.978 210.957,269.159 209.735,267.019 209.426,266.476 208.997,265.977 208.557,265.495 206.935,263.72 205.16,262.177 203.384,260.634" />
	<path
		style="fill:none;stroke:#000000;stroke-width:4px;stroke-opacity:1;stroke-linecap:round"
		d="M 203.384,260.634 C 203.54,258.846 203.696,257.059 203.834,255.269 204.039,252.616 204.205,249.958 204.485,247.313 204.914,243.28 205.609,239.276 206.098,235.249 206.624,230.923 206.912,226.572 207.2,222.22" />
	<path
		style="fill:none;stroke:#000000;stroke-width:4px;stroke-opacity:1;stroke-linecap:round"
		d="M 207.2,222.22 C 208.466,218.131 209.731,214.042 211.446,210.147 212.823,207.018 214.49,204.015 216.157,201.011" />
	</g>
	<g display="none" cacani:groupmode="sketch_layer" id="Sketch 1">
	</g>
</g>
</svg>
