^C:\USERS\ATMOZZIS\DESKTOP\CZ4079  FINAL YEAR PROJECT\FLTK\FLTK-1.3.2\IDE\VISUALC2010\IMAGE_DEBUG\IMAGE.OBJ|C:\USERS\ATMOZZIS\DESKTOP\CZ4079  FINAL YEAR PROJECT\FLTK\FLTK-1.3.2\LIB\FLTKD.LIB
C:\USERS\ATMOZZIS\DESKTOP\CZ4079  FINAL YEAR PROJECT\FLTK\FLTK-1.3.2\TEST\IMAGED.EXE
C:\USERS\ATMOZZIS\DESKTOP\CZ4079  FINAL YEAR PROJECT\FLTK\FLTK-1.3.2\IDE\VISUALC2010\IMAGE_DEBUG\IMAGED.EXE.INTERMEDIATE.MANIFEST
C:\USERS\ATMOZZIS\DESKTOP\CZ4079  FINAL YEAR PROJECT\FLTK\FLTK-1.3.2\IDE\VISUALC2010\IMAGE_DEBUG\IMAGED.PDB
