^C:\USERS\ATMOZZIS\DESKTOP\CZ4079  FINAL YEAR PROJECT\FLTK\FLTK-1.3.2\TEST\BUTTONS.CXX
C:\USERS\ATMOZZIS\DESKTOP\CZ4079  FINAL YEAR PROJECT\FLTK\FLTK-1.3.2\IDE\VISUALC2010\BUTTONS_DEBUG\BUTTONS.OBJ
C:\USERS\ATMOZZIS\DESKTOP\CZ4079  FINAL YEAR PROJECT\FLTK\FLTK-1.3.2\IDE\VISUALC2010\BUTTONS_DEBUG\VC100.PDB
