^C:\USERS\ATMOZZIS\DESKTOP\CZ4079  FINAL YEAR PROJECT\FLTK\FLTK-1.3.2\IDE\VISUALC2010\FLTKPNG_DEBUG\PNG.OBJ|C:\USERS\ATMOZZIS\DESKTOP\CZ4079  FINAL YEAR PROJECT\FLTK\FLTK-1.3.2\IDE\VISUALC2010\FLTKPNG_DEBUG\PNGERROR.OBJ|C:\USERS\ATMOZZIS\DESKTOP\CZ4079  FINAL YEAR PROJECT\FLTK\FLTK-1.3.2\IDE\VISUALC2010\FLTKPNG_DEBUG\PNGGET.OBJ|C:\USERS\ATMOZZIS\DESKTOP\CZ4079  FINAL YEAR PROJECT\FLTK\FLTK-1.3.2\IDE\VISUALC2010\FLTKPNG_DEBUG\PNGMEM.OBJ|C:\USERS\ATMOZZIS\DESKTOP\CZ4079  FINAL YEAR PROJECT\FLTK\FLTK-1.3.2\IDE\VISUALC2010\FLTKPNG_DEBUG\PNGPREAD.OBJ|C:\USERS\ATMOZZIS\DESKTOP\CZ4079  FINAL YEAR PROJECT\FLTK\FLTK-1.3.2\IDE\VISUALC2010\FLTKPNG_DEBUG\PNGREAD.OBJ|C:\USERS\ATMOZZIS\DESKTOP\CZ4079  FINAL YEAR PROJECT\FLTK\FLTK-1.3.2\IDE\VISUALC2010\FLTKPNG_DEBUG\PNGRIO.OBJ|C:\USERS\ATMOZZIS\DESKTOP\CZ4079  FINAL YEAR PROJECT\FLTK\FLTK-1.3.2\IDE\VISUALC2010\FLTKPNG_DEBUG\PNGRTRAN.OBJ|C:\USERS\ATMOZZIS\DESKTOP\CZ4079  FINAL YEAR PROJECT\FLTK\FLTK-1.3.2\IDE\VISUALC2010\FLTKPNG_DEBUG\PNGRUTIL.OBJ|C:\USERS\ATMOZZIS\DESKTOP\CZ4079  FINAL YEAR PROJECT\FLTK\FLTK-1.3.2\IDE\VISUALC2010\FLTKPNG_DEBUG\PNGSET.OBJ|C:\USERS\ATMOZZIS\DESKTOP\CZ4079  FINAL YEAR PROJECT\FLTK\FLTK-1.3.2\IDE\VISUALC2010\FLTKPNG_DEBUG\PNGTRANS.OBJ|C:\USERS\ATMOZZIS\DESKTOP\CZ4079  FINAL YEAR PROJECT\FLTK\FLTK-1.3.2\IDE\VISUALC2010\FLTKPNG_DEBUG\PNGWIO.OBJ|C:\USERS\ATMOZZIS\DESKTOP\CZ4079  FINAL YEAR PROJECT\FLTK\FLTK-1.3.2\IDE\VISUALC2010\FLTKPNG_DEBUG\PNGWRITE.OBJ|C:\USERS\ATMOZZIS\DESKTOP\CZ4079  FINAL YEAR PROJECT\FLTK\FLTK-1.3.2\IDE\VISUALC2010\FLTKPNG_DEBUG\PNGWTRAN.OBJ|C:\USERS\ATMOZZIS\DESKTOP\CZ4079  FINAL YEAR PROJECT\FLTK\FLTK-1.3.2\IDE\VISUALC2010\FLTKPNG_DEBUG\PNGWUTIL.OBJ
/OUT:"..\..\lib\fltkpngd.lib" /NOLOGO .\fltkpng_debug\png.obj
.\fltkpng_debug\pngerror.obj
.\fltkpng_debug\pngget.obj
.\fltkpng_debug\pngmem.obj
.\fltkpng_debug\pngpread.obj
.\fltkpng_debug\pngread.obj
.\fltkpng_debug\pngrio.obj
.\fltkpng_debug\pngrtran.obj
.\fltkpng_debug\pngrutil.obj
.\fltkpng_debug\pngset.obj
.\fltkpng_debug\pngtrans.obj
.\fltkpng_debug\pngwio.obj
.\fltkpng_debug\pngwrite.obj
.\fltkpng_debug\pngwtran.obj
.\fltkpng_debug\pngwutil.obj
