^C:\USERS\ATMOZZIS\DESKTOP\CZ4079  FINAL YEAR PROJECT\FLTK\FLTK-1.3.2\IDE\VISUALC2010\FLTKGL_DEBUG\FL_GL_CHOICE.SBR|C:\USERS\ATMOZZIS\DESKTOP\CZ4079  FINAL YEAR PROJECT\FLTK\FLTK-1.3.2\IDE\VISUALC2010\FLTKGL_DEBUG\FL_GL_DEVICE_PLUGIN.SBR|C:\USERS\ATMOZZIS\DESKTOP\CZ4079  FINAL YEAR PROJECT\FLTK\FLTK-1.3.2\IDE\VISUALC2010\FLTKGL_DEBUG\FL_GL_OVERLAY.SBR|C:\USERS\ATMOZZIS\DESKTOP\CZ4079  FINAL YEAR PROJECT\FLTK\FLTK-1.3.2\IDE\VISUALC2010\FLTKGL_DEBUG\FL_GL_WINDOW.SBR|C:\USERS\ATMOZZIS\DESKTOP\CZ4079  FINAL YEAR PROJECT\FLTK\FLTK-1.3.2\IDE\VISUALC2010\FLTKGL_DEBUG\FREEGLUT_GEOMETRY.SBR|C:\USERS\ATMOZZIS\DESKTOP\CZ4079  FINAL YEAR PROJECT\FLTK\FLTK-1.3.2\IDE\VISUALC2010\FLTKGL_DEBUG\FREEGLUT_STROKE_MONO_ROMAN.SBR|C:\USERS\ATMOZZIS\DESKTOP\CZ4079  FINAL YEAR PROJECT\FLTK\FLTK-1.3.2\IDE\VISUALC2010\FLTKGL_DEBUG\FREEGLUT_STROKE_ROMAN.SBR|C:\USERS\ATMOZZIS\DESKTOP\CZ4079  FINAL YEAR PROJECT\FLTK\FLTK-1.3.2\IDE\VISUALC2010\FLTKGL_DEBUG\FREEGLUT_TEAPOT.SBR|C:\USERS\ATMOZZIS\DESKTOP\CZ4079  FINAL YEAR PROJECT\FLTK\FLTK-1.3.2\IDE\VISUALC2010\FLTKGL_DEBUG\GLUT_COMPATABILITY.SBR|C:\USERS\ATMOZZIS\DESKTOP\CZ4079  FINAL YEAR PROJECT\FLTK\FLTK-1.3.2\IDE\VISUALC2010\FLTKGL_DEBUG\GLUT_FONT.SBR|C:\USERS\ATMOZZIS\DESKTOP\CZ4079  FINAL YEAR PROJECT\FLTK\FLTK-1.3.2\IDE\VISUALC2010\FLTKGL_DEBUG\GL_DRAW.SBR|C:\USERS\ATMOZZIS\DESKTOP\CZ4079  FINAL YEAR PROJECT\FLTK\FLTK-1.3.2\IDE\VISUALC2010\FLTKGL_DEBUG\GL_START.SBR
C:\WINDOWS\SYSTEM32\TZRES.DLL
C:\USERS\ATMOZZIS\DESKTOP\CZ4079  FINAL YEAR PROJECT\FLTK\FLTK-1.3.2\IDE\VISUALC2010\FLTKGL_DEBUG\FL_GL_CHOICE.SBR
C:\USERS\ATMOZZIS\DESKTOP\CZ4079  FINAL YEAR PROJECT\FLTK\FLTK-1.3.2\IDE\VISUALC2010\FLTKGL_DEBUG\FL_GL_DEVICE_PLUGIN.SBR
C:\USERS\ATMOZZIS\DESKTOP\CZ4079  FINAL YEAR PROJECT\FLTK\FLTK-1.3.2\IDE\VISUALC2010\FLTKGL_DEBUG\FL_GL_OVERLAY.SBR
C:\USERS\ATMOZZIS\DESKTOP\CZ4079  FINAL YEAR PROJECT\FLTK\FLTK-1.3.2\IDE\VISUALC2010\FLTKGL_DEBUG\FL_GL_WINDOW.SBR
C:\USERS\ATMOZZIS\DESKTOP\CZ4079  FINAL YEAR PROJECT\FLTK\FLTK-1.3.2\IDE\VISUALC2010\FLTKGL_DEBUG\FREEGLUT_GEOMETRY.SBR
C:\USERS\ATMOZZIS\DESKTOP\CZ4079  FINAL YEAR PROJECT\FLTK\FLTK-1.3.2\IDE\VISUALC2010\FLTKGL_DEBUG\FREEGLUT_STROKE_MONO_ROMAN.SBR
C:\USERS\ATMOZZIS\DESKTOP\CZ4079  FINAL YEAR PROJECT\FLTK\FLTK-1.3.2\IDE\VISUALC2010\FLTKGL_DEBUG\FREEGLUT_STROKE_ROMAN.SBR
C:\USERS\ATMOZZIS\DESKTOP\CZ4079  FINAL YEAR PROJECT\FLTK\FLTK-1.3.2\IDE\VISUALC2010\FLTKGL_DEBUG\FREEGLUT_TEAPOT.SBR
C:\USERS\ATMOZZIS\DESKTOP\CZ4079  FINAL YEAR PROJECT\FLTK\FLTK-1.3.2\IDE\VISUALC2010\FLTKGL_DEBUG\GL_DRAW.SBR
C:\USERS\ATMOZZIS\DESKTOP\CZ4079  FINAL YEAR PROJECT\FLTK\FLTK-1.3.2\IDE\VISUALC2010\FLTKGL_DEBUG\GL_START.SBR
C:\USERS\ATMOZZIS\DESKTOP\CZ4079  FINAL YEAR PROJECT\FLTK\FLTK-1.3.2\IDE\VISUALC2010\FLTKGL_DEBUG\GLUT_COMPATABILITY.SBR
C:\USERS\ATMOZZIS\DESKTOP\CZ4079  FINAL YEAR PROJECT\FLTK\FLTK-1.3.2\IDE\VISUALC2010\FLTKGL_DEBUG\GLUT_FONT.SBR
