<?xml version="1.0" encoding="UTF-8" standalone="no"?>
<!-- Created with Cacani (http://www.cacani.org/) -->
<svg
	xmlns="http://www.w3.org/2000/svg"
	xmlns:cacani="http://www.cacani.org/namespaces/cacani"
	version="1.1"
	width="480"
	height="490">
<g cacani:groupmode="cel" id="Run">
	<g display="none" cacani:groupmode="layer" id="Ref 1">
	</g>
	<g display="none" cacani:groupmode="sketch_layer" id="Sketch 2">
	<path
		style="fill:none;stroke:#000000;stroke-width:0.756197px;stroke-opacity:1;stroke-linecap:round"
		d="M 154.039,266.137 C 153.295,268.203 152.933,270.391 152.525,272.548 151.925,275.723 151.375,278.907 150.812,282.088 150.042,286.443 149.25,290.794 148.409,295.136 148.058,296.948 147.657,298.753 147.402,300.581" />
	<path
		style="fill:none;stroke:#000000;stroke-width:0.747291px;stroke-opacity:1;stroke-linecap:round"
		d="M 152.932,271.861 C 151.507,277.855 150.478,283.937 149.218,289.968 148.314,294.294 147.092,298.577 146.635,302.973" />
	<path
		style="fill:none;stroke:#000000;stroke-width:1.27509px;stroke-opacity:1;stroke-linecap:round"
		d="M 169.499,265.987 C 167.924,267.699 167.391,270.149 166.606,272.339 165.565,275.246 164.584,278.175 163.644,281.116 162.643,284.247 161.675,287.389 160.68,290.521 159.625,293.843 158.328,297.17 158.068,300.645" />
	<path
		style="fill:none;stroke:#000000;stroke-width:0.93097px;stroke-opacity:1;stroke-linecap:round"
		d="M 164.745,274.023 C 163.083,278.621 162.249,283.476 161.033,288.211 159.905,292.603 158.438,296.905 156.907,301.174 156.479,302.367 156.143,303.596 155.634,304.756" />
	<path
		style="fill:none;stroke:#000000;stroke-width:1.04291px;stroke-opacity:1;stroke-linecap:round"
		d="M 156.725,303.409 C 156.225,304.959 156.153,306.616 155.928,308.229 155.655,310.188 155.163,312.11 154.861,314.065" />
	<path
		style="fill:none;stroke:#000000;stroke-width:1.11111px;stroke-opacity:1;stroke-linecap:round"
		d="M 147.238,300.622 C 144.894,302.362 143.24,304.893 141.483,307.226 140.518,308.507 139.512,309.77 138.717,311.163 138.3,311.894 137.933,312.771 138.064,313.602 138.083,313.728 138.147,313.843 138.189,313.963" />
	<path
		style="fill:none;stroke:#000000;stroke-width:1.13885px;stroke-opacity:1;stroke-linecap:round"
		d="M 137.368,313.12 C 139.196,315.656 141.986,317.475 144.796,318.848 146.45,319.656 148.183,320.517 150.019,320.641" />
	<path
		style="fill:none;stroke:#000000;stroke-width:1.36139px;stroke-opacity:1;stroke-linecap:round"
		d="M 156.555,303.409 C 156.102,304.94 156.447,306.613 156.636,308.199 156.862,310.094 157.08,311.994 157.148,313.902 157.185,314.941 157.276,315.995 157.117,317.023" />
	<path
		style="fill:none;stroke:#000000;stroke-width:1.15618px;stroke-opacity:1;stroke-linecap:round"
		d="M 153.404,316.32 C 154.345,316.561 155.378,316.673 156.317,316.425" />
	<path
		style="fill:none;stroke:#000000;stroke-width:1.35768px;stroke-opacity:1;stroke-linecap:round"
		d="M 148.785,320.906 C 150.015,319.144 151.604,317.662 153,316.029 153.667,315.248 154.445,314.465 154.728,313.477" />
	<path
		style="fill:none;stroke:#000000;stroke-width:1.6073px;stroke-opacity:1;stroke-linecap:round"
		d="M 137.589,310.536 C 139.16,308.48 140.967,306.614 142.751,304.74 143.93,303.503 145.017,302.1 146.488,301.231" />
	</g>
	<g cacani:groupmode="layer" id="leg_R">
	<path
		style="fill:none;stroke:#000000;stroke-width:4px;stroke-opacity:1;stroke-linecap:round"
		d="M 199.358,337.732 C 199.38,336.056 199.803,334.406 200.057,332.747 200.558,329.474 201.097,326.207 201.643,322.94 203.11,314.159 204.702,305.388 206.716,296.714 209.309,285.542 211.728,274.325 214.631,263.23 215.31,260.636 215.843,258.001 216.605,255.43 217.039,253.965 217.649,252.558 218.104,251.1" />
	<path
		style="fill:none;stroke:#000000;stroke-width:4px;stroke-opacity:1;stroke-linecap:round"
		d="M 199.358,337.732 C 197.835,338.484 196.312,339.235 195.008,340.658 194.175,341.567 193.432,342.749 193.6,343.696 193.773,344.673 194.916,345.398 196.06,346.124" />
	<path
		style="fill:none;stroke:#000000;stroke-width:4px;stroke-opacity:1;stroke-linecap:round"
		d="M 196.06,346.124 C 199.809,348.241 203.559,350.357 207.56,351.804 211.699,353.3 216.108,354.079 220.493,354.77 223.424,355.233 226.346,355.656 229.267,356.08" />
	<path
		style="fill:none;stroke:#000000;stroke-width:4px;stroke-opacity:1;stroke-linecap:round"
		d="M 229.267,356.08 C 230.296,356.156 231.325,356.233 232.46,355.991 233.659,355.736 234.978,355.126 235.392,354.323 236.031,353.085 234.525,351.391 233.018,349.697" />
	<path
		style="fill:none;stroke:#000000;stroke-width:4px;stroke-opacity:1;stroke-linecap:round"
		d="M 233.018,349.697 C 236.577,339.914 240.136,330.132 243.592,320.314 249.824,302.609 255.723,284.788 261.621,266.967" />
	<path
		style="fill:none;stroke:#000000;stroke-width:4px;stroke-opacity:1;stroke-linecap:round"
		d="M 227.278,355.783 C 225.608,358.618 223.939,361.453 221.41,362.854 219.334,364.004 216.678,364.189 214.022,364.373" />
	<path
		style="fill:none;stroke:#000000;stroke-width:4px;stroke-opacity:1;stroke-linecap:round"
		d="M 214.022,364.373 C 205.411,369.199 196.8,374.025 188.726,379.59 174.236,389.576 161.475,401.941 148.713,414.307" />
	<path
		style="fill:none;stroke:#000000;stroke-width:4px;stroke-opacity:1;stroke-linecap:round"
		d="M 199.646,348.076 C 197.62,349.438 195.593,350.801 193.568,352.175 182.504,359.679 171.463,367.517 162.125,376.971 152.73,386.482 145.06,397.628 137.39,408.775" />
	<path
		style="fill:none;stroke:#000000;stroke-width:4px;stroke-opacity:1;stroke-linecap:round"
		d="M 154.628,417.359 C 152.661,416.332 150.694,415.304 148.713,414.307 144.961,412.418 141.157,410.634 137.39,408.775 135.616,407.899 133.85,407.006 132.084,406.114" />
	<path
		style="fill:none;stroke:#000000;stroke-width:4px;stroke-opacity:1;stroke-linecap:round"
		d="M 132.084,406.114 C 131.483,408.481 130.882,410.848 130.28,413.215" />
	<path
		style="fill:none;stroke:#000000;stroke-width:4px;stroke-opacity:1;stroke-linecap:round"
		d="M 130.28,413.215 C 126.057,415.017 121.834,416.819 118.067,419.335 115.46,421.077 113.071,423.16 110.847,425.439 109.921,426.388 109.023,427.37 108.401,428.522 108.294,428.719 108.195,428.922 108.096,429.125" />
	<path
		style="fill:none;stroke:#000000;stroke-width:4px;stroke-opacity:1;stroke-linecap:round"
		d="M 108.096,429.125 C 108.152,429.351 108.207,429.578 108.284,429.796 108.396,430.114 108.555,430.416 108.728,430.707 109.246,431.577 109.899,432.352 110.559,433.12 114.256,437.416 118.185,441.473 122.175,445.476 122.805,446.108 123.437,446.738 124.068,447.369" />
	<path
		style="fill:none;stroke:#000000;stroke-width:4px;stroke-opacity:1;stroke-linecap:round"
		d="M 124.068,447.369 C 124.935,448.193 125.803,449.017 126.651,449.858 128.278,451.471 129.837,453.146 131.358,454.87 132.789,456.492 134.186,458.156 135.507,459.831 136.942,461.65 138.288,463.48 139.88,465.329 140.707,466.289 141.6,467.254 142.725,467.614 143.36,467.817 144.069,467.828 144.773,467.834 149.688,467.874 154.372,467.672 159.143,467.337 159.907,467.283 160.673,467.226 161.439,467.169" />
	<path
		style="fill:none;stroke:#000000;stroke-width:4px;stroke-opacity:1;stroke-linecap:round"
		d="M 161.439,467.169 C 163.749,467.032 166.058,466.895 168.428,466.747 169.335,466.691 170.251,466.633 171.054,466.208 171.497,465.973 171.906,465.626 172.14,465.201 172.388,464.749 172.44,464.209 172.491,463.668" />
	<path
		style="fill:none;stroke:#000000;stroke-width:4px;stroke-opacity:1;stroke-linecap:round"
		d="M 172.491,463.668 C 172.216,462.074 171.942,460.48 171.338,459 170.361,456.601 168.52,454.501 166.378,452.988 164.187,451.44 161.68,450.507 159.174,449.574" />
	<path
		style="fill:none;stroke:#000000;stroke-width:4px;stroke-opacity:1;stroke-linecap:round"
		d="M 159.174,449.574 C 158.741,446.144 158.307,442.714 157.501,439.38 156.378,434.736 154.531,430.279 152.685,425.822" />
	<path
		style="fill:none;stroke:#000000;stroke-width:4px;stroke-opacity:1;stroke-linecap:round"
		d="M 152.685,425.822 C 154.983,424.721 157.281,423.619 159.392,422.434 161.917,421.016 164.173,419.478 166.144,416.493 166.962,415.253 167.732,413.763 167.274,412.932 166.813,412.095 165.105,411.928 163.616,412.041 159.484,412.353 157.032,414.815 154.628,417.359 153.275,418.791 151.937,420.248 150.891,421.897 150.28,422.859 149.768,423.886 149.257,424.914" />
	<path
		style="fill:none;stroke:#000000;stroke-width:4px;stroke-opacity:1;stroke-linecap:round"
		d="M 152.685,425.822 C 152.224,425.856 151.763,425.89 151.323,425.821 150.595,425.707 149.926,425.31 149.257,424.914" />
	<path
		style="fill:none;stroke:#000000;stroke-width:4px;stroke-opacity:1;stroke-linecap:round"
		d="M 149.257,424.914 C 150.523,427.54 151.79,430.166 152.853,432.881 154.075,436.001 155.029,439.238 155.645,442.529 156.135,445.147 156.411,447.799 156.688,450.451" />
	<path
		style="fill:none;stroke:#000000;stroke-width:4px;stroke-opacity:1;stroke-linecap:round"
		d="M 156.688,450.451 C 157.854,450.871 159.021,451.291 160.026,451.714 160.928,452.094 161.701,452.476 163.009,452.886 163.593,453.07 164.283,453.258 164.418,453.131 164.597,452.963 163.8,452.24 163.156,451.717 162.365,451.075 161.804,450.735 161.242,450.395" />
	</g>
	<g cacani:groupmode="layer" id="arm_R">
	<path
		style="fill:none;stroke:#000000;stroke-width:4px;stroke-opacity:1;stroke-linecap:round"
		d="M 303.512,164.561 C 306.262,167.321 309.013,170.081 311.766,172.843 315.341,176.429 318.921,180.018 322.211,183.858 324.051,186.006 325.8,188.232 327.55,190.459" />
	<path
		style="fill:none;stroke:#000000;stroke-width:4px;stroke-opacity:1;stroke-linecap:round"
		d="M 327.55,190.459 C 326.963,192.859 326.622,193.341 326.269,193.812 325.185,195.261 323.919,196.582 322.556,197.772 320.48,199.583 318.112,201.058 315.696,202.382 313.582,203.54 311.422,204.635 309.182,205.527" />
	<path
		style="fill:none;stroke:#000000;stroke-width:4px;stroke-opacity:1;stroke-linecap:round"
		d="M 309.182,205.527 C 302.837,200.504 301.045,198.534 299.206,196.607 294.074,191.231 289.035,185.763 283.79,180.496" />
	<path
		style="fill:none;stroke:#000000;stroke-width:4px;stroke-opacity:1;stroke-linecap:round"
		d="M 326.357,193.662 C 328.793,196.208 331.228,198.755 333.736,201.843 334.571,202.871 335.414,203.959 336.567,204.173 337.028,204.259 337.538,204.206 338.029,204.111 339.649,203.8 341.067,203.038 342.517,202.344 347.951,199.738 353.823,198.069 359.267,195.52 363.934,193.335 368.288,190.504 372.642,187.673" />
	<path
		style="fill:none;stroke:#000000;stroke-width:4px;stroke-opacity:1;stroke-linecap:round"
		d="M 312.914,203.832 C 316.988,207.616 321.061,211.4 325.254,214.922 327.567,216.865 329.915,218.728 332.709,220.229 333.291,220.541 333.893,220.838 334.51,220.855 334.981,220.868 335.462,220.718 335.936,220.56 339.434,219.399 342.602,217.853 345.76,216.227 351.721,213.158 357.646,209.808 363.375,206.207 367.302,203.739 371.137,201.152 375.072,198.715 376.415,197.883 377.77,197.069 379.124,196.255" />
	<path
		style="fill:none;stroke:#000000;stroke-width:4px;stroke-opacity:1;stroke-linecap:round"
		d="M 372.642,187.673 C 372.276,186.32 371.909,184.967 371.664,183.59 371.46,182.45 371.339,181.294 371.267,180.137 371.219,179.352 371.193,178.567 371.167,177.782" />
	<path
		style="fill:none;stroke:#000000;stroke-width:4px;stroke-opacity:1;stroke-linecap:round"
		d="M 371.167,177.782 C 371.183,177.12 371.2,176.459 371.309,175.829 371.665,173.789 373.002,172.084 374.25,170.207 374.484,169.856 374.715,169.498 375.036,169.315 375.499,169.05 376.149,169.149 376.748,169.185 377.193,169.212 377.61,169.204 378.023,169.254 379.494,169.431 380.916,170.341 382.138,171.192 383.662,172.252 384.874,173.221 386.658,174.616 387.306,175.122 388.029,175.684 387.907,176.253 387.828,176.622 387.394,176.993 386.955,177.189 386.392,177.44 385.822,177.404 385.252,177.367" />
	<path
		style="fill:none;stroke:#000000;stroke-width:4px;stroke-opacity:1;stroke-linecap:round"
		d="M 385.252,177.367 C 384.771,177.379 384.291,177.391 383.834,177.293 383.365,177.193 382.92,176.977 382.475,176.761" />
	<path
		style="fill:none;stroke:#000000;stroke-width:4px;stroke-opacity:1;stroke-linecap:round"
		d="M 382.475,176.761 C 382.542,177.334 382.609,177.907 382.69,178.527 382.917,180.288 383.247,182.428 382.36,183.567 381.596,184.548 379.93,184.787 378.264,185.026" />
	<path
		style="fill:none;stroke:#000000;stroke-width:4px;stroke-opacity:1;stroke-linecap:round"
		d="M 376.748,169.185 C 376.953,168.847 377.182,168.524 377.418,168.209 378.091,167.316 378.829,166.485 379.567,165.655" />
	<path
		style="fill:none;stroke:#000000;stroke-width:4px;stroke-opacity:1;stroke-linecap:round"
		d="M 379.567,165.655 C 379.905,165.432 380.243,165.208 380.599,165.156 381.088,165.084 381.609,165.338 382.126,165.56 383.813,166.282 385.457,166.656 386.917,167.464 388.551,168.368 389.954,169.816 391.25,171.278 393.156,173.426 394.833,175.602 396.398,178.025 396.748,178.568 397.093,179.123 397.245,179.726 397.402,180.347 397.354,181.018 397.499,181.665 397.564,181.954 397.668,182.239 397.684,182.519 397.715,183.053 397.429,183.573 397.144,184.093" />
	<path
		style="fill:none;stroke:#000000;stroke-width:4px;stroke-opacity:1;stroke-linecap:round"
		d="M 397.144,184.093 C 396.477,185.038 395.81,185.982 395.065,186.858 394.05,188.05 392.89,189.116 391.731,190.182" />
	<path
		style="fill:none;stroke:#000000;stroke-width:4px;stroke-opacity:1;stroke-linecap:round"
		d="M 391.731,190.182 C 390.668,191.205 389.605,192.227 388.403,193.026 386.903,194.022 385.186,194.67 383.55,195.528 383.031,195.801 382.521,196.095 381.965,196.226 381.56,196.321 381.132,196.331 380.708,196.325 380.175,196.318 379.65,196.286 379.124,196.255" />
	</g>
	<g cacani:groupmode="layer" id="body">
	<path
		style="fill:none;stroke:#000000;stroke-width:4px;stroke-opacity:1;stroke-linecap:round"
		d="M 349.169,42.6829 C 344.2,40.5093 339.23,38.3358 334.041,36.5321 327.239,34.1676 320.059,32.4389 312.992,32.6256 306.225,32.8044 299.56,34.7395 292.896,36.6746" />
	<path
		style="fill:none;stroke:#000000;stroke-width:4px;stroke-opacity:1;stroke-linecap:round"
		d="M 292.896,36.6746 C 293.232,35.4722 293.569,34.2698 293.491,33.0585 293.408,31.7723 292.857,30.4761 292.058,29.4403 291.096,28.1946 289.774,27.3258 288.451,26.4569" />
	<path
		style="fill:none;stroke:#000000;stroke-width:4px;stroke-opacity:1;stroke-linecap:round"
		d="M 288.451,26.4569 C 289.024,27.8221 289.597,29.1874 289.653,30.5376 289.741,32.6385 288.579,34.7031 287.418,36.7677" />
	<path
		style="fill:none;stroke:#000000;stroke-width:4px;stroke-opacity:1;stroke-linecap:round"
		d="M 287.418,36.7677 C 283.959,36.3487 280.501,35.9297 277.434,37.1608 275.846,37.7985 274.362,38.879 272.733,39.3244 271.134,39.7614 269.395,39.5873 267.657,39.4133" />
	<path
		style="fill:none;stroke:#000000;stroke-width:4px;stroke-opacity:1;stroke-linecap:round"
		d="M 278.97,41.4073 C 277.107,41.6715 275.245,41.9357 273.469,41.6707 271.458,41.3706 269.557,40.3919 267.657,39.4133" />
	<path
		style="fill:none;stroke:#000000;stroke-width:4px;stroke-opacity:1;stroke-linecap:round"
		d="M 278.97,41.4073 C 277.42,41.9393 275.87,42.4712 274.326,43.059 272.305,43.8282 270.295,44.6931 268.499,45.8227 263.193,49.1584 259.748,54.8026 256.302,60.4468" />
	<path
		style="fill:none;stroke:#000000;stroke-width:4px;stroke-opacity:1;stroke-linecap:round"
		d="M 256.302,60.4468 C 257.583,59.5859 258.865,58.725 260.273,58.2083 261.654,57.7018 263.157,57.5263 264.66,57.3507" />
	<path
		style="fill:none;stroke:#000000;stroke-width:4px;stroke-opacity:1;stroke-linecap:round"
		d="M 264.66,57.3507 C 262.334,59.4444 260.008,61.5381 258.17,64.0106 255.918,67.0401 254.399,70.6383 253.279,74.3015 252.099,78.1634 251.364,82.0976 250.993,86.0944 250.612,90.2063 250.616,94.3844 251.2,98.4511 252.03,104.243 254.033,109.809 256.037,115.375" />
	<path
		style="fill:none;stroke:#000000;stroke-width:4px;stroke-opacity:1;stroke-linecap:round"
		d="M 256.037,115.375 C 256.228,114.377 256.419,113.38 256.66,112.396 257.27,109.897 258.196,107.484 259.122,105.071" />
	<path
		style="fill:none;stroke:#000000;stroke-width:4px;stroke-opacity:1;stroke-linecap:round"
		d="M 259.122,105.071 C 260.388,108.157 261.653,111.243 263.37,114.055 266.006,118.374 269.707,122.046 273.806,125.195 277.035,127.676 280.51,129.833 284.299,131.065 286.548,131.796 288.908,132.202 291.267,132.607" />
	<path
		style="fill:none;stroke:#000000;stroke-width:4px;stroke-opacity:1;stroke-linecap:round"
		d="M 349.169,42.6829 C 350.626,43.3113 352.082,43.9398 353.501,44.6595 356.441,46.1509 359.221,48.034 362.289,49.1433 364.374,49.897 366.592,50.2935 368.811,50.6901" />
	<path
		style="fill:none;stroke:#000000;stroke-width:4px;stroke-opacity:1;stroke-linecap:round"
		d="M 368.811,50.6901 C 366.988,51.5857 365.165,52.4813 363.242,52.9522 361.037,53.4925 358.701,53.4738 356.365,53.4551" />
	<path
		style="fill:none;stroke:#000000;stroke-width:4px;stroke-opacity:1;stroke-linecap:round"
		d="M 356.365,53.4551 C 358.974,56.929 361.582,60.4028 363.208,64.2692 366.935,73.1307 365.5,84.054 362.641,93.5941 362.072,95.4945 361.446,97.34 361.16,99.2456 360.867,101.197 360.93,103.21 360.994,105.224" />
	<path
		style="fill:none;stroke:#000000;stroke-width:4px;stroke-opacity:1;stroke-linecap:round"
		d="M 360.994,105.224 C 359.913,103.931 358.833,102.637 358.003,101.206 356.842,99.2052 356.171,96.9351 355.5,94.665" />
	<path
		style="fill:none;stroke:#000000;stroke-width:4px;stroke-opacity:1;stroke-linecap:round"
		d="M 355.5,94.665 C 353.957,98.2808 352.413,101.897 349.693,104.41 348.317,105.682 346.639,106.672 344.961,107.662" />
	<path
		style="fill:none;stroke:#000000;stroke-width:4px;stroke-opacity:1;stroke-linecap:round"
		d="M 347.422,83.574 C 348.15,86.7311 348.032,90.0525 347.82,93.2854 347.366,100.201 345.296,106.96 343.114,113.538" />
	<path
		style="fill:none;stroke:#000000;stroke-width:4px;stroke-opacity:1;stroke-linecap:round"
		d="M 343.114,113.538 C 344.476,116.852 345.377,117.47 346.048,118.285 346.645,119.011 347.106,119.96 347.101,120.899 347.096,121.845 345.936,122.511 345.061,122.871 343.909,123.346 342.735,123.781 341.528,124.09" />
	<path
		style="fill:none;stroke:#000000;stroke-width:4px;stroke-opacity:1;stroke-linecap:round"
		d="M 341.528,124.09 C 341.335,127.036 342.194,128.278 341.973,129.561 341.742,130.895 340.389,131.973 339.124,132.455" />
	<path
		style="fill:none;stroke:#000000;stroke-width:4px;stroke-opacity:1;stroke-linecap:round"
		d="M 339.124,132.455 C 335.31,132.337 331.496,132.218 327.806,131.458 324.945,130.868 322.157,129.892 319.37,128.916" />
	<path
		style="fill:none;stroke:#000000;stroke-width:4px;stroke-opacity:1;stroke-linecap:round"
		d="M 335.064,132.271 C 335.821,133.839 336.579,135.406 335.905,136.57 335.608,137.083 335.034,137.518 334.441,137.826 333.736,138.194 333.004,138.383 332.272,138.572" />
	<path
		style="fill:none;stroke:#000000;stroke-width:4px;stroke-opacity:1;stroke-linecap:round"
		d="M 332.272,138.572 C 332.114,139.558 331.956,140.543 331.832,141.627 331.609,143.581 331.497,145.856 330.332,146.983 329.276,148.004 327.356,148.085 325.436,148.165" />
	<path
		style="fill:none;stroke:#000000;stroke-width:4px;stroke-opacity:1;stroke-linecap:round"
		d="M 325.436,148.165 C 323.524,148.087 321.611,148.008 319.734,147.725 316.726,147.271 313.809,146.29 310.893,145.31" />
	<path
		style="fill:none;stroke:#000000;stroke-width:4px;stroke-opacity:1;stroke-linecap:round"
		d="M 310.893,145.31 C 310.509,148.326 310.125,151.342 309.536,154.316 308.696,158.554 307.438,162.706 306.18,166.857" />
	<path
		style="fill:none;stroke:#000000;stroke-width:4px;stroke-opacity:1;stroke-linecap:round"
		d="M 347.422,83.574 C 346.427,81.9132 345.431,80.2523 344.227,78.7524 342.738,76.8989 340.93,75.2911 339.014,73.8618 334.248,70.307 328.813,67.8562 323.377,65.4054" />
	<path
		style="fill:none;stroke:#000000;stroke-width:4px;stroke-opacity:1;stroke-linecap:round"
		d="M 323.377,65.4054 C 324.461,68.1159 325.545,70.8264 326.167,73.6361 326.86,76.7691 326.979,80.0255 327.098,83.2818" />
	<path
		style="fill:none;stroke:#000000;stroke-width:4px;stroke-opacity:1;stroke-linecap:round"
		d="M 327.098,83.2818 C 324.785,80.5112 322.472,77.7405 319.555,75.7489 317.638,74.4397 315.461,73.4671 313.237,72.7184 311.757,72.2197 310.256,71.8203 308.755,71.421" />
	<path
		style="fill:none;stroke:#000000;stroke-width:4px;stroke-opacity:1;stroke-linecap:round"
		d="M 313.285,72.6917 C 313.073,72.8328 312.438,73.2564 312.438,73.2564 311.479,73.8963 310.753,74.8483 310.07,75.7777 308.422,78.023 307.466,80.7229 306.521,83.3434" />
	<path
		style="fill:none;stroke:#000000;stroke-width:4px;stroke-opacity:1;stroke-linecap:round"
		d="M 306.521,83.3434 C 305.442,86.8809 305.082,88.3884 304.848,89.913 304.121,94.6571 304.321,99.5012 304.283,104.301" />
	<path
		style="fill:none;stroke:#000000;stroke-width:4px;stroke-opacity:1;stroke-linecap:round"
		d="M 304.283,104.301 C 302.765,101.209 301.247,98.1177 298.561,95.3968 297.58,94.4036 296.444,93.4598 295.285,93.3483 293.675,93.1934 292.022,94.6437 290.748,96.2127 286.956,100.883 286.531,106.604 288.738,112.057 289.77,114.607 291.377,117.098 293.654,117.676 294.732,117.95 295.961,117.795 297.189,117.64" />
	<path
		style="fill:none;stroke:#000000;stroke-width:4px;stroke-opacity:1;stroke-linecap:round"
		d="M 338.389,93.1793 C 338.001,91.9549 336.942,91.0197 335.972,90.1781 334.431,88.8412 332.419,87.6681 330.379,87.6929 327.956,87.7222 325.717,89.86 324.482,91.9447" />
	<path
		style="fill:none;stroke:#000000;stroke-width:4px;stroke-opacity:1;stroke-linecap:round"
		d="M 332.996,104.96 C 333.007,104.203 333.018,103.446 332.867,102.509 332.66,101.22 332.147,99.5907 331.326,99.5051 330.621,99.4316 329.689,100.497 329.195,101.473 328.813,102.23 328.694,102.932 328.575,103.635" />
	<path
		style="fill:none;stroke:#000000;stroke-width:4px;stroke-opacity:1;stroke-linecap:round"
		d="M 332.996,104.96 C 332.819,106.568 332.642,108.176 331.393,109.568 330.892,110.126 330.219,110.649 329.7,110.549 329.121,110.436 328.734,109.547 328.503,108.72 327.966,106.797 328.27,105.216 328.575,103.635" />
	<path
		style="fill:none;stroke:#000000;stroke-width:4px;stroke-opacity:1;stroke-linecap:round"
		d="M 294.113,117.748 C 294.177,118.125 294.368,119.256 294.368,119.256 294.574,120.475 294.792,121.709 295.243,122.859 296.114,125.079 297.41,127.107 298.546,129.203" />
	<path
		style="fill:none;stroke:#000000;stroke-width:4px;stroke-opacity:1;stroke-linecap:round"
		d="M 298.546,129.203 C 298.503,129.161 298.372,129.037 298.372,129.037 296.496,128.46 295.114,126.845 293.541,125.672" />
	<path
		style="fill:none;stroke:#000000;stroke-width:4px;stroke-opacity:1;stroke-linecap:round"
		d="M 293.541,125.672 C 291.318,131.029 291.438,131.839 291.267,132.607" />
	<path
		style="fill:none;stroke:#000000;stroke-width:4px;stroke-opacity:1;stroke-linecap:round"
		d="M 291.267,132.607 C 291.157,135.665 291.048,138.722 290.224,141.595 289.654,143.583 288.742,145.482 287.829,147.381" />
	<path
		style="fill:none;stroke:#000000;stroke-width:4px;stroke-opacity:1;stroke-linecap:round"
		d="M 306.18,166.857 C 305.637,168.489 305.094,170.121 304.267,171.685 303.496,173.142 302.479,174.539 301.103,175.348 300.445,175.735 299.704,175.988 298.963,176.24" />
	<path
		style="fill:none;stroke:#000000;stroke-width:4px;stroke-opacity:1;stroke-linecap:round"
		d="M 298.963,176.24 C 298.122,176.392 297.282,176.545 296.524,176.419 294.77,176.128 293.463,174.345 292.322,172.62 289.975,169.071 288.332,165.77 287.121,162.189 285.839,158.396 285.041,154.288 284.244,150.181" />
	<path
		style="fill:none;stroke:#000000;stroke-width:4px;stroke-opacity:1;stroke-linecap:round"
		d="M 287.829,147.381 C 287.257,148.091 286.684,148.8 285.981,149.352 285.481,149.745 284.914,150.058 284.348,150.369 281.527,151.918 278.705,153.42 276.101,155.243 271.964,158.139 268.377,161.845 265.066,165.723 261.61,169.772 258.453,174.01 255.296,178.247" />
	<path
		style="fill:none;stroke:#000000;stroke-width:4px;stroke-opacity:1;stroke-linecap:round"
		d="M 303.896,172.322 C 301.915,177.317 299.934,182.313 297.743,187.213 291.173,201.903 282.717,215.73 275.96,230.33 271.695,239.545 268.107,249.069 264.519,258.592" />
	<path
		style="fill:none;stroke:#000000;stroke-width:4px;stroke-opacity:1;stroke-linecap:round"
		d="M 264.519,258.592 C 265.804,259.776 267.089,260.959 267.655,262.408 267.99,263.265 268.074,264.215 267.768,264.933 267.129,266.436 264.785,266.924 262.751,267.272 261.913,267.416 261.128,267.536 260.342,267.655" />
	<path
		style="fill:none;stroke:#000000;stroke-width:4px;stroke-opacity:1;stroke-linecap:round"
		d="M 260.342,267.655 C 258.874,267.646 257.406,267.637 255.953,267.515 251.964,267.181 248.093,265.996 244.179,264.902 238.996,263.452 233.737,262.162 229.139,259.523 227.927,258.827 226.76,258.037 225.593,257.248" />
	<path
		style="fill:none;stroke:#000000;stroke-width:4px;stroke-opacity:1;stroke-linecap:round"
		d="M 263.886,267.052 C 272.078,270.917 280.27,274.781 288.529,278.496 300.279,283.782 312.164,288.765 324.049,293.748" />
	<path
		style="fill:none;stroke:#000000;stroke-width:4px;stroke-opacity:1;stroke-linecap:round"
		d="M 324.049,293.748 C 326.276,293.314 328.503,292.88 329.834,294.014 330.803,294.838 331.297,296.492 331.29,297.968 331.283,299.251 330.897,300.399 330.511,301.547" />
	<path
		style="fill:none;stroke:#000000;stroke-width:4px;stroke-opacity:1;stroke-linecap:round"
		d="M 330.511,301.547 C 329.348,304.51 328.185,307.473 326.964,310.455 325.618,313.745 324.203,317.058 322.1,319.848 320.299,322.236 317.995,324.241 315.69,326.246" />
	<path
		style="fill:none;stroke:#000000;stroke-width:4px;stroke-opacity:1;stroke-linecap:round"
		d="M 315.69,326.246 C 315.063,326.783 314.435,327.32 313.628,327.575 312.867,327.816 311.945,327.805 311.314,327.468 310.227,326.887 310.003,325.335 309.779,323.783" />
	<path
		style="fill:none;stroke:#000000;stroke-width:4px;stroke-opacity:1;stroke-linecap:round"
		d="M 309.779,323.783 C 308.2,323.835 306.679,323.14 305.154,322.719 302.704,322.043 300.253,321.368 297.801,320.698 289.85,318.524 281.889,316.374 274.029,313.892 264.016,310.73 253.813,307.817 244.439,303.086 239.816,300.752 235.238,298.152 231.309,294.785 229.827,293.516 228.561,292.014 227.258,290.565" />
	<path
		style="fill:none;stroke:#000000;stroke-width:4px;stroke-opacity:1;stroke-linecap:round"
		d="M 225.593,257.248 C 223.052,255.606 220.512,253.965 218.179,252.157 216.733,251.035 215.367,249.85 214.23,248.22 213.505,247.182 212.873,245.964 212.863,244.94 212.84,242.607 216.05,241.286 219.259,239.966" />
	<path
		style="fill:none;stroke:#000000;stroke-width:4px;stroke-opacity:1;stroke-linecap:round"
		d="M 255.296,178.247 C 249.562,187.212 243.828,196.176 238.415,205.329 231.701,216.682 225.48,228.324 219.259,239.966" />
	<path
		style="fill:none;stroke:#000000;stroke-width:4px;stroke-opacity:1;stroke-linecap:round"
		d="M 306.18,166.857 C 305.716,168.02 305.252,169.184 304.409,169.951 303.444,170.83 301.984,171.19 300.563,171.309 299.681,171.382 298.814,171.362 298.039,171.134 295.813,170.48 294.343,168.107 293.162,165.752 290.05,159.549 288.94,153.465 287.829,147.381" />
	<path
		style="fill:none;stroke:#000000;stroke-width:4px;stroke-opacity:1;stroke-linecap:round"
		d="M 227.258,290.565 C 225.225,288.309 223.913,285.442 222.51,282.721 221.017,279.826 219.713,276.793 218.843,273.644 216.947,266.781 216.657,259.154 218.419,252.329" />
	<path
		style="fill:none;stroke:#000000;stroke-width:4px;stroke-opacity:1;stroke-linecap:round"
		d="M 330.511,301.547 C 336.653,305.123 342.795,308.7 344.662,314.821 345.198,316.579 345.381,318.547 345.068,320.379 344.571,323.288 342.821,325.855 341.03,328.255 339.914,329.75 338.781,331.181 337.649,332.613" />
	<path
		style="fill:none;stroke:#000000;stroke-width:4px;stroke-opacity:1;stroke-linecap:round"
		d="M 337.649,332.613 C 332.019,341.344 326.39,350.076 320.746,358.799 314.192,368.926 307.619,379.041 301.046,389.156" />
	<path
		style="fill:none;stroke:#000000;stroke-width:4px;stroke-opacity:1;stroke-linecap:round"
		d="M 313.409,320.021 C 314.507,320.602 315.606,321.182 316.3,322.092 316.85,322.813 317.146,323.741 317.442,324.669" />
	<path
		style="fill:none;stroke:#000000;stroke-width:4px;stroke-opacity:1;stroke-linecap:round"
		d="M 317.442,324.669 C 313.931,331.637 310.421,338.606 307.313,345.771 302.477,356.921 298.616,368.548 292.699,379.135 291.711,380.902 290.666,382.64 289.621,384.378" />
	<path
		style="fill:none;stroke:#000000;stroke-width:4px;stroke-opacity:1;stroke-linecap:round"
		d="M 303.656,390.216 C 302.785,389.865 301.914,389.513 301.046,389.156 297.229,387.584 293.459,385.897 289.621,384.378 287.729,383.629 285.821,382.921 283.912,382.212" />
	<path
		style="fill:none;stroke:#000000;stroke-width:4px;stroke-opacity:1;stroke-linecap:round"
		d="M 283.912,382.212 C 283.408,384.805 282.904,387.398 282.4,389.99" />
	<path
		style="fill:none;stroke:#000000;stroke-width:4px;stroke-opacity:1;stroke-linecap:round"
		d="M 282.4,389.99 C 279.856,391.174 277.312,392.357 274.886,393.757 272.394,395.195 270.027,396.861 267.794,398.679 266.544,399.697 265.336,400.762 264.129,401.826" />
	<path
		style="fill:none;stroke:#000000;stroke-width:4px;stroke-opacity:1;stroke-linecap:round"
		d="M 261.626,409.292 C 265.121,413.637 268.615,417.983 272.226,422.234 276.172,426.881 280.256,431.415 284.56,435.728 288.499,439.676 292.622,443.438 296.745,447.2" />
	<path
		style="fill:none;stroke:#000000;stroke-width:4px;stroke-opacity:1;stroke-linecap:round"
		d="M 296.745,447.2 C 298.545,448.654 300.344,450.108 302.481,451.522 303.425,452.147 304.435,452.765 305.443,452.661 306.141,452.588 306.838,452.171 307.403,451.67 307.956,451.181 308.382,450.612 308.808,450.043" />
	<path
		style="fill:none;stroke:#000000;stroke-width:4px;stroke-opacity:1;stroke-linecap:round"
		d="M 308.808,450.043 C 309.294,448.955 309.78,447.866 310.09,446.732 310.656,444.665 310.637,442.448 310.464,440.269 310.283,437.983 309.932,435.739 309.298,433.58 308.464,430.744 307.141,428.055 305.818,425.367" />
	<path
		style="fill:none;stroke:#000000;stroke-width:4px;stroke-opacity:1;stroke-linecap:round"
		d="M 305.818,425.367 C 305.6,421.145 305.382,416.923 304.894,412.733 304.378,408.302 303.56,403.906 302.742,399.511" />
	<path
		style="fill:none;stroke:#000000;stroke-width:4px;stroke-opacity:1;stroke-linecap:round"
		d="M 302.742,399.511 C 304.929,398.531 307.115,397.552 309.308,396.444 311.818,395.176 314.336,393.741 315.994,391.532 316.907,390.315 317.56,388.863 317.564,387.239 317.567,386.231 317.32,385.157 316.791,384.51 315.306,382.694 311.593,384.237 308.941,385.821 306.65,387.189 305.15,388.588 303.656,390.216 302.138,391.871 300.627,393.764 299.429,395.774 298.998,396.497 298.608,397.235 298.217,397.973" />
	<path
		style="fill:none;stroke:#000000;stroke-width:4px;stroke-opacity:1;stroke-linecap:round"
		d="M 261.626,409.292 C 261.41,408.996 261.195,408.7 260.981,408.379 260.628,407.849 260.282,407.252 260.276,406.672 260.269,405.941 260.801,405.237 261.34,404.606 262.254,403.538 263.192,402.682 264.129,401.826" />
	<path
		style="fill:none;stroke:#000000;stroke-width:4px;stroke-opacity:1;stroke-linecap:round"
		d="M 306.441,426.678 C 306.797,427.595 307.154,428.512 307.503,429.891 307.72,430.75 307.935,431.788 307.566,431.999 307.242,432.184 306.465,431.727 305.854,431.279 304.784,430.495 304.222,429.74 303.652,428.888 303.07,428.016 302.48,427.042 301.89,426.068" />
	<path
		style="fill:none;stroke:#000000;stroke-width:4px;stroke-opacity:1;stroke-linecap:round"
		d="M 301.89,426.068 C 301.547,421.296 301.204,416.524 300.581,411.789 299.972,407.16 299.095,402.566 298.217,397.973" />
	<path
		style="fill:none;stroke:#000000;stroke-width:4px;stroke-opacity:1;stroke-linecap:round"
		d="M 302.742,399.511 C 302.225,399.161 301.708,398.811 301.149,398.571 300.245,398.181 299.231,398.077 298.217,397.973" />
	<path
		style="fill:none;stroke:#000000;stroke-width:4px;stroke-opacity:1;stroke-linecap:round"
		d="M 335.064,132.271 C 333.861,132.253 332.631,132.169 331.375,132.02 330.053,131.863 328.702,131.633 327.323,131.332 326.008,131.044 324.667,130.691 323.3,130.273 322.013,129.879 320.703,129.427 319.37,128.916" />
	</g>
	<g cacani:groupmode="layer" id="arm_L top">
	<path
		style="fill:none;stroke:#000000;stroke-width:4px;stroke-opacity:1;stroke-linecap:round"
		d="M 278.203,155.368 C 273.087,154.972 267.971,154.576 262.865,154.58 253.253,154.588 243.675,156.016 234.098,157.444" />
	<path
		style="fill:none;stroke:#000000;stroke-width:4px;stroke-opacity:1;stroke-linecap:round"
		d="M 267.303,183.083 C 270.106,181.477 272.908,179.872 275.364,177.723 279.039,174.507 281.939,170.073 283.041,165.437 283.375,164.035 283.544,162.615 283.487,161.078 283.434,159.642 283.184,158.105 282.355,157.144 281.44,156.085 279.822,155.726 278.203,155.368" />
	<path
		style="fill:none;stroke:#000000;stroke-width:4px;stroke-opacity:1;stroke-linecap:round"
		d="M 267.303,183.083 C 262.88,185.026 258.457,186.97 253.831,188.121 249.759,189.133 245.53,189.532 241.301,189.93" />
	<path
		style="fill:none;stroke:#000000;stroke-width:4px;stroke-opacity:1;stroke-linecap:round"
		d="M 241.301,189.93 C 240.137,188.057 238.972,186.183 237.991,184.211 235.917,180.043 234.659,175.435 234.117,170.793 233.783,167.933 233.721,165.06 233.824,162.194 233.882,160.609 233.99,159.027 234.098,157.444" />
	<path
		style="fill:none;stroke:#000000;stroke-width:4px;stroke-opacity:1;stroke-linecap:round"
		d="M 236.559,180.927 C 234.218,181.636 231.916,182.277 229.64,182.872 226.333,183.738 223.08,184.508 219.706,186.101 219.083,186.396 218.455,186.718 218.14,187.23 217.823,187.746 217.824,188.453 217.797,189.144 217.661,192.696 216.806,195.807 216.04,198.986 214.085,207.1 212.706,215.657 211.474,224.093 211.219,225.835 210.971,227.572 210.723,229.309" />
	<path
		style="fill:none;stroke:#000000;stroke-width:4px;stroke-opacity:1;stroke-linecap:round"
		d="M 233.852,161.709 C 229.551,162.504 225.312,163.425 221.23,164.663 217.021,165.94 212.98,167.554 208.472,168.781 207.796,168.965 207.11,169.141 206.617,169.554 206.173,169.927 205.886,170.493 205.612,171.061 202.617,177.283 201.263,183.697 200.484,190.229 199.636,197.343 199.472,204.596 199.355,211.812 199.295,215.538 199.247,219.254 199.199,222.971" />
	<path
		style="fill:none;stroke:#000000;stroke-width:4px;stroke-opacity:1;stroke-linecap:round"
		d="M 210.723,229.309 C 210.976,232.611 211.228,235.913 211.311,239.225 211.336,240.218 211.346,241.213 211.298,242.205 211.273,242.725 211.232,243.245 211.191,243.765" />
	<path
		style="fill:none;stroke:#000000;stroke-width:4px;stroke-opacity:1;stroke-linecap:round"
		d="M 211.191,243.765 C 211.055,244.306 210.919,244.847 210.574,245.232 210.281,245.558 209.838,245.772 209.401,245.897 208.477,246.159 207.576,246.02 206.56,246.084 205.627,246.142 204.597,246.371 203.95,245.962 203.5,245.677 203.235,245.082 202.708,244.634 201.236,243.382 197.721,243.271 198.153,242.384 198.35,241.98 199.365,241.416 200.202,241.313 200.705,241.251 201.144,241.355 201.584,241.46" />
	<path
		style="fill:none;stroke:#000000;stroke-width:4px;stroke-opacity:1;stroke-linecap:round"
		d="M 201.584,241.46 C 202.198,241.615 202.811,241.77 203.376,241.991 203.877,242.187 204.339,242.435 204.912,242.613 205.255,242.719 205.636,242.8 205.901,242.654 206.15,242.517 206.295,242.18 206.353,241.841 206.433,241.373 206.346,240.903 206.096,240.582 205.8,240.201 205.273,240.029 204.782,239.804 203.591,239.256 202.61,238.389 202.027,237.325 201.445,236.266 201.258,235.012 201.07,233.759" />
	<path
		style="fill:none;stroke:#000000;stroke-width:4px;stroke-opacity:1;stroke-linecap:round"
		d="M 209.741,239.338 C 208.767,241.525 207.793,243.712 206.495,245.699 205.726,246.878 204.842,247.987 204.022,249.137 203.412,249.993 202.837,250.871 202.262,251.749" />
	<path
		style="fill:none;stroke:#000000;stroke-width:4px;stroke-opacity:1;stroke-linecap:round"
		d="M 202.262,251.749 C 202.078,252.144 201.894,252.538 201.584,252.781 201.244,253.047 200.752,253.129 200.279,253.154 199.604,253.189 198.968,253.106 198.348,252.958 196.751,252.575 195.26,251.757 193.619,251.326 192.522,251.037 191.359,250.922 190.394,250.448 188.943,249.736 187.938,248.215 186.952,246.791 186.331,245.895 185.718,245.037 185.292,244.101 184.911,243.262 184.68,242.36 184.195,241.488 183.853,240.874 183.386,240.276 183.369,239.671 183.354,239.098 183.743,238.519 184.133,237.94" />
	<path
		style="fill:none;stroke:#000000;stroke-width:4px;stroke-opacity:1;stroke-linecap:round"
		d="M 184.133,237.94 C 185.759,235.99 187.386,234.04 189.113,232.178 190.999,230.146 193.004,228.219 195.167,226.484 195.94,225.865 196.733,225.27 197.475,224.617 198.072,224.093 198.635,223.532 199.199,222.971" />
	</g>
	<g display="none" cacani:groupmode="sketch_layer" id="Sketch 1">
	</g>
</g>
</svg>
