^C:\USERS\ATMOZZIS\DESKTOP\CZ4079  FINAL YEAR PROJECT\FLTK\FLTK-1.3.2\IDE\VISUALC2010\BOXTYPE_DEBUG\BOXTYPE.OBJ|C:\USERS\ATMOZZIS\DESKTOP\CZ4079  FINAL YEAR PROJECT\FLTK\FLTK-1.3.2\LIB\FLTKD.LIB
C:\USERS\ATMOZZIS\DESKTOP\CZ4079  FINAL YEAR PROJECT\FLTK\FLTK-1.3.2\TEST\BOXTYPED.EXE
C:\USERS\ATMOZZIS\DESKTOP\CZ4079  FINAL YEAR PROJECT\FLTK\FLTK-1.3.2\IDE\VISUALC2010\BOXTYPE_DEBUG\BOXTYPED.EXE.INTERMEDIATE.MANIFEST
C:\USERS\ATMOZZIS\DESKTOP\CZ4079  FINAL YEAR PROJECT\FLTK\FLTK-1.3.2\IDE\VISUALC2010\BOXTYPE_DEBUG\BOXTYPED.PDB
